<?xml version="1.0" encoding="UTF-8"?>
<svg xmlns="http://www.w3.org/2000/svg" xmlns:xlink="http://www.w3.org/1999/xlink" width="24pt" height="24pt" viewBox="0 0 24 24" version="1.1">
<g id="surface1">
<path style=" stroke:none;fill-rule:nonzero;fill:rgb(45.098039%,68.627451%,0%);fill-opacity:1;" d="M 12 19.863281 L 0.414062 19.863281 C 0.183594 19.863281 0 19.675781 0 19.449219 L 0 4.550781 C 0 4.324219 0.183594 4.136719 0.414062 4.136719 L 12 4.136719 Z M 12 19.863281 "/>
<path style=" stroke:none;fill-rule:nonzero;fill:rgb(96.078431%,96.078431%,96.078431%);fill-opacity:1;" d="M 12 4.136719 L 23.585938 4.136719 C 23.816406 4.136719 24 4.324219 24 4.550781 L 24 19.449219 C 24 19.675781 23.816406 19.863281 23.585938 19.863281 L 12 19.863281 Z M 12 4.136719 "/>
<path style=" stroke:none;fill-rule:nonzero;fill:rgb(100%,29.411765%,33.333333%);fill-opacity:1;" d="M 13.996094 10.496094 L 13.28125 11.433594 L 12.160156 11.058594 C 12.097656 11.039062 12.042969 11.109375 12.082031 11.164062 L 12.753906 12.136719 L 12.050781 13.085938 C 12.011719 13.136719 12.0625 13.210938 12.125 13.191406 L 13.257812 12.855469 L 13.941406 13.816406 C 13.980469 13.871094 14.066406 13.84375 14.066406 13.777344 L 14.09375 12.597656 L 15.222656 12.242188 C 15.285156 12.222656 15.285156 12.132812 15.222656 12.113281 L 14.109375 11.71875 L 14.121094 10.539062 C 14.121094 10.472656 14.039062 10.441406 13.996094 10.496094 Z M 13.996094 10.496094 "/>
<path style=" stroke:none;fill-rule:nonzero;fill:rgb(100%,29.411765%,33.333333%);fill-opacity:1;" d="M 12.742188 14.84375 C 11.175781 14.84375 9.902344 13.570312 9.902344 12 C 9.902344 10.433594 11.175781 9.15625 12.742188 9.15625 C 13.328125 9.15625 13.867188 9.335938 14.3125 9.640625 C 14.382812 9.6875 14.460938 9.597656 14.402344 9.539062 C 13.734375 8.839844 12.785156 8.414062 11.734375 8.453125 C 9.925781 8.511719 8.429688 9.960938 8.316406 11.765625 C 8.183594 13.832031 9.820312 15.550781 11.855469 15.550781 C 12.859375 15.550781 13.761719 15.128906 14.40625 14.460938 C 14.460938 14.402344 14.382812 14.3125 14.316406 14.359375 C 13.867188 14.664062 13.328125 14.84375 12.742188 14.84375 Z M 12.742188 14.84375 "/>
</g>
</svg>
