<?xml version="1.0" encoding="UTF-8"?>
<svg xmlns="http://www.w3.org/2000/svg" xmlns:xlink="http://www.w3.org/1999/xlink" width="24pt" height="24pt" viewBox="0 0 24 24" version="1.1">
<g id="surface1">
<path style=" stroke:none;fill-rule:nonzero;fill:rgb(25.490196%,27.843137%,60.784314%);fill-opacity:1;" d="M 8 19.863281 L 0.414062 19.863281 C 0.183594 19.863281 0 19.675781 0 19.449219 L 0 4.550781 C 0 4.324219 0.183594 4.136719 0.414062 4.136719 L 8 4.136719 Z M 8 19.863281 "/>
<path style=" stroke:none;fill-rule:nonzero;fill:rgb(100%,88.235294%,35.294118%);fill-opacity:1;" d="M 8 4.136719 L 16 4.136719 L 16 19.863281 L 8 19.863281 Z M 8 4.136719 "/>
<path style=" stroke:none;fill-rule:nonzero;fill:rgb(100%,29.411765%,33.333333%);fill-opacity:1;" d="M 23.585938 19.863281 L 16 19.863281 L 16 4.136719 L 23.585938 4.136719 C 23.816406 4.136719 24 4.324219 24 4.550781 L 24 19.449219 C 24 19.675781 23.816406 19.863281 23.585938 19.863281 Z M 23.585938 19.863281 "/>
<path style=" stroke:none;fill-rule:nonzero;fill:rgb(86.27451%,74.509804%,50.980392%);fill-opacity:1;" d="M 14.8125 13.34375 C 14.8125 13.226562 14.714844 13.128906 14.597656 13.128906 C 14.570312 13.128906 14.546875 13.132812 14.523438 13.140625 C 14.414062 13.046875 14.21875 12.808594 14.414062 12.472656 C 14.441406 12.492188 14.472656 12.503906 14.511719 12.503906 C 14.597656 12.503906 14.667969 12.4375 14.667969 12.347656 C 14.667969 12.28125 14.621094 12.222656 14.5625 12.203125 C 14.722656 12.121094 14.953125 11.945312 14.941406 11.621094 C 14.921875 11.160156 14.546875 10.902344 14.3125 11.007812 C 14.3125 11 14.316406 10.992188 14.316406 10.988281 C 14.316406 10.902344 14.246094 10.832031 14.160156 10.832031 C 14.109375 10.832031 14.0625 10.859375 14.035156 10.898438 C 14.027344 10.851562 14.027344 10.765625 14.132812 10.675781 C 14.332031 10.5 14.558594 10.089844 14.148438 9.800781 C 13.917969 9.640625 13.484375 9.5625 13.335938 9.78125 C 13.273438 9.875 13.324219 10.011719 13.394531 10.042969 C 13.28125 10.109375 13.058594 10.207031 12.882812 10.128906 C 12.632812 10.023438 12.777344 9.804688 12.832031 9.707031 C 12.929688 9.539062 12.871094 9.261719 12.542969 9.261719 C 12.324219 9.261719 12.21875 9.476562 12 9.476562 C 11.78125 9.476562 11.671875 9.261719 11.457031 9.261719 C 11.128906 9.261719 11.070312 9.539062 11.167969 9.707031 C 11.222656 9.804688 11.367188 10.023438 11.117188 10.128906 C 10.941406 10.207031 10.71875 10.109375 10.605469 10.042969 C 10.675781 10.011719 10.726562 9.875 10.664062 9.78125 C 10.515625 9.5625 10.082031 9.640625 9.851562 9.800781 C 9.441406 10.089844 9.667969 10.5 9.867188 10.675781 C 9.972656 10.765625 9.972656 10.851562 9.964844 10.898438 C 9.9375 10.859375 9.890625 10.832031 9.839844 10.832031 C 9.753906 10.832031 9.683594 10.902344 9.683594 10.988281 C 9.683594 10.992188 9.6875 11 9.6875 11.007812 C 9.453125 10.902344 9.078125 11.160156 9.058594 11.621094 C 9.046875 11.945312 9.277344 12.121094 9.4375 12.203125 C 9.378906 12.222656 9.332031 12.28125 9.332031 12.347656 C 9.332031 12.4375 9.402344 12.503906 9.488281 12.503906 C 9.527344 12.503906 9.558594 12.492188 9.585938 12.472656 C 9.78125 12.808594 9.585938 13.046875 9.476562 13.140625 C 9.453125 13.132812 9.429688 13.128906 9.402344 13.128906 C 9.285156 13.128906 9.1875 13.222656 9.1875 13.34375 C 9.1875 13.457031 9.273438 13.550781 9.382812 13.558594 C 9.234375 13.714844 9.097656 14.054688 9.390625 14.4375 C 9.710938 14.859375 10.472656 14.828125 10.839844 14.839844 C 11.070312 14.847656 11.246094 14.96875 11.34375 15.054688 C 11.28125 15.09375 11.238281 15.164062 11.238281 15.242188 C 11.238281 15.351562 11.320312 15.441406 11.425781 15.457031 C 11.464844 15.515625 11.53125 15.558594 11.609375 15.558594 C 11.699219 15.558594 11.773438 15.507812 11.808594 15.433594 C 11.921875 15.527344 12 15.566406 12 15.566406 C 12 15.566406 12.078125 15.527344 12.195312 15.433594 C 12.226562 15.507812 12.304688 15.558594 12.390625 15.558594 C 12.46875 15.558594 12.535156 15.515625 12.574219 15.457031 C 12.679688 15.441406 12.761719 15.351562 12.761719 15.242188 C 12.761719 15.164062 12.71875 15.09375 12.65625 15.054688 C 12.753906 14.96875 12.929688 14.847656 13.164062 14.839844 C 13.527344 14.828125 14.289062 14.859375 14.609375 14.4375 C 14.902344 14.054688 14.769531 13.714844 14.617188 13.558594 C 14.726562 13.550781 14.8125 13.457031 14.8125 13.34375 Z M 14.8125 13.34375 "/>
<path style=" stroke:none;fill-rule:nonzero;fill:rgb(82.352941%,66.666667%,45.098039%);fill-opacity:1;" d="M 10.042969 10.550781 L 10.042969 13.703125 C 10.042969 14.066406 10.335938 14.355469 10.695312 14.355469 L 11.566406 14.355469 C 11.890625 14.355469 12 14.574219 12 14.574219 C 12 14.574219 12.109375 14.355469 12.433594 14.355469 L 13.304688 14.355469 C 13.664062 14.355469 13.957031 14.066406 13.957031 13.703125 L 13.957031 10.550781 C 13.957031 10.492188 13.910156 10.441406 13.847656 10.441406 L 10.152344 10.441406 C 10.089844 10.441406 10.042969 10.492188 10.042969 10.550781 Z M 10.042969 10.550781 "/>
<path style=" stroke:none;fill-rule:nonzero;fill:rgb(100%,29.411765%,33.333333%);fill-opacity:1;" d="M 10.261719 10.660156 L 11.890625 10.660156 L 11.890625 12.292969 L 10.261719 12.292969 Z M 10.261719 10.660156 "/>
<path style=" stroke:none;fill-rule:nonzero;fill:rgb(100%,29.411765%,33.333333%);fill-opacity:1;" d="M 11.890625 14.140625 C 10.992188 14.140625 10.261719 13.410156 10.261719 12.507812 L 11.890625 12.507812 Z M 11.890625 14.140625 "/>
<path style=" stroke:none;fill-rule:nonzero;fill:rgb(100%,88.235294%,35.294118%);fill-opacity:1;" d="M 12.109375 14.140625 L 12.109375 12.507812 L 13.738281 12.507812 C 13.738281 13.410156 13.007812 14.140625 12.109375 14.140625 Z M 12.109375 14.140625 "/>
<path style=" stroke:none;fill-rule:nonzero;fill:rgb(100%,88.235294%,35.294118%);fill-opacity:1;" d="M 12.109375 10.660156 L 12.339844 10.660156 L 12.339844 12.292969 L 12.109375 12.292969 Z M 12.109375 10.660156 "/>
<path style=" stroke:none;fill-rule:nonzero;fill:rgb(100%,29.411765%,33.333333%);fill-opacity:1;" d="M 12.339844 10.660156 L 12.574219 10.660156 L 12.574219 12.292969 L 12.339844 12.292969 Z M 12.339844 10.660156 "/>
<path style=" stroke:none;fill-rule:nonzero;fill:rgb(100%,88.235294%,35.294118%);fill-opacity:1;" d="M 12.574219 10.660156 L 12.808594 10.660156 L 12.808594 12.292969 L 12.574219 12.292969 Z M 12.574219 10.660156 "/>
<path style=" stroke:none;fill-rule:nonzero;fill:rgb(100%,29.411765%,33.333333%);fill-opacity:1;" d="M 12.808594 10.660156 L 13.042969 10.660156 L 13.042969 12.292969 L 12.808594 12.292969 Z M 12.808594 10.660156 "/>
<path style=" stroke:none;fill-rule:nonzero;fill:rgb(100%,88.235294%,35.294118%);fill-opacity:1;" d="M 13.039062 10.660156 L 13.273438 10.660156 L 13.273438 12.292969 L 13.039062 12.292969 Z M 13.039062 10.660156 "/>
<path style=" stroke:none;fill-rule:nonzero;fill:rgb(100%,88.235294%,35.294118%);fill-opacity:1;" d="M 13.507812 10.660156 L 13.738281 10.660156 L 13.738281 12.292969 L 13.507812 12.292969 Z M 13.507812 10.660156 "/>
<path style=" stroke:none;fill-rule:nonzero;fill:rgb(100%,29.411765%,33.333333%);fill-opacity:1;" d="M 13.273438 10.660156 L 13.507812 10.660156 L 13.507812 12.292969 L 13.273438 12.292969 Z M 13.273438 10.660156 "/>
<path style=" stroke:none;fill-rule:nonzero;fill:rgb(100%,29.411765%,33.333333%);fill-opacity:1;" d="M 10.804688 12.507812 L 10.984375 12.507812 L 10.984375 14.140625 L 10.804688 14.140625 Z M 10.804688 12.507812 "/>
<path style=" stroke:none;fill-rule:nonzero;fill:rgb(100%,88.235294%,35.294118%);fill-opacity:1;" d="M 10.984375 12.507812 L 11.167969 12.507812 L 11.167969 14.140625 L 10.984375 14.140625 Z M 10.984375 12.507812 "/>
<path style=" stroke:none;fill-rule:nonzero;fill:rgb(100%,88.235294%,35.294118%);fill-opacity:1;" d="M 11.347656 12.507812 L 11.527344 12.507812 L 11.527344 14.140625 L 11.347656 14.140625 Z M 11.347656 12.507812 "/>
<path style=" stroke:none;fill-rule:nonzero;fill:rgb(100%,29.411765%,33.333333%);fill-opacity:1;" d="M 11.167969 12.507812 L 11.347656 12.507812 L 11.347656 14.140625 L 11.167969 14.140625 Z M 11.167969 12.507812 "/>
<path style=" stroke:none;fill-rule:nonzero;fill:rgb(100%,88.235294%,35.294118%);fill-opacity:1;" d="M 11.710938 12.507812 L 11.890625 12.507812 L 11.890625 14.140625 L 11.710938 14.140625 Z M 11.710938 12.507812 "/>
<path style=" stroke:none;fill-rule:nonzero;fill:rgb(100%,29.411765%,33.333333%);fill-opacity:1;" d="M 11.527344 12.507812 L 11.710938 12.507812 L 11.710938 14.140625 L 11.527344 14.140625 Z M 11.527344 12.507812 "/>
<path style=" stroke:none;fill-rule:nonzero;fill:rgb(100%,88.235294%,35.294118%);fill-opacity:1;" d="M 10.441406 14.058594 L 10.441406 12.507812 L 10.261719 12.507812 L 10.261719 13.703125 C 10.261719 13.851562 10.332031 13.976562 10.441406 14.058594 Z M 10.441406 14.058594 "/>
<path style=" stroke:none;fill-rule:nonzero;fill:rgb(100%,29.411765%,33.333333%);fill-opacity:1;" d="M 10.621094 14.132812 L 10.621094 12.507812 L 10.441406 12.507812 L 10.441406 14.058594 C 10.496094 14.09375 10.554688 14.121094 10.621094 14.132812 Z M 10.621094 14.132812 "/>
<path style=" stroke:none;fill-rule:nonzero;fill:rgb(100%,88.235294%,35.294118%);fill-opacity:1;" d="M 10.621094 12.507812 L 10.621094 14.132812 C 10.644531 14.136719 10.671875 14.140625 10.695312 14.140625 L 10.804688 14.140625 L 10.804688 12.507812 Z M 10.621094 12.507812 "/>
<path style=" stroke:none;fill-rule:nonzero;fill:rgb(96.078431%,96.078431%,96.078431%);fill-opacity:1;" d="M 10.503906 12.199219 C 10.496094 12.199219 10.488281 12.195312 10.480469 12.191406 C 10.371094 12.121094 10.367188 12.046875 10.371094 12.007812 C 10.378906 11.957031 10.417969 11.917969 10.46875 11.902344 C 10.515625 11.886719 10.566406 11.902344 10.597656 11.941406 C 10.664062 12.019531 10.734375 12.050781 10.792969 12.027344 C 10.839844 12.011719 10.867188 11.964844 10.867188 11.929688 C 10.867188 11.90625 10.886719 11.886719 10.910156 11.886719 C 10.933594 11.886719 10.953125 11.90625 10.953125 11.929688 C 10.953125 12.007812 10.898438 12.082031 10.824219 12.109375 C 10.769531 12.128906 10.65625 12.140625 10.53125 11.996094 C 10.519531 11.980469 10.503906 11.980469 10.492188 11.984375 C 10.476562 11.988281 10.460938 12.003906 10.457031 12.023438 C 10.453125 12.050781 10.476562 12.085938 10.527344 12.121094 C 10.546875 12.132812 10.550781 12.160156 10.539062 12.179688 C 10.53125 12.191406 10.515625 12.199219 10.503906 12.199219 Z M 10.503906 12.199219 "/>
<path style=" stroke:none;fill-rule:nonzero;fill:rgb(96.078431%,96.078431%,96.078431%);fill-opacity:1;" d="M 11.652344 12.199219 C 11.640625 12.199219 11.625 12.191406 11.617188 12.179688 C 11.605469 12.160156 11.609375 12.132812 11.628906 12.121094 C 11.679688 12.085938 11.703125 12.050781 11.699219 12.023438 C 11.695312 12.003906 11.679688 11.988281 11.664062 11.984375 C 11.652344 11.980469 11.636719 11.980469 11.625 11.996094 C 11.5 12.140625 11.386719 12.128906 11.332031 12.109375 C 11.257812 12.082031 11.203125 12.007812 11.203125 11.929688 C 11.203125 11.90625 11.222656 11.886719 11.246094 11.886719 C 11.269531 11.886719 11.289062 11.90625 11.289062 11.929688 C 11.289062 11.964844 11.316406 12.011719 11.363281 12.027344 C 11.421875 12.050781 11.492188 12.019531 11.558594 11.941406 C 11.589844 11.902344 11.640625 11.886719 11.6875 11.902344 C 11.738281 11.917969 11.777344 11.957031 11.785156 12.007812 C 11.789062 12.046875 11.785156 12.121094 11.675781 12.191406 C 11.667969 12.195312 11.660156 12.199219 11.652344 12.199219 Z M 11.652344 12.199219 "/>
<path style=" stroke:none;fill-rule:nonzero;fill:rgb(100%,88.235294%,35.294118%);fill-opacity:1;" d="M 10.480469 12.25 C 10.46875 12.25 10.460938 12.246094 10.453125 12.242188 C 10.433594 12.226562 10.429688 12.199219 10.445312 12.179688 L 11.375 10.957031 C 11.386719 10.941406 11.390625 10.917969 11.394531 10.890625 C 11.398438 10.84375 11.410156 10.785156 11.484375 10.742188 C 11.53125 10.710938 11.585938 10.710938 11.632812 10.742188 C 11.6875 10.777344 11.71875 10.839844 11.710938 10.898438 C 11.707031 10.933594 11.6875 11 11.589844 11.035156 C 11.566406 11.042969 11.542969 11.03125 11.535156 11.011719 C 11.527344 10.988281 11.539062 10.964844 11.558594 10.957031 C 11.585938 10.945312 11.621094 10.925781 11.625 10.890625 C 11.628906 10.863281 11.613281 10.832031 11.589844 10.816406 C 11.574219 10.804688 11.550781 10.796875 11.527344 10.8125 C 11.488281 10.835938 11.484375 10.863281 11.476562 10.90625 C 11.472656 10.933594 11.46875 10.96875 11.449219 11.003906 L 10.515625 12.234375 C 10.503906 12.242188 10.492188 12.25 10.480469 12.25 Z M 10.480469 12.25 "/>
<path style=" stroke:none;fill-rule:nonzero;fill:rgb(100%,88.235294%,35.294118%);fill-opacity:1;" d="M 11.082031 10.902344 L 10.652344 11.417969 L 10.824219 11.929688 L 11.339844 11.929688 L 11.511719 11.417969 Z M 11.082031 10.902344 "/>
<path style=" stroke:none;fill-rule:nonzero;fill:rgb(96.078431%,96.078431%,96.078431%);fill-opacity:1;" d="M 11.082031 10.835938 L 10.605469 11.40625 L 10.792969 11.972656 L 11.371094 11.972656 L 11.558594 11.40625 Z M 10.703125 11.425781 L 11.039062 11.019531 L 11.039062 11.886719 L 10.855469 11.886719 Z M 11.308594 11.886719 L 11.125 11.886719 L 11.125 11.019531 L 11.460938 11.425781 Z M 11.308594 11.886719 "/>
<path style=" stroke:none;fill-rule:nonzero;fill:rgb(100%,29.411765%,33.333333%);fill-opacity:1;" d="M 13.339844 13.023438 L 13.34375 12.929688 C 13.34375 12.929688 13.429688 12.867188 13.386719 12.8125 C 13.347656 12.757812 13.300781 12.746094 13.199219 12.757812 C 13.101562 12.769531 12.945312 12.769531 12.878906 12.773438 C 12.8125 12.777344 12.777344 12.8125 12.671875 12.785156 L 12.699219 12.71875 C 12.699219 12.71875 12.648438 12.722656 12.621094 12.738281 C 12.601562 12.746094 12.5625 12.691406 12.523438 12.703125 C 12.484375 12.710938 12.445312 12.789062 12.386719 12.832031 L 12.417969 12.894531 C 12.417969 12.894531 12.457031 12.878906 12.484375 12.898438 C 12.511719 12.917969 12.519531 12.929688 12.566406 12.929688 L 12.597656 12.945312 C 12.597656 12.945312 12.585938 13.011719 12.632812 13.046875 C 12.632812 13.046875 12.582031 13.113281 12.585938 13.125 C 12.59375 13.132812 12.636719 13.214844 12.652344 13.261719 L 12.691406 13.191406 C 12.691406 13.191406 12.632812 13.136719 12.644531 13.132812 C 12.65625 13.125 12.695312 13.117188 12.6875 13.097656 C 12.683594 13.082031 12.71875 13.101562 12.761719 13.109375 C 12.761719 13.109375 12.761719 13.171875 12.769531 13.179688 C 12.78125 13.191406 12.792969 13.226562 12.789062 13.261719 C 12.789062 13.296875 12.753906 13.308594 12.753906 13.308594 L 12.8125 13.328125 C 12.8125 13.328125 12.828125 13.304688 12.839844 13.308594 C 12.839844 13.308594 12.835938 13.128906 12.859375 13.097656 C 12.859375 13.097656 13 13.128906 13.066406 13.09375 C 13.066406 13.09375 13.074219 13.101562 13.089844 13.113281 C 13.082031 13.128906 13.078125 13.144531 13.078125 13.148438 C 13.085938 13.15625 13.101562 13.15625 13.105469 13.144531 C 13.109375 13.140625 13.109375 13.132812 13.113281 13.125 C 13.121094 13.128906 13.128906 13.128906 13.140625 13.128906 C 13.136719 13.144531 13.136719 13.15625 13.140625 13.160156 C 13.148438 13.167969 13.164062 13.160156 13.167969 13.148438 C 13.167969 13.144531 13.167969 13.136719 13.167969 13.128906 C 13.179688 13.128906 13.191406 13.128906 13.203125 13.125 L 13.128906 13.246094 L 13.09375 13.257812 L 13.140625 13.28125 L 13.183594 13.265625 C 13.183594 13.265625 13.222656 13.160156 13.292969 13.132812 C 13.292969 13.132812 13.335938 13.238281 13.28125 13.296875 L 13.332031 13.328125 L 13.355469 13.277344 C 13.355469 13.277344 13.34375 13.179688 13.378906 13.117188 Z M 13.339844 13.023438 "/>
<path style=" stroke:none;fill-rule:nonzero;fill:rgb(25.490196%,45.098039%,80.392157%);fill-opacity:1;" d="M 12.523438 12.714844 C 12.523438 12.714844 12.503906 12.695312 12.5 12.667969 C 12.492188 12.640625 12.484375 12.628906 12.460938 12.621094 C 12.460938 12.621094 12.476562 12.636719 12.476562 12.664062 C 12.472656 12.691406 12.476562 12.730469 12.492188 12.742188 Z M 12.523438 12.714844 "/>
<path style=" stroke:none;fill-rule:nonzero;fill:rgb(25.490196%,45.098039%,80.392157%);fill-opacity:1;" d="M 12.714844 12.792969 C 12.714844 12.792969 12.683594 12.890625 12.597656 12.945312 L 12.566406 12.929688 C 12.566406 12.929688 12.660156 12.851562 12.671875 12.785156 Z M 12.714844 12.792969 "/>
<path style=" stroke:none;fill-rule:nonzero;fill:rgb(25.490196%,45.098039%,80.392157%);fill-opacity:1;" d="M 12.566406 12.738281 C 12.5625 12.734375 12.605469 12.722656 12.59375 12.691406 C 12.585938 12.660156 12.585938 12.636719 12.605469 12.621094 C 12.605469 12.621094 12.605469 12.648438 12.621094 12.664062 C 12.636719 12.679688 12.644531 12.726562 12.621094 12.75 C 12.621094 12.75 12.597656 12.769531 12.566406 12.738281 Z M 12.566406 12.738281 "/>
<path style=" stroke:none;fill-rule:nonzero;fill:rgb(25.490196%,45.098039%,80.392157%);fill-opacity:1;" d="M 12.570312 13.035156 C 12.566406 13.03125 12.5625 13.027344 12.566406 13.019531 L 12.578125 12.992188 C 12.585938 12.976562 12.582031 12.957031 12.566406 12.949219 C 12.550781 12.941406 12.53125 12.945312 12.523438 12.964844 L 12.507812 12.992188 C 12.503906 12.996094 12.5 13 12.492188 12.996094 L 12.484375 13.011719 C 12.484375 13.011719 12.496094 13.019531 12.511719 13.027344 C 12.507812 13.035156 12.511719 13.042969 12.519531 13.042969 C 12.523438 13.046875 12.53125 13.046875 12.535156 13.039062 C 12.550781 13.046875 12.5625 13.050781 12.5625 13.050781 Z M 12.570312 13.035156 "/>
<path style=" stroke:none;fill-rule:nonzero;fill:rgb(25.490196%,45.098039%,80.392157%);fill-opacity:1;" d="M 12.675781 13.21875 L 12.707031 13.222656 L 12.679688 13.308594 L 12.652344 13.261719 Z M 12.675781 13.21875 "/>
<path style=" stroke:none;fill-rule:nonzero;fill:rgb(25.490196%,45.098039%,80.392157%);fill-opacity:1;" d="M 12.753906 13.308594 L 12.734375 13.34375 L 12.8125 13.34375 L 12.8125 13.328125 Z M 12.753906 13.308594 "/>
<path style=" stroke:none;fill-rule:nonzero;fill:rgb(25.490196%,45.098039%,80.392157%);fill-opacity:1;" d="M 13.140625 13.28125 L 13.140625 13.304688 L 13.050781 13.304688 L 13.09375 13.261719 Z M 13.140625 13.28125 "/>
<path style=" stroke:none;fill-rule:nonzero;fill:rgb(25.490196%,45.098039%,80.392157%);fill-opacity:1;" d="M 13.28125 13.296875 L 13.238281 13.34375 L 13.328125 13.34375 L 13.332031 13.328125 Z M 13.28125 13.296875 "/>
<path style=" stroke:none;fill-rule:nonzero;fill:rgb(100%,29.411765%,33.333333%);fill-opacity:1;" d="M 13.339844 13.699219 L 13.34375 13.605469 C 13.34375 13.605469 13.429688 13.546875 13.386719 13.488281 C 13.347656 13.433594 13.300781 13.421875 13.199219 13.433594 C 13.101562 13.449219 12.945312 13.445312 12.878906 13.449219 C 12.8125 13.453125 12.777344 13.492188 12.671875 13.460938 L 12.699219 13.394531 C 12.699219 13.394531 12.648438 13.402344 12.621094 13.414062 C 12.601562 13.421875 12.5625 13.371094 12.523438 13.378906 C 12.484375 13.386719 12.445312 13.46875 12.386719 13.507812 L 12.417969 13.574219 C 12.417969 13.574219 12.457031 13.554688 12.484375 13.574219 C 12.511719 13.59375 12.519531 13.609375 12.566406 13.609375 L 12.597656 13.621094 C 12.597656 13.621094 12.585938 13.691406 12.632812 13.722656 C 12.632812 13.722656 12.582031 13.789062 12.585938 13.800781 C 12.59375 13.8125 12.636719 13.894531 12.652344 13.941406 L 12.691406 13.867188 C 12.691406 13.867188 12.632812 13.816406 12.644531 13.808594 C 12.65625 13.800781 12.695312 13.792969 12.6875 13.777344 C 12.683594 13.757812 12.71875 13.777344 12.761719 13.785156 C 12.761719 13.785156 12.761719 13.851562 12.769531 13.859375 C 12.78125 13.867188 12.792969 13.902344 12.789062 13.9375 C 12.789062 13.976562 12.753906 13.984375 12.753906 13.984375 L 12.8125 14.003906 C 12.8125 14.003906 12.828125 13.980469 12.839844 13.984375 C 12.839844 13.984375 12.835938 13.804688 12.859375 13.777344 C 12.859375 13.777344 13 13.804688 13.066406 13.769531 C 13.066406 13.769531 13.074219 13.78125 13.089844 13.789062 C 13.082031 13.804688 13.078125 13.820312 13.078125 13.824219 C 13.085938 13.835938 13.101562 13.832031 13.105469 13.824219 C 13.109375 13.816406 13.109375 13.808594 13.113281 13.800781 C 13.121094 13.804688 13.128906 13.804688 13.140625 13.808594 C 13.136719 13.820312 13.136719 13.832031 13.140625 13.835938 C 13.148438 13.84375 13.164062 13.835938 13.167969 13.824219 C 13.167969 13.820312 13.167969 13.8125 13.167969 13.808594 C 13.179688 13.804688 13.191406 13.804688 13.203125 13.800781 L 13.128906 13.921875 L 13.09375 13.9375 L 13.140625 13.960938 L 13.183594 13.941406 C 13.183594 13.941406 13.222656 13.839844 13.292969 13.808594 C 13.292969 13.808594 13.335938 13.917969 13.28125 13.976562 L 13.332031 14.003906 L 13.355469 13.953125 C 13.355469 13.953125 13.34375 13.855469 13.378906 13.792969 Z M 13.339844 13.699219 "/>
<path style=" stroke:none;fill-rule:nonzero;fill:rgb(25.490196%,45.098039%,80.392157%);fill-opacity:1;" d="M 12.523438 13.390625 C 12.523438 13.390625 12.503906 13.371094 12.5 13.34375 C 12.492188 13.316406 12.484375 13.304688 12.460938 13.296875 C 12.460938 13.296875 12.476562 13.316406 12.476562 13.34375 C 12.472656 13.371094 12.476562 13.40625 12.492188 13.417969 Z M 12.523438 13.390625 "/>
<path style=" stroke:none;fill-rule:nonzero;fill:rgb(25.490196%,45.098039%,80.392157%);fill-opacity:1;" d="M 12.714844 13.46875 C 12.714844 13.46875 12.683594 13.570312 12.597656 13.621094 L 12.566406 13.609375 C 12.566406 13.609375 12.660156 13.527344 12.671875 13.460938 Z M 12.714844 13.46875 "/>
<path style=" stroke:none;fill-rule:nonzero;fill:rgb(25.490196%,45.098039%,80.392157%);fill-opacity:1;" d="M 12.566406 13.414062 C 12.5625 13.414062 12.605469 13.402344 12.59375 13.367188 C 12.585938 13.335938 12.585938 13.3125 12.605469 13.296875 C 12.605469 13.296875 12.605469 13.324219 12.621094 13.339844 C 12.636719 13.359375 12.644531 13.402344 12.621094 13.425781 C 12.621094 13.425781 12.597656 13.445312 12.566406 13.414062 Z M 12.566406 13.414062 "/>
<path style=" stroke:none;fill-rule:nonzero;fill:rgb(25.490196%,45.098039%,80.392157%);fill-opacity:1;" d="M 12.570312 13.710938 C 12.566406 13.707031 12.5625 13.703125 12.566406 13.699219 L 12.578125 13.671875 C 12.585938 13.65625 12.582031 13.636719 12.566406 13.628906 C 12.550781 13.617188 12.53125 13.625 12.523438 13.640625 L 12.507812 13.667969 C 12.503906 13.671875 12.5 13.675781 12.492188 13.671875 L 12.484375 13.691406 C 12.484375 13.691406 12.496094 13.695312 12.511719 13.703125 C 12.507812 13.710938 12.511719 13.71875 12.519531 13.722656 C 12.523438 13.726562 12.53125 13.722656 12.535156 13.714844 C 12.550781 13.722656 12.5625 13.726562 12.5625 13.726562 Z M 12.570312 13.710938 "/>
<path style=" stroke:none;fill-rule:nonzero;fill:rgb(25.490196%,45.098039%,80.392157%);fill-opacity:1;" d="M 12.675781 13.894531 L 12.707031 13.902344 L 12.679688 13.984375 L 12.652344 13.941406 Z M 12.675781 13.894531 "/>
<path style=" stroke:none;fill-rule:nonzero;fill:rgb(25.490196%,45.098039%,80.392157%);fill-opacity:1;" d="M 12.753906 13.984375 L 12.734375 14.019531 L 12.8125 14.019531 L 12.8125 14.003906 Z M 12.753906 13.984375 "/>
<path style=" stroke:none;fill-rule:nonzero;fill:rgb(25.490196%,45.098039%,80.392157%);fill-opacity:1;" d="M 13.140625 13.960938 L 13.140625 13.980469 L 13.050781 13.980469 L 13.09375 13.9375 Z M 13.140625 13.960938 "/>
<path style=" stroke:none;fill-rule:nonzero;fill:rgb(25.490196%,45.098039%,80.392157%);fill-opacity:1;" d="M 13.28125 13.976562 L 13.238281 14.019531 L 13.328125 14.019531 L 13.332031 14.003906 Z M 13.28125 13.976562 "/>
</g>
</svg>
