<?xml version="1.0" encoding="UTF-8"?>
<svg xmlns="http://www.w3.org/2000/svg" xmlns:xlink="http://www.w3.org/1999/xlink" width="24pt" height="24pt" viewBox="0 0 24 24" version="1.1">
<g id="surface1">
<path style=" stroke:none;fill-rule:nonzero;fill:rgb(100%,88.235294%,35.294118%);fill-opacity:1;" d="M 24 12 L 0 12 L 0 4.550781 C 0 4.324219 0.183594 4.136719 0.414062 4.136719 L 23.585938 4.136719 C 23.816406 4.136719 24 4.324219 24 4.550781 Z M 24 12 "/>
<path style=" stroke:none;fill-rule:nonzero;fill:rgb(100%,29.411765%,33.333333%);fill-opacity:1;" d="M 0 12 L 24 12 L 24 19.449219 C 24 19.675781 23.816406 19.863281 23.585938 19.863281 L 0.414062 19.863281 C 0.183594 19.863281 0 19.675781 0 19.449219 Z M 0 12 "/>
<path style=" stroke:none;fill-rule:nonzero;fill:rgb(45.098039%,68.627451%,0%);fill-opacity:1;" d="M 8 19.863281 L 0.414062 19.863281 C 0.183594 19.863281 0 19.675781 0 19.449219 L 0 4.550781 C 0 4.324219 0.183594 4.136719 0.414062 4.136719 L 8 4.136719 Z M 8 19.863281 "/>
</g>
</svg>
