<?xml version="1.0" encoding="UTF-8"?>
<svg xmlns="http://www.w3.org/2000/svg" xmlns:xlink="http://www.w3.org/1999/xlink" width="24pt" height="24pt" viewBox="0 0 24 24" version="1.1">
<g id="surface1">
<path style=" stroke:none;fill-rule:nonzero;fill:rgb(45.098039%,68.627451%,0%);fill-opacity:1;" d="M 8 19.863281 L 0.414062 19.863281 C 0.183594 19.863281 0 19.675781 0 19.449219 L 0 4.550781 C 0 4.324219 0.183594 4.136719 0.414062 4.136719 L 8 4.136719 Z M 8 19.863281 "/>
<path style=" stroke:none;fill-rule:nonzero;fill:rgb(100%,29.411765%,33.333333%);fill-opacity:1;" d="M 8 4.136719 L 16 4.136719 L 16 19.863281 L 8 19.863281 Z M 8 4.136719 "/>
<path style=" stroke:none;fill-rule:nonzero;fill:rgb(100%,88.235294%,35.294118%);fill-opacity:1;" d="M 23.585938 19.863281 L 16 19.863281 L 16 4.136719 L 23.585938 4.136719 C 23.816406 4.136719 24 4.324219 24 4.550781 L 24 19.449219 C 24 19.675781 23.816406 19.863281 23.585938 19.863281 Z M 23.585938 19.863281 "/>
<path style=" stroke:none;fill-rule:nonzero;fill:rgb(100%,88.235294%,35.294118%);fill-opacity:1;" d="M 12.085938 10.484375 L 12.441406 11.550781 L 13.566406 11.558594 C 13.652344 11.558594 13.6875 11.667969 13.617188 11.722656 L 12.714844 12.390625 L 13.054688 13.460938 C 13.078125 13.542969 12.984375 13.613281 12.914062 13.5625 L 12 12.90625 L 11.085938 13.5625 C 11.015625 13.613281 10.921875 13.542969 10.945312 13.460938 L 11.285156 12.390625 L 10.382812 11.722656 C 10.3125 11.667969 10.347656 11.558594 10.433594 11.558594 L 11.558594 11.550781 L 11.914062 10.484375 C 11.941406 10.402344 12.058594 10.402344 12.085938 10.484375 Z M 12.085938 10.484375 "/>
</g>
</svg>
