<?xml version="1.0" encoding="UTF-8"?>
<svg xmlns="http://www.w3.org/2000/svg" xmlns:xlink="http://www.w3.org/1999/xlink" width="24pt" height="24pt" viewBox="0 0 24 24" version="1.1">
<g id="surface1">
<path style=" stroke:none;fill-rule:nonzero;fill:rgb(96.078431%,96.078431%,96.078431%);fill-opacity:1;" d="M 23.585938 19.863281 L 0.414062 19.863281 C 0.183594 19.863281 0 19.675781 0 19.449219 L 0 4.550781 C 0 4.324219 0.183594 4.136719 0.414062 4.136719 L 23.585938 4.136719 C 23.816406 4.136719 24 4.324219 24 4.550781 L 24 19.449219 C 24 19.675781 23.816406 19.863281 23.585938 19.863281 Z M 23.585938 19.863281 "/>
<path style=" stroke:none;fill-rule:nonzero;fill:rgb(96.078431%,96.078431%,96.078431%);fill-opacity:1;" d="M 5.378906 4.136719 L 18.621094 4.136719 L 18.621094 19.863281 L 5.378906 19.863281 Z M 5.378906 4.136719 "/>
<path style=" stroke:none;fill-rule:nonzero;fill:rgb(100%,29.411765%,33.333333%);fill-opacity:1;" d="M 0.414062 4.136719 C 0.183594 4.136719 0 4.324219 0 4.550781 L 0 19.449219 C 0 19.675781 0.183594 19.863281 0.414062 19.863281 L 5.378906 19.863281 L 5.378906 4.136719 Z M 0.414062 4.136719 "/>
<path style=" stroke:none;fill-rule:nonzero;fill:rgb(100%,29.411765%,33.333333%);fill-opacity:1;" d="M 23.585938 4.136719 L 18.621094 4.136719 L 18.621094 19.863281 L 23.585938 19.863281 C 23.816406 19.863281 24 19.675781 24 19.449219 L 24 4.550781 C 24 4.324219 23.816406 4.136719 23.585938 4.136719 Z M 23.585938 4.136719 "/>
<path style=" stroke:none;fill-rule:nonzero;fill:rgb(100%,29.411765%,33.333333%);fill-opacity:1;" d="M 14.511719 13.816406 L 16.964844 12.414062 L 16.402344 12.132812 C 16.246094 12.054688 16.15625 11.882812 16.179688 11.707031 L 16.359375 10.332031 L 15.320312 10.636719 C 15.09375 10.703125 14.855469 10.5625 14.800781 10.328125 L 14.703125 9.878906 L 13.726562 11.019531 C 13.589844 11.179688 13.332031 11.058594 13.367188 10.851562 L 13.785156 8.429688 L 13.148438 8.601562 C 12.960938 8.652344 12.765625 8.570312 12.671875 8.398438 L 12 7.136719 L 11.328125 8.398438 C 11.238281 8.570312 11.039062 8.652344 10.855469 8.601562 L 10.214844 8.429688 L 10.632812 10.851562 C 10.667969 11.058594 10.410156 11.179688 10.273438 11.019531 L 9.296875 9.878906 L 9.199219 10.328125 C 9.148438 10.5625 8.910156 10.703125 8.679688 10.636719 L 7.640625 10.332031 L 7.824219 11.707031 C 7.847656 11.882812 7.757812 12.054688 7.597656 12.132812 L 7.035156 12.414062 L 9.488281 13.816406 C 9.746094 13.960938 9.855469 14.269531 9.753906 14.542969 L 9.542969 15.105469 L 11.648438 14.925781 C 11.765625 14.917969 11.863281 15.011719 11.859375 15.128906 L 11.792969 17.378906 L 12.207031 17.378906 L 12.140625 15.128906 C 12.136719 15.011719 12.234375 14.917969 12.351562 14.925781 L 14.457031 15.105469 L 14.246094 14.542969 C 14.144531 14.269531 14.257812 13.960938 14.511719 13.816406 Z M 14.511719 13.816406 "/>
</g>
</svg>
