<?xml version="1.0" encoding="UTF-8"?>
<svg xmlns="http://www.w3.org/2000/svg" xmlns:xlink="http://www.w3.org/1999/xlink" width="24pt" height="24pt" viewBox="0 0 24 24" version="1.1">
<g id="surface1">
<path style=" stroke:none;fill-rule:nonzero;fill:rgb(100%,29.411765%,33.333333%);fill-opacity:1;" d="M 23.585938 19.863281 L 0.414062 19.863281 C 0.183594 19.863281 0 19.675781 0 19.449219 L 0 4.550781 C 0 4.324219 0.183594 4.136719 0.414062 4.136719 L 23.585938 4.136719 C 23.816406 4.136719 24 4.324219 24 4.550781 L 24 19.449219 C 24 19.675781 23.816406 19.863281 23.585938 19.863281 Z M 23.585938 19.863281 "/>
<path style=" stroke:none;fill-rule:nonzero;fill:rgb(100%,88.235294%,35.294118%);fill-opacity:1;" d="M 3.984375 6.597656 L 4.378906 7.78125 L 5.625 7.789062 C 5.789062 7.789062 5.855469 7.996094 5.722656 8.09375 L 4.722656 8.832031 L 5.097656 10.023438 C 5.144531 10.175781 4.972656 10.304688 4.839844 10.210938 L 3.824219 9.484375 L 2.8125 10.210938 C 2.679688 10.304688 2.503906 10.175781 2.554688 10.023438 L 2.929688 8.832031 L 1.925781 8.09375 C 1.796875 7.996094 1.863281 7.789062 2.023438 7.789062 L 3.269531 7.78125 L 3.664062 6.597656 C 3.71875 6.445312 3.933594 6.445312 3.984375 6.597656 Z M 3.984375 6.597656 "/>
<path style=" stroke:none;fill-rule:nonzero;fill:rgb(100%,88.235294%,35.294118%);fill-opacity:1;" d="M 8.511719 6.886719 L 8.796875 7.273438 L 9.25 7.132812 C 9.3125 7.113281 9.359375 7.179688 9.324219 7.230469 L 9.042969 7.617188 L 9.320312 8.007812 C 9.355469 8.058594 9.308594 8.125 9.25 8.105469 L 8.792969 7.960938 L 8.507812 8.34375 C 8.46875 8.394531 8.390625 8.367188 8.390625 8.308594 L 8.390625 7.828125 L 7.9375 7.675781 C 7.878906 7.65625 7.878906 7.574219 7.9375 7.554688 L 8.390625 7.402344 L 8.394531 6.925781 C 8.398438 6.863281 8.476562 6.839844 8.511719 6.886719 Z M 8.511719 6.886719 "/>
<path style=" stroke:none;fill-rule:nonzero;fill:rgb(100%,88.235294%,35.294118%);fill-opacity:1;" d="M 6.789062 5.738281 L 7.265625 5.789062 L 7.46875 5.355469 C 7.496094 5.300781 7.578125 5.308594 7.589844 5.371094 L 7.6875 5.839844 L 8.164062 5.898438 C 8.222656 5.90625 8.242188 5.988281 8.1875 6.019531 L 7.769531 6.257812 L 7.863281 6.726562 C 7.875 6.785156 7.800781 6.828125 7.753906 6.785156 L 7.402344 6.464844 L 6.980469 6.695312 C 6.929688 6.726562 6.867188 6.667969 6.890625 6.613281 L 7.089844 6.175781 L 6.738281 5.847656 C 6.695312 5.808594 6.730469 5.730469 6.789062 5.738281 Z M 6.789062 5.738281 "/>
<path style=" stroke:none;fill-rule:nonzero;fill:rgb(100%,88.235294%,35.294118%);fill-opacity:1;" d="M 7.542969 10.375 L 7.257812 10.761719 L 6.800781 10.617188 C 6.742188 10.597656 6.695312 10.664062 6.730469 10.714844 L 7.011719 11.105469 L 6.734375 11.496094 C 6.699219 11.542969 6.746094 11.613281 6.804688 11.59375 L 7.261719 11.449219 L 7.546875 11.832031 C 7.582031 11.878906 7.664062 11.855469 7.664062 11.792969 L 7.664062 11.316406 L 8.117188 11.160156 C 8.175781 11.140625 8.175781 11.058594 8.117188 11.039062 L 7.664062 10.890625 L 7.660156 10.410156 C 7.65625 10.347656 7.578125 10.324219 7.542969 10.375 Z M 7.542969 10.375 "/>
<path style=" stroke:none;fill-rule:nonzero;fill:rgb(100%,88.235294%,35.294118%);fill-opacity:1;" d="M 9.265625 9.292969 L 8.789062 9.34375 L 8.585938 8.910156 C 8.558594 8.855469 8.476562 8.867188 8.464844 8.925781 L 8.367188 9.394531 L 7.890625 9.453125 C 7.832031 9.460938 7.8125 9.542969 7.867188 9.574219 L 8.28125 9.8125 L 8.191406 10.28125 C 8.179688 10.339844 8.253906 10.382812 8.300781 10.339844 L 8.652344 10.019531 L 9.070312 10.25 C 9.125 10.28125 9.1875 10.222656 9.160156 10.167969 L 8.964844 9.730469 L 9.316406 9.40625 C 9.359375 9.363281 9.324219 9.285156 9.265625 9.292969 Z M 9.265625 9.292969 "/>
</g>
</svg>
