<?xml version="1.0" encoding="UTF-8"?>
<svg xmlns="http://www.w3.org/2000/svg" xmlns:xlink="http://www.w3.org/1999/xlink" width="24pt" height="24pt" viewBox="0 0 24 24" version="1.1">
<g id="surface1">
<path style=" stroke:none;fill-rule:nonzero;fill:rgb(50.980392%,68.627451%,100%);fill-opacity:1;" d="M 23.585938 19.863281 L 0.414062 19.863281 C 0.183594 19.863281 0 19.675781 0 19.449219 L 0 4.550781 C 0 4.324219 0.183594 4.136719 0.414062 4.136719 L 23.585938 4.136719 C 23.816406 4.136719 24 4.324219 24 4.550781 L 24 19.449219 C 24 19.675781 23.816406 19.863281 23.585938 19.863281 Z M 23.585938 19.863281 "/>
<path style=" stroke:none;fill-rule:nonzero;fill:rgb(100%,88.235294%,35.294118%);fill-opacity:1;" d="M 23.585938 4.136719 L 22.398438 4.136719 L 0 15.722656 L 0 16.550781 L 23.828125 4.226562 C 23.761719 4.175781 23.679688 4.136719 23.585938 4.136719 Z M 23.585938 4.136719 "/>
<path style=" stroke:none;fill-rule:nonzero;fill:rgb(100%,88.235294%,35.294118%);fill-opacity:1;" d="M 0.414062 19.863281 L 1.601562 19.863281 L 24 8.277344 L 24 7.449219 L 0.171875 19.773438 C 0.238281 19.824219 0.320312 19.863281 0.414062 19.863281 Z M 0.414062 19.863281 "/>
<path style=" stroke:none;fill-rule:nonzero;fill:rgb(100%,29.411765%,33.333333%);fill-opacity:1;" d="M 23.828125 4.226562 L 0 16.550781 L 0 19.449219 C 0 19.582031 0.0703125 19.699219 0.171875 19.773438 L 24 7.449219 L 24 4.550781 C 24 4.417969 23.929688 4.300781 23.828125 4.226562 Z M 23.828125 4.226562 "/>
<path style=" stroke:none;fill-rule:nonzero;fill:rgb(100%,88.235294%,35.294118%);fill-opacity:1;" d="M 4.339844 5.765625 L 4.9375 7.550781 L 6.820312 7.566406 C 6.925781 7.566406 6.972656 7.703125 6.886719 7.765625 L 5.371094 8.882812 L 5.9375 10.679688 C 5.96875 10.78125 5.855469 10.863281 5.769531 10.804688 L 4.238281 9.707031 L 2.703125 10.804688 C 2.617188 10.863281 2.503906 10.78125 2.535156 10.679688 L 3.105469 8.882812 L 1.589844 7.765625 C 1.503906 7.703125 1.546875 7.566406 1.652344 7.566406 L 3.539062 7.550781 L 4.132812 5.765625 C 4.167969 5.664062 4.308594 5.664062 4.339844 5.765625 Z M 4.339844 5.765625 "/>
</g>
</svg>
