<?xml version="1.0" encoding="UTF-8"?>
<svg xmlns="http://www.w3.org/2000/svg" xmlns:xlink="http://www.w3.org/1999/xlink" width="36pt" height="36pt" viewBox="0 0 36 36" version="1.1">
<g id="surface1">
<path style=" stroke:none;fill-rule:nonzero;fill:rgb(100%,29.411765%,33.333333%);fill-opacity:1;" d="M 36 14.070312 L 0 14.070312 L 0 6.828125 C 0 6.484375 0.277344 6.207031 0.621094 6.207031 L 35.378906 6.207031 C 35.722656 6.207031 36 6.484375 36 6.828125 Z M 36 14.070312 "/>
<path style=" stroke:none;fill-rule:nonzero;fill:rgb(27.45098%,27.45098%,33.333333%);fill-opacity:1;" d="M 35.378906 29.792969 L 0.621094 29.792969 C 0.277344 29.792969 0 29.515625 0 29.171875 L 0 21.929688 L 36 21.929688 L 36 29.171875 C 36 29.515625 35.722656 29.792969 35.378906 29.792969 Z M 35.378906 29.792969 "/>
<path style=" stroke:none;fill-rule:nonzero;fill:rgb(96.078431%,96.078431%,96.078431%);fill-opacity:1;" d="M 0 14.070312 L 36 14.070312 L 36 21.929688 L 0 21.929688 Z M 0 14.070312 "/>
<path style=" stroke:none;fill-rule:nonzero;fill:rgb(94.117647%,78.039216%,15.294118%);fill-opacity:1;" d="M 19.980469 16.773438 C 19.980469 16.464844 19.679688 16.25 19.386719 16.347656 L 18.839844 16.53125 L 18.707031 15.726562 C 18.625 15.246094 18.214844 14.898438 17.730469 14.898438 L 17.214844 14.898438 L 16.679688 15.558594 L 17.390625 15.558594 L 17.191406 16.539062 L 16.613281 16.347656 C 16.320312 16.25 16.019531 16.46875 16.019531 16.773438 L 16.019531 20.113281 L 16.816406 19.3125 L 16.441406 20.441406 L 16.019531 20.441406 L 16.019531 21.105469 L 19.980469 21.105469 L 19.980469 20.441406 L 19.558594 20.441406 L 19.183594 19.3125 L 19.980469 20.113281 Z M 17.667969 20.441406 L 17.136719 20.441406 L 17.503906 19.464844 L 17.667969 19.675781 Z M 18.332031 20.441406 L 18.332031 19.675781 L 18.496094 19.464844 L 18.863281 20.441406 Z M 18 19.246094 C 18 19.246094 16.976562 18.554688 17.019531 17.261719 C 17.019531 17.261719 17.648438 17.160156 18 16.601562 C 18.351562 17.160156 18.980469 17.261719 18.980469 17.261719 C 19.023438 18.554688 18 19.246094 18 19.246094 Z M 18 19.246094 "/>
</g>
</svg>
