<?xml version="1.0" encoding="UTF-8"?>
<svg xmlns="http://www.w3.org/2000/svg" xmlns:xlink="http://www.w3.org/1999/xlink" width="36pt" height="36pt" viewBox="0 0 36 36" version="1.1">
<g id="surface1">
<path style=" stroke:none;fill-rule:nonzero;fill:rgb(100%,29.411765%,33.333333%);fill-opacity:1;" d="M 0 23.585938 L 36 23.585938 L 36 29.171875 C 36 29.515625 35.722656 29.792969 35.378906 29.792969 L 0.621094 29.792969 C 0.277344 29.792969 0 29.515625 0 29.171875 Z M 0 23.585938 "/>
<path style=" stroke:none;fill-rule:nonzero;fill:rgb(100%,29.411765%,33.333333%);fill-opacity:1;" d="M 0.621094 6.207031 L 35.378906 6.207031 C 35.722656 6.207031 36 6.484375 36 6.828125 L 36 12.414062 L 0 12.414062 L 0 6.828125 C 0 6.484375 0.277344 6.207031 0.621094 6.207031 Z M 0.621094 6.207031 "/>
<path style=" stroke:none;fill-rule:nonzero;fill:rgb(96.078431%,96.078431%,96.078431%);fill-opacity:1;" d="M 0 12.414062 L 36 12.414062 L 36 23.585938 L 0 23.585938 Z M 0 12.414062 "/>
<path style=" stroke:none;fill-rule:nonzero;fill:rgb(100%,72.54902%,33.333333%);fill-opacity:1;" d="M 22.09375 16.414062 L 18.152344 18.023438 C 18.148438 18.019531 18.148438 18.015625 18.148438 18.011719 L 21.953125 16.105469 C 21.800781 15.804688 21.617188 15.523438 21.40625 15.269531 L 18.125 17.980469 C 18.121094 17.976562 18.121094 17.972656 18.117188 17.96875 L 21.125 14.957031 C 20.910156 14.742188 20.671875 14.550781 20.417969 14.382812 L 18.089844 17.949219 C 18.085938 17.945312 18.078125 17.941406 18.074219 17.9375 L 19.976562 14.128906 C 19.671875 13.976562 19.34375 13.859375 19.003906 13.78125 L 18.039062 17.925781 C 18.023438 17.921875 18.011719 17.917969 18 17.917969 C 17.988281 17.917969 17.976562 17.921875 17.960938 17.925781 L 16.996094 13.78125 C 16.65625 13.859375 16.328125 13.976562 16.023438 14.128906 L 17.925781 17.9375 C 17.921875 17.941406 17.914062 17.945312 17.910156 17.949219 L 15.582031 14.382812 C 15.328125 14.550781 15.089844 14.742188 14.875 14.957031 L 17.882812 17.96875 C 17.878906 17.972656 17.878906 17.976562 17.875 17.980469 L 14.59375 15.269531 C 14.382812 15.523438 14.199219 15.804688 14.046875 16.105469 L 17.851562 18.011719 C 17.851562 18.015625 17.851562 18.019531 17.847656 18.023438 L 13.910156 16.414062 C 13.789062 16.707031 13.699219 17.011719 13.648438 17.332031 L 17.839844 18.058594 C 17.839844 18.0625 17.839844 18.066406 17.839844 18.070312 L 13.605469 17.628906 C 13.589844 17.777344 13.582031 17.929688 13.582031 18.082031 C 13.582031 18.347656 13.605469 18.605469 13.652344 18.859375 L 18 18.410156 L 22.347656 18.859375 C 22.394531 18.605469 22.417969 18.347656 22.417969 18.082031 C 22.417969 17.929688 22.410156 17.777344 22.394531 17.628906 L 18.160156 18.070312 C 18.160156 18.066406 18.160156 18.0625 18.160156 18.058594 L 22.351562 17.332031 C 22.300781 17.011719 22.210938 16.707031 22.09375 16.414062 Z M 22.09375 16.414062 "/>
<path style=" stroke:none;fill-rule:nonzero;fill:rgb(25.490196%,45.098039%,80.392157%);fill-opacity:1;" d="M 13.730469 19.21875 C 13.761719 19.332031 13.796875 19.445312 13.835938 19.554688 L 22.164062 19.554688 C 22.203125 19.445312 22.238281 19.332031 22.269531 19.21875 C 21.863281 19.164062 21.8125 18.898438 21.3125 18.898438 C 20.761719 18.898438 20.761719 19.226562 20.210938 19.226562 C 19.65625 19.226562 19.65625 18.898438 19.105469 18.898438 C 18.554688 18.898438 18.554688 19.226562 18 19.226562 C 17.449219 19.226562 17.449219 18.898438 16.898438 18.898438 C 16.34375 18.898438 16.34375 19.226562 15.792969 19.226562 C 15.238281 19.226562 15.238281 18.898438 14.6875 18.898438 C 14.1875 18.898438 14.140625 19.164062 13.730469 19.21875 Z M 13.730469 19.21875 "/>
<path style=" stroke:none;fill-rule:nonzero;fill:rgb(25.490196%,45.098039%,80.392157%);fill-opacity:1;" d="M 21.183594 20.046875 C 20.652344 20.046875 20.652344 19.71875 20.121094 19.71875 C 19.589844 19.71875 19.589844 20.046875 19.058594 20.046875 C 18.527344 20.046875 18.527344 19.71875 17.996094 19.71875 C 17.460938 19.71875 17.460938 20.046875 16.929688 20.046875 C 16.398438 20.046875 16.398438 19.71875 15.867188 19.71875 C 15.335938 19.71875 15.335938 20.046875 14.804688 20.046875 C 14.332031 20.046875 14.277344 19.789062 13.902344 19.730469 C 13.992188 19.953125 14.097656 20.167969 14.222656 20.371094 L 21.777344 20.371094 C 21.902344 20.167969 22.007812 19.953125 22.101562 19.730469 C 21.710938 19.785156 21.660156 20.046875 21.183594 20.046875 Z M 21.183594 20.046875 "/>
<path style=" stroke:none;fill-rule:nonzero;fill:rgb(25.490196%,45.098039%,80.392157%);fill-opacity:1;" d="M 21.605469 20.632812 C 21.503906 20.578125 21.382812 20.535156 21.191406 20.535156 C 20.660156 20.535156 20.660156 20.863281 20.128906 20.863281 C 19.597656 20.863281 19.597656 20.535156 19.066406 20.535156 C 18.53125 20.535156 18.53125 20.863281 18 20.863281 C 17.46875 20.863281 17.46875 20.535156 16.9375 20.535156 C 16.40625 20.535156 16.40625 20.863281 15.875 20.863281 C 15.34375 20.863281 15.34375 20.535156 14.808594 20.535156 C 14.617188 20.535156 14.496094 20.578125 14.394531 20.632812 C 14.535156 20.832031 14.691406 21.019531 14.863281 21.191406 L 21.136719 21.191406 C 21.308594 21.019531 21.464844 20.832031 21.605469 20.632812 Z M 21.605469 20.632812 "/>
<path style=" stroke:none;fill-rule:nonzero;fill:rgb(25.490196%,45.098039%,80.392157%);fill-opacity:1;" d="M 20.722656 21.558594 C 20.5625 21.46875 20.433594 21.355469 20.121094 21.355469 C 19.589844 21.355469 19.589844 21.683594 19.058594 21.683594 C 18.527344 21.683594 18.527344 21.355469 17.996094 21.355469 C 17.460938 21.355469 17.460938 21.683594 16.929688 21.683594 C 16.398438 21.683594 16.398438 21.355469 15.867188 21.355469 C 15.558594 21.355469 15.429688 21.464844 15.273438 21.554688 C 15.492188 21.726562 15.726562 21.878906 15.976562 22.007812 L 20.023438 22.007812 C 20.269531 21.882812 20.503906 21.730469 20.722656 21.558594 Z M 20.722656 21.558594 "/>
<path style=" stroke:none;fill-rule:nonzero;fill:rgb(25.490196%,45.098039%,80.392157%);fill-opacity:1;" d="M 16.9375 22.171875 C 16.765625 22.171875 16.648438 22.207031 16.550781 22.253906 C 17.003906 22.414062 17.492188 22.5 18 22.5 C 17.46875 22.5 17.46875 22.171875 16.9375 22.171875 Z M 16.9375 22.171875 "/>
<path style=" stroke:none;fill-rule:nonzero;fill:rgb(25.490196%,45.098039%,80.392157%);fill-opacity:1;" d="M 18.003906 22.5 C 18.511719 22.5 19 22.414062 19.453125 22.253906 C 19.355469 22.207031 19.238281 22.171875 19.066406 22.171875 C 18.535156 22.171875 18.53125 22.5 18.003906 22.5 Z M 18.003906 22.5 "/>
<path style=" stroke:none;fill-rule:nonzero;fill:rgb(100%,29.411765%,33.333333%);fill-opacity:1;" d="M 18.582031 17.523438 L 17.179688 17.117188 C 17.101562 17.09375 17.046875 17.023438 17.046875 16.941406 C 17.039062 16.425781 17.019531 14.597656 17.019531 14.316406 C 17.019531 13.992188 17.34375 13.5 18 13.5 L 18.515625 13.5 C 18.566406 13.5 18.578125 13.566406 18.535156 13.585938 C 18.296875 13.6875 18 13.898438 18 14.316406 C 18 14.816406 18.476562 15.03125 18.699219 15.105469 C 18.769531 15.125 18.816406 15.191406 18.816406 15.265625 L 18.816406 17.34375 C 18.816406 17.46875 18.699219 17.558594 18.582031 17.523438 Z M 18.582031 17.523438 "/>
<path style=" stroke:none;fill-rule:nonzero;fill:rgb(100%,29.411765%,33.333333%);fill-opacity:1;" d="M 17.347656 19.355469 C 17.398438 19.324219 17.457031 19.375 17.433594 19.429688 C 17.296875 19.757812 16.960938 20.371094 16.363281 20.371094 C 15.546875 20.371094 15.382812 19.71875 15.382812 19.226562 L 15.382812 15.757812 C 15.382812 15.683594 15.441406 15.628906 15.511719 15.628906 L 15.742188 15.628906 C 15.816406 15.628906 15.871094 15.683594 15.871094 15.757812 L 15.871094 19.0625 C 15.871094 19.507812 16.804688 19.683594 17.347656 19.355469 Z M 17.347656 19.355469 "/>
<path style=" stroke:none;fill-rule:nonzero;fill:rgb(100%,29.411765%,33.333333%);fill-opacity:1;" d="M 18.585938 19.355469 C 18.535156 19.324219 18.472656 19.375 18.496094 19.429688 C 18.632812 19.757812 18.96875 20.371094 19.566406 20.371094 C 20.386719 20.371094 20.550781 19.71875 20.550781 19.226562 L 20.550781 15.757812 C 20.550781 15.683594 20.492188 15.628906 20.421875 15.628906 L 20.1875 15.628906 C 20.117188 15.628906 20.058594 15.683594 20.058594 15.757812 L 20.058594 19.0625 C 20.058594 19.507812 19.128906 19.683594 18.585938 19.355469 Z M 18.585938 19.355469 "/>
<path style=" stroke:none;fill-rule:nonzero;fill:rgb(66.666667%,27.45098%,31.372549%);fill-opacity:1;" d="M 19.722656 18.816406 L 16.277344 18.816406 C 16.234375 18.816406 16.199219 18.78125 16.199219 18.738281 L 16.199219 18.734375 C 16.199219 18.691406 16.234375 18.65625 16.277344 18.65625 L 19.722656 18.65625 C 19.765625 18.65625 19.800781 18.691406 19.800781 18.734375 L 19.800781 18.738281 C 19.800781 18.78125 19.765625 18.816406 19.722656 18.816406 Z M 19.722656 18.816406 "/>
<path style=" stroke:none;fill-rule:nonzero;fill:rgb(66.666667%,27.45098%,31.372549%);fill-opacity:1;" d="M 16.546875 18.199219 L 16.726562 17.964844 C 16.753906 17.929688 16.746094 17.875 16.707031 17.851562 C 16.671875 17.824219 16.621094 17.832031 16.59375 17.867188 L 16.523438 17.957031 L 16.523438 17.894531 C 16.523438 17.847656 16.488281 17.8125 16.441406 17.8125 C 16.398438 17.8125 16.359375 17.847656 16.359375 17.894531 L 16.359375 17.953125 L 16.296875 17.867188 C 16.269531 17.828125 16.21875 17.824219 16.183594 17.851562 C 16.144531 17.875 16.140625 17.929688 16.164062 17.964844 L 16.34375 18.199219 L 16.164062 18.4375 C 16.140625 18.472656 16.144531 18.523438 16.183594 18.550781 C 16.195312 18.5625 16.214844 18.566406 16.230469 18.566406 C 16.257812 18.566406 16.28125 18.554688 16.296875 18.535156 L 16.445312 18.335938 L 16.59375 18.535156 C 16.609375 18.554688 16.632812 18.566406 16.660156 18.566406 C 16.675781 18.566406 16.695312 18.5625 16.707031 18.550781 C 16.746094 18.523438 16.75 18.472656 16.722656 18.4375 Z M 16.546875 18.199219 "/>
<path style=" stroke:none;fill-rule:nonzero;fill:rgb(66.666667%,27.45098%,31.372549%);fill-opacity:1;" d="M 18.074219 18.199219 L 18.253906 17.964844 C 18.277344 17.929688 18.273438 17.875 18.234375 17.851562 C 18.199219 17.824219 18.148438 17.832031 18.121094 17.867188 L 18.050781 17.957031 L 18.050781 17.894531 C 18.050781 17.847656 18.015625 17.8125 17.96875 17.8125 C 17.925781 17.8125 17.886719 17.847656 17.886719 17.894531 L 17.886719 17.953125 L 17.824219 17.867188 C 17.796875 17.828125 17.746094 17.824219 17.710938 17.851562 C 17.671875 17.875 17.664062 17.929688 17.691406 17.964844 L 17.871094 18.199219 L 17.691406 18.4375 C 17.664062 18.472656 17.671875 18.523438 17.710938 18.550781 C 17.722656 18.5625 17.742188 18.566406 17.757812 18.566406 C 17.785156 18.566406 17.808594 18.554688 17.824219 18.535156 L 17.972656 18.335938 L 18.121094 18.535156 C 18.136719 18.554688 18.160156 18.566406 18.1875 18.566406 C 18.203125 18.566406 18.21875 18.5625 18.234375 18.550781 C 18.273438 18.523438 18.277344 18.472656 18.25 18.4375 Z M 18.074219 18.199219 "/>
<path style=" stroke:none;fill-rule:nonzero;fill:rgb(66.666667%,27.45098%,31.372549%);fill-opacity:1;" d="M 17.3125 18.199219 L 17.488281 17.964844 C 17.515625 17.929688 17.507812 17.875 17.472656 17.851562 C 17.4375 17.824219 17.382812 17.832031 17.359375 17.867188 L 17.289062 17.957031 L 17.289062 17.894531 C 17.289062 17.847656 17.253906 17.8125 17.207031 17.8125 C 17.160156 17.8125 17.125 17.847656 17.125 17.894531 L 17.125 17.953125 L 17.058594 17.867188 C 17.035156 17.828125 16.980469 17.824219 16.945312 17.851562 C 16.910156 17.875 16.902344 17.929688 16.929688 17.964844 L 17.105469 18.199219 L 16.929688 18.4375 C 16.902344 18.472656 16.910156 18.523438 16.945312 18.550781 C 16.960938 18.5625 16.976562 18.566406 16.996094 18.566406 C 17.019531 18.566406 17.042969 18.554688 17.058594 18.535156 L 17.207031 18.335938 L 17.355469 18.535156 C 17.375 18.554688 17.398438 18.566406 17.421875 18.566406 C 17.441406 18.566406 17.457031 18.5625 17.472656 18.550781 C 17.507812 18.523438 17.515625 18.472656 17.488281 18.4375 Z M 17.3125 18.199219 "/>
<path style=" stroke:none;fill-rule:nonzero;fill:rgb(66.666667%,27.45098%,31.372549%);fill-opacity:1;" d="M 18.839844 18.199219 L 19.015625 17.964844 C 19.042969 17.929688 19.035156 17.875 19 17.851562 C 18.964844 17.824219 18.910156 17.832031 18.886719 17.867188 L 18.816406 17.957031 L 18.816406 17.894531 C 18.816406 17.847656 18.777344 17.8125 18.734375 17.8125 C 18.6875 17.8125 18.652344 17.847656 18.652344 17.894531 L 18.652344 17.953125 L 18.585938 17.867188 C 18.5625 17.828125 18.507812 17.824219 18.472656 17.851562 C 18.4375 17.875 18.429688 17.929688 18.457031 17.964844 L 18.632812 18.199219 L 18.457031 18.4375 C 18.429688 18.472656 18.4375 18.523438 18.472656 18.550781 C 18.488281 18.5625 18.503906 18.566406 18.523438 18.566406 C 18.546875 18.566406 18.570312 18.554688 18.585938 18.535156 L 18.734375 18.335938 L 18.882812 18.535156 C 18.902344 18.554688 18.925781 18.566406 18.949219 18.566406 C 18.96875 18.566406 18.984375 18.5625 19 18.550781 C 19.035156 18.523438 19.042969 18.472656 19.015625 18.4375 Z M 18.839844 18.199219 "/>
<path style=" stroke:none;fill-rule:nonzero;fill:rgb(66.666667%,27.45098%,31.372549%);fill-opacity:1;" d="M 19.601562 18.199219 L 19.78125 17.964844 C 19.804688 17.929688 19.800781 17.875 19.761719 17.851562 C 19.726562 17.824219 19.675781 17.832031 19.648438 17.867188 L 19.578125 17.957031 L 19.578125 17.894531 C 19.578125 17.847656 19.542969 17.8125 19.496094 17.8125 C 19.453125 17.8125 19.414062 17.847656 19.414062 17.894531 L 19.414062 17.953125 L 19.351562 17.867188 C 19.324219 17.828125 19.273438 17.824219 19.238281 17.851562 C 19.199219 17.875 19.191406 17.929688 19.21875 17.964844 L 19.398438 18.199219 L 19.21875 18.4375 C 19.191406 18.472656 19.199219 18.523438 19.238281 18.550781 C 19.25 18.5625 19.269531 18.566406 19.285156 18.566406 C 19.3125 18.566406 19.335938 18.554688 19.351562 18.535156 L 19.5 18.335938 L 19.648438 18.535156 C 19.664062 18.554688 19.6875 18.566406 19.714844 18.566406 C 19.730469 18.566406 19.746094 18.5625 19.761719 18.550781 C 19.796875 18.523438 19.804688 18.472656 19.777344 18.4375 Z M 19.601562 18.199219 "/>
<path style=" stroke:none;fill-rule:nonzero;fill:rgb(66.666667%,27.45098%,31.372549%);fill-opacity:1;" d="M 16.398438 19.324219 C 16.515625 19.375 17.226562 19.382812 17.410156 19.195312 C 17.589844 19.007812 17.554688 18.921875 17.554688 18.921875 L 16.691406 18.929688 Z M 16.398438 19.324219 "/>
<path style=" stroke:none;fill-rule:nonzero;fill:rgb(66.666667%,27.45098%,31.372549%);fill-opacity:1;" d="M 19.570312 19.324219 C 19.449219 19.375 18.738281 19.382812 18.554688 19.195312 C 18.375 19.007812 18.410156 18.921875 18.410156 18.921875 L 19.273438 18.929688 Z M 19.570312 19.324219 "/>
</g>
</svg>
