<?xml version="1.0" encoding="UTF-8"?>
<svg xmlns="http://www.w3.org/2000/svg" xmlns:xlink="http://www.w3.org/1999/xlink" width="36pt" height="36pt" viewBox="0 0 36 36" version="1.1">
<g id="surface1">
<path style=" stroke:none;fill-rule:nonzero;fill:rgb(25.490196%,27.843137%,60.784314%);fill-opacity:1;" d="M 35.378906 29.792969 L 0.621094 29.792969 C 0.277344 29.792969 0 29.515625 0 29.171875 L 0 6.828125 C 0 6.484375 0.277344 6.207031 0.621094 6.207031 L 35.378906 6.207031 C 35.722656 6.207031 36 6.484375 36 6.828125 L 36 29.171875 C 36 29.515625 35.722656 29.792969 35.378906 29.792969 Z M 35.378906 29.792969 "/>
<path style=" stroke:none;fill-rule:nonzero;fill:rgb(23.529412%,78.431373%,100%);fill-opacity:1;" d="M 18 11.792969 C 15.640625 13.035156 14.050781 15.988281 14.050781 18 C 14.050781 20.011719 15.640625 22.964844 18 24.207031 C 20.359375 22.964844 21.949219 20.011719 21.949219 18 C 21.949219 15.988281 20.359375 13.035156 18 11.792969 Z M 18 11.792969 "/>
<path style=" stroke:none;fill-rule:nonzero;fill:rgb(45.098039%,68.627451%,0%);fill-opacity:1;" d="M 18.507812 15.875 C 18.890625 15.671875 19.542969 15.453125 20.28125 15.722656 C 20.28125 15.722656 19.566406 14.929688 18.582031 15.578125 C 18.847656 15.253906 19.246094 14.855469 19.675781 14.746094 C 19.675781 14.746094 18.816406 14.421875 18.296875 15.570312 C 18.398438 14.992188 18.378906 14.082031 17.445312 13.550781 C 17.445312 13.550781 17.96875 14.671875 18.019531 15.601562 C 17.988281 15.433594 17.929688 15.261719 17.769531 15.09375 C 17.273438 14.582031 16.847656 14.539062 16.847656 14.539062 C 16.847656 14.539062 17.53125 15.296875 17.867188 16.011719 C 17.671875 15.78125 17.332031 15.484375 16.78125 15.503906 C 15.496094 15.546875 15.214844 16.316406 15.214844 16.316406 C 15.75 16.09375 16.597656 15.980469 17.253906 16.035156 C 16.40625 16.1875 16.105469 17.242188 16.105469 17.242188 C 16.785156 16.394531 17.527344 16.253906 17.824219 16.234375 C 17.28125 16.683594 17.316406 17.507812 17.316406 17.507812 C 17.441406 17.042969 17.929688 16.515625 18.164062 16.277344 C 18.804688 16.96875 18.882812 17.746094 18.882812 17.746094 C 18.882812 17.746094 19.019531 17.511719 18.957031 17.035156 C 18.894531 16.585938 18.613281 16.292969 18.398438 16.117188 C 19.527344 16.273438 20.265625 17.09375 20.265625 17.09375 C 19.894531 16.015625 18.96875 15.875 18.507812 15.875 Z M 18.507812 15.875 "/>
<path style=" stroke:none;fill-rule:nonzero;fill:rgb(100%,29.411765%,33.333333%);fill-opacity:1;" d="M 34.757812 7.449219 L 34.757812 28.550781 L 1.242188 28.550781 L 1.242188 7.449219 L 34.757812 7.449219 M 35.378906 6.207031 L 0.621094 6.207031 C 0.277344 6.207031 0 6.484375 0 6.828125 L 0 29.171875 C 0 29.515625 0.277344 29.792969 0.621094 29.792969 L 35.378906 29.792969 C 35.722656 29.792969 36 29.515625 36 29.171875 L 36 6.828125 C 36 6.484375 35.722656 6.207031 35.378906 6.207031 Z M 35.378906 6.207031 "/>
<path style=" stroke:none;fill-rule:nonzero;fill:rgb(100%,58.823529%,35.294118%);fill-opacity:1;" d="M 16.738281 19.5 L 17.308594 18.515625 L 21.984375 18.414062 L 21.671875 19.707031 Z M 16.738281 19.5 "/>
<path style=" stroke:none;fill-rule:nonzero;fill:rgb(25.490196%,45.098039%,80.392157%);fill-opacity:1;" d="M 14.21875 19.242188 C 14.6875 21.082031 16.09375 23.203125 18 24.207031 C 19.90625 23.203125 21.3125 21.082031 21.777344 19.242188 Z M 14.21875 19.242188 "/>
<path style=" stroke:none;fill-rule:nonzero;fill:rgb(100%,88.235294%,35.294118%);fill-opacity:1;" d="M 14.898438 21.101562 C 14.898438 21.101562 16.25 21.035156 17.0625 21.371094 C 17.265625 21.453125 17.292969 21.726562 17.109375 21.847656 C 16.714844 22.109375 16.136719 22.558594 16.136719 22.964844 Z M 14.898438 21.101562 "/>
<path style=" stroke:none;fill-rule:nonzero;fill:rgb(100%,88.235294%,35.294118%);fill-opacity:1;" d="M 17.277344 23.585938 C 17.222656 23.070312 17.683594 22.691406 18.308594 22.449219 C 19.125 22.132812 18.679688 21.628906 18.269531 21.296875 C 17.785156 20.902344 18.414062 20.792969 21.050781 20.742188 L 19.757812 22.757812 L 18 24.207031 Z M 17.277344 23.585938 "/>
<path style=" stroke:none;fill-rule:nonzero;fill:rgb(100%,29.411765%,33.333333%);fill-opacity:1;" d="M 18 24.558594 L 17.855469 24.480469 C 15.394531 23.1875 13.738281 20.085938 13.738281 18 C 13.738281 15.914062 15.394531 12.8125 17.855469 11.519531 L 18 11.441406 L 18.144531 11.519531 C 20.605469 12.8125 22.261719 15.914062 22.261719 18 C 22.261719 20.085938 20.605469 23.1875 18.144531 24.480469 Z M 18 12.148438 C 15.816406 13.378906 14.359375 16.136719 14.359375 18 C 14.359375 19.863281 15.816406 22.621094 18 23.851562 C 20.183594 22.621094 21.640625 19.863281 21.640625 18 C 21.640625 16.136719 20.183594 13.378906 18 12.148438 Z M 18 12.148438 "/>
<path style=" stroke:none;fill-rule:nonzero;fill:rgb(64.705882%,29.411765%,21.568627%);fill-opacity:1;" d="M 19.320312 21.542969 C 19.289062 21.542969 19.261719 21.535156 19.238281 21.519531 C 18.394531 20.988281 17.910156 20.113281 17.910156 19.113281 L 17.910156 16.253906 C 17.910156 16.167969 17.980469 16.097656 18.066406 16.097656 C 18.148438 16.097656 18.21875 16.167969 18.21875 16.253906 L 18.21875 19.113281 C 18.21875 20.003906 18.648438 20.785156 19.402344 21.257812 C 19.472656 21.300781 19.496094 21.398438 19.449219 21.46875 C 19.421875 21.515625 19.371094 21.542969 19.320312 21.542969 Z M 19.320312 21.542969 "/>
<path style=" stroke:none;fill-rule:nonzero;fill:rgb(64.705882%,29.411765%,21.568627%);fill-opacity:1;" d="M 18.402344 16.265625 C 18.402344 16.453125 18.253906 16.601562 18.066406 16.601562 C 17.878906 16.601562 17.726562 16.453125 17.726562 16.265625 C 17.726562 16.078125 17.878906 15.925781 18.066406 15.925781 C 18.253906 15.925781 18.402344 16.078125 18.402344 16.265625 Z M 18.402344 16.265625 "/>
</g>
</svg>
