<?xml version="1.0" encoding="UTF-8"?>
<svg xmlns="http://www.w3.org/2000/svg" xmlns:xlink="http://www.w3.org/1999/xlink" width="36pt" height="36pt" viewBox="0 0 36 36" version="1.1">
<g id="surface1">
<path style=" stroke:none;fill-rule:nonzero;fill:rgb(50.980392%,68.627451%,100%);fill-opacity:1;" d="M 12 29.792969 L 0.621094 29.792969 C 0.277344 29.792969 0 29.515625 0 29.171875 L 0 6.828125 C 0 6.484375 0.277344 6.207031 0.621094 6.207031 L 12 6.207031 Z M 12 29.792969 "/>
<path style=" stroke:none;fill-rule:nonzero;fill:rgb(96.078431%,96.078431%,96.078431%);fill-opacity:1;" d="M 12 6.207031 L 24 6.207031 L 24 29.792969 L 12 29.792969 Z M 12 6.207031 "/>
<path style=" stroke:none;fill-rule:nonzero;fill:rgb(50.980392%,68.627451%,100%);fill-opacity:1;" d="M 35.378906 29.792969 L 24 29.792969 L 24 6.207031 L 35.378906 6.207031 C 35.722656 6.207031 36 6.484375 36 6.828125 L 36 29.171875 C 36 29.515625 35.722656 29.792969 35.378906 29.792969 Z M 35.378906 29.792969 "/>
<path style=" stroke:none;fill-rule:nonzero;fill:rgb(100%,78.431373%,33.333333%);fill-opacity:1;" d="M 17.84375 14.914062 L 17.488281 15.09375 L 17.816406 15.226562 Z M 17.84375 14.914062 "/>
<path style=" stroke:none;fill-rule:nonzero;fill:rgb(45.098039%,68.627451%,0%);fill-opacity:1;" d="M 18 21.492188 C 16.023438 21.492188 14.414062 19.882812 14.414062 17.902344 C 14.414062 16.675781 15.03125 15.542969 16.066406 14.878906 L 16.160156 15.023438 C 15.171875 15.65625 14.582031 16.734375 14.582031 17.902344 C 14.582031 19.789062 16.117188 21.320312 18 21.320312 Z M 18 21.492188 "/>
<path style=" stroke:none;fill-rule:nonzero;fill:rgb(45.098039%,68.627451%,0%);fill-opacity:1;" d="M 15.945312 21.714844 C 16.082031 21.742188 16.292969 21.707031 16.511719 21.605469 C 16.726562 21.503906 16.890625 21.367188 16.957031 21.242188 C 16.820312 21.214844 16.609375 21.253906 16.394531 21.351562 C 16.175781 21.453125 16.011719 21.59375 15.945312 21.714844 Z M 15.945312 21.714844 "/>
<path style=" stroke:none;fill-rule:nonzero;fill:rgb(45.098039%,68.627451%,0%);fill-opacity:1;" d="M 16.957031 21.242188 C 16.984375 21.105469 16.949219 20.898438 16.847656 20.679688 C 16.746094 20.464844 16.609375 20.300781 16.488281 20.234375 C 16.457031 20.371094 16.496094 20.582031 16.59375 20.796875 C 16.695312 21.015625 16.835938 21.175781 16.957031 21.242188 Z M 16.957031 21.242188 "/>
<path style=" stroke:none;fill-rule:nonzero;fill:rgb(45.098039%,68.627451%,0%);fill-opacity:1;" d="M 15.230469 21.277344 C 15.363281 21.324219 15.578125 21.320312 15.804688 21.25 C 16.035156 21.183594 16.21875 21.070312 16.300781 20.957031 C 16.167969 20.910156 15.957031 20.914062 15.726562 20.984375 C 15.496094 21.050781 15.316406 21.164062 15.230469 21.277344 Z M 15.230469 21.277344 "/>
<path style=" stroke:none;fill-rule:nonzero;fill:rgb(45.098039%,68.627451%,0%);fill-opacity:1;" d="M 16.300781 20.957031 C 16.347656 20.828125 16.34375 20.613281 16.277344 20.382812 C 16.207031 20.15625 16.09375 19.972656 15.984375 19.890625 C 15.9375 20.019531 15.941406 20.234375 16.007812 20.464844 C 16.078125 20.691406 16.1875 20.875 16.300781 20.957031 Z M 16.300781 20.957031 "/>
<path style=" stroke:none;fill-rule:nonzero;fill:rgb(45.098039%,68.627451%,0%);fill-opacity:1;" d="M 14.570312 20.679688 C 14.691406 20.75 14.902344 20.78125 15.140625 20.757812 C 15.378906 20.730469 15.578125 20.652344 15.679688 20.558594 C 15.558594 20.488281 15.347656 20.453125 15.109375 20.480469 C 14.871094 20.503906 14.671875 20.582031 14.570312 20.679688 Z M 14.570312 20.679688 "/>
<path style=" stroke:none;fill-rule:nonzero;fill:rgb(45.098039%,68.627451%,0%);fill-opacity:1;" d="M 15.679688 20.558594 C 15.75 20.4375 15.785156 20.226562 15.757812 19.988281 C 15.730469 19.75 15.652344 19.550781 15.558594 19.449219 C 15.488281 19.570312 15.453125 19.78125 15.480469 20.019531 C 15.507812 20.257812 15.585938 20.457031 15.679688 20.558594 Z M 15.679688 20.558594 "/>
<path style=" stroke:none;fill-rule:nonzero;fill:rgb(45.098039%,68.627451%,0%);fill-opacity:1;" d="M 14.023438 19.851562 C 14.128906 19.941406 14.332031 20.011719 14.570312 20.03125 C 14.808594 20.046875 15.019531 20.003906 15.136719 19.929688 C 15.03125 19.839844 14.828125 19.769531 14.589844 19.75 C 14.351562 19.734375 14.140625 19.777344 14.023438 19.851562 Z M 14.023438 19.851562 "/>
<path style=" stroke:none;fill-rule:nonzero;fill:rgb(45.098039%,68.627451%,0%);fill-opacity:1;" d="M 15.136719 19.929688 C 15.226562 19.824219 15.296875 19.621094 15.316406 19.382812 C 15.332031 19.144531 15.289062 18.933594 15.214844 18.816406 C 15.125 18.921875 15.054688 19.125 15.035156 19.363281 C 15.019531 19.601562 15.0625 19.8125 15.136719 19.929688 Z M 15.136719 19.929688 "/>
<path style=" stroke:none;fill-rule:nonzero;fill:rgb(45.098039%,68.627451%,0%);fill-opacity:1;" d="M 13.703125 18.941406 C 13.789062 19.050781 13.972656 19.164062 14.199219 19.230469 C 14.429688 19.296875 14.644531 19.300781 14.777344 19.25 C 14.691406 19.140625 14.507812 19.03125 14.277344 18.964844 C 14.050781 18.898438 13.835938 18.894531 13.703125 18.941406 Z M 13.703125 18.941406 "/>
<path style=" stroke:none;fill-rule:nonzero;fill:rgb(45.098039%,68.627451%,0%);fill-opacity:1;" d="M 14.773438 19.25 C 14.886719 19.167969 14.996094 18.984375 15.0625 18.753906 C 15.128906 18.527344 15.132812 18.3125 15.085938 18.179688 C 14.972656 18.265625 14.863281 18.449219 14.796875 18.675781 C 14.730469 18.90625 14.726562 19.121094 14.773438 19.25 Z M 14.773438 19.25 "/>
<path style=" stroke:none;fill-rule:nonzero;fill:rgb(45.098039%,68.627451%,0%);fill-opacity:1;" d="M 13.570312 17.878906 C 13.621094 18.007812 13.769531 18.164062 13.976562 18.285156 C 14.179688 18.410156 14.386719 18.46875 14.523438 18.453125 C 14.472656 18.324219 14.324219 18.171875 14.117188 18.046875 C 13.914062 17.925781 13.707031 17.867188 13.570312 17.878906 Z M 13.570312 17.878906 "/>
<path style=" stroke:none;fill-rule:nonzero;fill:rgb(45.098039%,68.627451%,0%);fill-opacity:1;" d="M 14.523438 18.453125 C 14.652344 18.402344 14.808594 18.253906 14.929688 18.046875 C 15.054688 17.84375 15.113281 17.636719 15.097656 17.5 C 14.96875 17.550781 14.816406 17.699219 14.691406 17.90625 C 14.570312 18.109375 14.511719 18.316406 14.523438 18.453125 Z M 14.523438 18.453125 "/>
<path style=" stroke:none;fill-rule:nonzero;fill:rgb(45.098039%,68.627451%,0%);fill-opacity:1;" d="M 13.699219 16.875 C 13.722656 17.011719 13.835938 17.195312 14.007812 17.359375 C 14.183594 17.523438 14.371094 17.621094 14.511719 17.640625 C 14.484375 17.5 14.375 17.320312 14.199219 17.15625 C 14.023438 16.992188 13.835938 16.890625 13.699219 16.875 Z M 13.699219 16.875 "/>
<path style=" stroke:none;fill-rule:nonzero;fill:rgb(45.098039%,68.627451%,0%);fill-opacity:1;" d="M 14.511719 17.640625 C 14.648438 17.613281 14.832031 17.5 14.992188 17.328125 C 15.15625 17.152344 15.257812 16.964844 15.273438 16.824219 C 15.136719 16.851562 14.953125 16.960938 14.789062 17.136719 C 14.628906 17.3125 14.527344 17.5 14.511719 17.640625 Z M 14.511719 17.640625 "/>
<path style=" stroke:none;fill-rule:nonzero;fill:rgb(45.098039%,68.627451%,0%);fill-opacity:1;" d="M 14.203125 15.789062 C 14.171875 15.925781 14.207031 16.136719 14.308594 16.355469 C 14.40625 16.574219 14.542969 16.738281 14.664062 16.804688 C 14.695312 16.667969 14.660156 16.457031 14.558594 16.238281 C 14.460938 16.023438 14.324219 15.859375 14.203125 15.789062 Z M 14.203125 15.789062 "/>
<path style=" stroke:none;fill-rule:nonzero;fill:rgb(45.098039%,68.627451%,0%);fill-opacity:1;" d="M 14.664062 16.804688 C 14.800781 16.832031 15.011719 16.796875 15.230469 16.699219 C 15.449219 16.597656 15.613281 16.460938 15.679688 16.339844 C 15.542969 16.3125 15.332031 16.347656 15.113281 16.445312 C 14.898438 16.542969 14.734375 16.683594 14.664062 16.804688 Z M 14.664062 16.804688 "/>
<path style=" stroke:none;fill-rule:nonzero;fill:rgb(45.098039%,68.627451%,0%);fill-opacity:1;" d="M 14.804688 14.988281 C 14.738281 15.109375 14.714844 15.324219 14.753906 15.558594 C 14.792969 15.796875 14.878906 15.992188 14.980469 16.089844 C 15.042969 15.964844 15.066406 15.75 15.027344 15.515625 C 14.992188 15.28125 14.902344 15.085938 14.804688 14.988281 Z M 14.804688 14.988281 "/>
<path style=" stroke:none;fill-rule:nonzero;fill:rgb(45.098039%,68.627451%,0%);fill-opacity:1;" d="M 14.980469 16.089844 C 15.101562 16.152344 15.316406 16.175781 15.550781 16.136719 C 15.789062 16.101562 15.980469 16.011719 16.078125 15.914062 C 15.957031 15.847656 15.742188 15.824219 15.507812 15.863281 C 15.273438 15.902344 15.078125 15.988281 14.980469 16.089844 Z M 14.980469 16.089844 "/>
<path style=" stroke:none;fill-rule:nonzero;fill:rgb(45.098039%,68.627451%,0%);fill-opacity:1;" d="M 15.394531 14.425781 C 15.3125 14.539062 15.257812 14.746094 15.261719 14.984375 C 15.261719 15.226562 15.320312 15.429688 15.40625 15.542969 C 15.488281 15.429688 15.542969 15.222656 15.539062 14.984375 C 15.539062 14.746094 15.480469 14.539062 15.394531 14.425781 Z M 15.394531 14.425781 "/>
<path style=" stroke:none;fill-rule:nonzero;fill:rgb(45.098039%,68.627451%,0%);fill-opacity:1;" d="M 15.40625 15.542969 C 15.519531 15.625 15.726562 15.679688 15.964844 15.675781 C 16.203125 15.671875 16.410156 15.617188 16.519531 15.53125 C 16.40625 15.449219 16.199219 15.394531 15.960938 15.398438 C 15.722656 15.398438 15.515625 15.457031 15.40625 15.542969 Z M 15.40625 15.542969 "/>
<path style=" stroke:none;fill-rule:nonzero;fill:rgb(45.098039%,68.627451%,0%);fill-opacity:1;" d="M 15.691406 15.25 C 15.832031 15.261719 16.035156 15.199219 16.238281 15.074219 C 16.441406 14.945312 16.589844 14.789062 16.640625 14.660156 C 16.5 14.648438 16.296875 14.710938 16.09375 14.835938 C 15.890625 14.960938 15.742188 15.121094 15.691406 15.25 Z M 15.691406 15.25 "/>
<path style=" stroke:none;fill-rule:nonzero;fill:rgb(45.098039%,68.627451%,0%);fill-opacity:1;" d="M 18 21.492188 L 18 21.320312 C 19.882812 21.320312 21.417969 19.789062 21.417969 17.902344 C 21.417969 16.734375 20.828125 15.65625 19.839844 15.023438 L 19.933594 14.878906 C 20.96875 15.542969 21.585938 16.675781 21.585938 17.902344 C 21.585938 19.882812 19.976562 21.492188 18 21.492188 Z M 18 21.492188 "/>
<path style=" stroke:none;fill-rule:nonzero;fill:rgb(45.098039%,68.627451%,0%);fill-opacity:1;" d="M 20.054688 21.714844 C 19.917969 21.742188 19.707031 21.707031 19.488281 21.605469 C 19.273438 21.503906 19.109375 21.367188 19.042969 21.242188 C 19.179688 21.214844 19.390625 21.253906 19.605469 21.351562 C 19.824219 21.453125 19.988281 21.59375 20.054688 21.714844 Z M 20.054688 21.714844 "/>
<path style=" stroke:none;fill-rule:nonzero;fill:rgb(45.098039%,68.627451%,0%);fill-opacity:1;" d="M 19.042969 21.242188 C 19.015625 21.105469 19.050781 20.898438 19.152344 20.679688 C 19.253906 20.464844 19.390625 20.300781 19.511719 20.234375 C 19.542969 20.371094 19.503906 20.582031 19.40625 20.796875 C 19.304688 21.015625 19.164062 21.175781 19.042969 21.242188 Z M 19.042969 21.242188 "/>
<path style=" stroke:none;fill-rule:nonzero;fill:rgb(45.098039%,68.627451%,0%);fill-opacity:1;" d="M 20.769531 21.277344 C 20.636719 21.324219 20.421875 21.320312 20.195312 21.25 C 19.964844 21.183594 19.78125 21.070312 19.699219 20.957031 C 19.832031 20.910156 20.042969 20.914062 20.273438 20.984375 C 20.503906 21.050781 20.683594 21.164062 20.769531 21.277344 Z M 20.769531 21.277344 "/>
<path style=" stroke:none;fill-rule:nonzero;fill:rgb(45.098039%,68.627451%,0%);fill-opacity:1;" d="M 19.699219 20.957031 C 19.652344 20.828125 19.65625 20.613281 19.722656 20.382812 C 19.792969 20.15625 19.90625 19.972656 20.015625 19.890625 C 20.0625 20.019531 20.058594 20.234375 19.992188 20.464844 C 19.921875 20.691406 19.8125 20.875 19.699219 20.957031 Z M 19.699219 20.957031 "/>
<path style=" stroke:none;fill-rule:nonzero;fill:rgb(45.098039%,68.627451%,0%);fill-opacity:1;" d="M 21.429688 20.679688 C 21.308594 20.75 21.097656 20.78125 20.859375 20.757812 C 20.621094 20.730469 20.421875 20.652344 20.320312 20.558594 C 20.441406 20.488281 20.652344 20.453125 20.890625 20.480469 C 21.128906 20.503906 21.328125 20.582031 21.429688 20.679688 Z M 21.429688 20.679688 "/>
<path style=" stroke:none;fill-rule:nonzero;fill:rgb(45.098039%,68.627451%,0%);fill-opacity:1;" d="M 20.320312 20.558594 C 20.25 20.4375 20.214844 20.226562 20.242188 19.988281 C 20.269531 19.75 20.347656 19.550781 20.441406 19.449219 C 20.511719 19.570312 20.546875 19.78125 20.519531 20.019531 C 20.492188 20.257812 20.414062 20.457031 20.320312 20.558594 Z M 20.320312 20.558594 "/>
<path style=" stroke:none;fill-rule:nonzero;fill:rgb(45.098039%,68.627451%,0%);fill-opacity:1;" d="M 21.976562 19.851562 C 21.871094 19.941406 21.667969 20.011719 21.429688 20.03125 C 21.191406 20.046875 20.980469 20.003906 20.863281 19.929688 C 20.96875 19.839844 21.171875 19.769531 21.410156 19.75 C 21.648438 19.734375 21.859375 19.777344 21.976562 19.851562 Z M 21.976562 19.851562 "/>
<path style=" stroke:none;fill-rule:nonzero;fill:rgb(45.098039%,68.627451%,0%);fill-opacity:1;" d="M 20.863281 19.929688 C 20.773438 19.824219 20.703125 19.621094 20.683594 19.382812 C 20.667969 19.144531 20.710938 18.933594 20.785156 18.816406 C 20.875 18.921875 20.945312 19.125 20.964844 19.363281 C 20.980469 19.601562 20.9375 19.8125 20.863281 19.929688 Z M 20.863281 19.929688 "/>
<path style=" stroke:none;fill-rule:nonzero;fill:rgb(45.098039%,68.627451%,0%);fill-opacity:1;" d="M 22.296875 18.941406 C 22.210938 19.050781 22.027344 19.164062 21.800781 19.230469 C 21.570312 19.296875 21.355469 19.300781 21.222656 19.25 C 21.308594 19.140625 21.492188 19.03125 21.722656 18.964844 C 21.949219 18.898438 22.164062 18.894531 22.296875 18.941406 Z M 22.296875 18.941406 "/>
<path style=" stroke:none;fill-rule:nonzero;fill:rgb(45.098039%,68.627451%,0%);fill-opacity:1;" d="M 21.226562 19.25 C 21.113281 19.167969 21.003906 18.984375 20.9375 18.753906 C 20.871094 18.527344 20.867188 18.3125 20.914062 18.179688 C 21.027344 18.265625 21.136719 18.449219 21.203125 18.675781 C 21.269531 18.90625 21.273438 19.121094 21.226562 19.25 Z M 21.226562 19.25 "/>
<path style=" stroke:none;fill-rule:nonzero;fill:rgb(45.098039%,68.627451%,0%);fill-opacity:1;" d="M 22.429688 17.878906 C 22.378906 18.007812 22.230469 18.164062 22.023438 18.285156 C 21.820312 18.410156 21.613281 18.46875 21.476562 18.453125 C 21.527344 18.324219 21.675781 18.171875 21.882812 18.046875 C 22.085938 17.925781 22.292969 17.867188 22.429688 17.878906 Z M 22.429688 17.878906 "/>
<path style=" stroke:none;fill-rule:nonzero;fill:rgb(45.098039%,68.627451%,0%);fill-opacity:1;" d="M 21.476562 18.453125 C 21.347656 18.402344 21.191406 18.253906 21.070312 18.046875 C 20.945312 17.84375 20.886719 17.636719 20.902344 17.5 C 21.03125 17.550781 21.183594 17.699219 21.308594 17.90625 C 21.429688 18.109375 21.488281 18.316406 21.476562 18.453125 Z M 21.476562 18.453125 "/>
<path style=" stroke:none;fill-rule:nonzero;fill:rgb(45.098039%,68.627451%,0%);fill-opacity:1;" d="M 22.300781 16.875 C 22.277344 17.011719 22.164062 17.195312 21.992188 17.359375 C 21.816406 17.523438 21.628906 17.621094 21.488281 17.640625 C 21.515625 17.5 21.625 17.320312 21.800781 17.15625 C 21.976562 16.992188 22.164062 16.890625 22.300781 16.875 Z M 22.300781 16.875 "/>
<path style=" stroke:none;fill-rule:nonzero;fill:rgb(45.098039%,68.627451%,0%);fill-opacity:1;" d="M 21.488281 17.640625 C 21.351562 17.613281 21.167969 17.5 21.007812 17.328125 C 20.84375 17.152344 20.742188 16.964844 20.726562 16.824219 C 20.863281 16.851562 21.046875 16.960938 21.210938 17.136719 C 21.371094 17.3125 21.472656 17.5 21.488281 17.640625 Z M 21.488281 17.640625 "/>
<path style=" stroke:none;fill-rule:nonzero;fill:rgb(45.098039%,68.627451%,0%);fill-opacity:1;" d="M 21.796875 15.789062 C 21.828125 15.925781 21.792969 16.136719 21.691406 16.355469 C 21.59375 16.574219 21.457031 16.738281 21.335938 16.804688 C 21.304688 16.667969 21.339844 16.457031 21.441406 16.238281 C 21.539062 16.023438 21.675781 15.859375 21.796875 15.789062 Z M 21.796875 15.789062 "/>
<path style=" stroke:none;fill-rule:nonzero;fill:rgb(45.098039%,68.627451%,0%);fill-opacity:1;" d="M 21.335938 16.804688 C 21.199219 16.832031 20.988281 16.796875 20.769531 16.699219 C 20.550781 16.597656 20.386719 16.460938 20.320312 16.339844 C 20.457031 16.3125 20.667969 16.347656 20.886719 16.445312 C 21.101562 16.542969 21.265625 16.683594 21.335938 16.804688 Z M 21.335938 16.804688 "/>
<path style=" stroke:none;fill-rule:nonzero;fill:rgb(45.098039%,68.627451%,0%);fill-opacity:1;" d="M 21.195312 14.988281 C 21.261719 15.109375 21.285156 15.324219 21.246094 15.558594 C 21.207031 15.796875 21.121094 15.992188 21.019531 16.089844 C 20.957031 15.964844 20.933594 15.75 20.972656 15.515625 C 21.007812 15.28125 21.097656 15.085938 21.195312 14.988281 Z M 21.195312 14.988281 "/>
<path style=" stroke:none;fill-rule:nonzero;fill:rgb(45.098039%,68.627451%,0%);fill-opacity:1;" d="M 21.019531 16.089844 C 20.898438 16.152344 20.683594 16.175781 20.449219 16.136719 C 20.210938 16.101562 20.019531 16.011719 19.921875 15.914062 C 20.042969 15.847656 20.257812 15.824219 20.492188 15.863281 C 20.726562 15.902344 20.921875 15.988281 21.019531 16.089844 Z M 21.019531 16.089844 "/>
<path style=" stroke:none;fill-rule:nonzero;fill:rgb(45.098039%,68.627451%,0%);fill-opacity:1;" d="M 20.605469 14.425781 C 20.6875 14.539062 20.742188 14.746094 20.738281 14.984375 C 20.738281 15.226562 20.679688 15.429688 20.59375 15.542969 C 20.511719 15.429688 20.457031 15.222656 20.460938 14.984375 C 20.460938 14.746094 20.519531 14.539062 20.605469 14.425781 Z M 20.605469 14.425781 "/>
<path style=" stroke:none;fill-rule:nonzero;fill:rgb(45.098039%,68.627451%,0%);fill-opacity:1;" d="M 20.59375 15.542969 C 20.480469 15.625 20.273438 15.679688 20.035156 15.675781 C 19.796875 15.671875 19.589844 15.617188 19.480469 15.53125 C 19.59375 15.449219 19.800781 15.394531 20.039062 15.398438 C 20.277344 15.398438 20.484375 15.457031 20.59375 15.542969 Z M 20.59375 15.542969 "/>
<path style=" stroke:none;fill-rule:nonzero;fill:rgb(45.098039%,68.627451%,0%);fill-opacity:1;" d="M 20.308594 15.25 C 20.167969 15.261719 19.964844 15.199219 19.761719 15.074219 C 19.558594 14.945312 19.410156 14.789062 19.359375 14.660156 C 19.5 14.648438 19.703125 14.710938 19.90625 14.835938 C 20.109375 14.960938 20.257812 15.121094 20.308594 15.25 Z M 20.308594 15.25 "/>
<path style=" stroke:none;fill-rule:nonzero;fill:rgb(58.823529%,39.215686%,27.45098%);fill-opacity:1;" d="M 16.042969 20.695312 L 15.417969 21.316406 L 15.113281 20.703125 L 16.03125 19.785156 L 16.339844 20.089844 L 16.25 20.355469 C 16.207031 20.484375 16.136719 20.601562 16.042969 20.695312 Z M 16.042969 20.695312 "/>
<path style=" stroke:none;fill-rule:nonzero;fill:rgb(72.54902%,72.54902%,72.54902%);fill-opacity:1;" d="M 19.40625 16.105469 L 16.03125 19.476562 C 15.949219 19.5625 15.949219 19.699219 16.03125 19.785156 L 16.1875 19.9375 L 16.800781 19.324219 L 19.253906 16.566406 L 19.558594 16.257812 Z M 19.40625 16.105469 "/>
<path style=" stroke:none;fill-rule:nonzero;fill:rgb(58.823529%,39.215686%,27.45098%);fill-opacity:1;" d="M 16.863281 18.953125 C 16.824219 18.996094 16.800781 19.050781 16.800781 19.109375 L 16.800781 19.324219 L 19.253906 16.566406 Z M 16.863281 18.953125 "/>
<path style=" stroke:none;fill-rule:nonzero;fill:rgb(62.745098%,62.745098%,62.745098%);fill-opacity:1;" d="M 19.558594 16.257812 L 19.40625 16.105469 L 19.253906 16.257812 L 19.40625 16.410156 L 19.558594 16.566406 L 21.246094 14.570312 Z M 19.558594 16.257812 "/>
<path style=" stroke:none;fill-rule:nonzero;fill:rgb(58.823529%,39.215686%,27.45098%);fill-opacity:1;" d="M 20.128906 20.695312 L 20.75 21.316406 L 21.058594 20.703125 L 20.136719 19.785156 L 19.832031 20.089844 L 19.917969 20.355469 C 19.960938 20.484375 20.035156 20.601562 20.128906 20.695312 Z M 20.128906 20.695312 "/>
<path style=" stroke:none;fill-rule:nonzero;fill:rgb(72.54902%,72.54902%,72.54902%);fill-opacity:1;" d="M 16.765625 16.105469 L 20.136719 19.476562 C 20.222656 19.5625 20.222656 19.699219 20.136719 19.785156 L 19.984375 19.9375 L 19.371094 19.324219 L 16.917969 16.566406 L 16.613281 16.257812 Z M 16.765625 16.105469 "/>
<path style=" stroke:none;fill-rule:nonzero;fill:rgb(58.823529%,39.215686%,27.45098%);fill-opacity:1;" d="M 19.308594 18.953125 C 19.347656 18.996094 19.371094 19.050781 19.371094 19.109375 L 19.371094 19.324219 L 16.917969 16.566406 Z M 19.308594 18.953125 "/>
<path style=" stroke:none;fill-rule:nonzero;fill:rgb(62.745098%,62.745098%,62.745098%);fill-opacity:1;" d="M 16.613281 16.257812 L 16.765625 16.105469 L 16.917969 16.257812 L 16.765625 16.410156 L 16.613281 16.566406 L 14.925781 14.570312 Z M 16.613281 16.257812 "/>
<path style=" stroke:none;fill-rule:nonzero;fill:rgb(72.54902%,72.54902%,72.54902%);fill-opacity:1;" d="M 16.828125 20.570312 L 16.980469 20.707031 C 17.535156 20.097656 18.507812 19.03125 20.050781 17.648438 C 20.050781 17.648438 18.773438 18.4375 16.828125 20.570312 Z M 16.828125 20.570312 "/>
<path style=" stroke:none;fill-rule:nonzero;fill:rgb(100%,88.235294%,35.294118%);fill-opacity:1;" d="M 16.394531 21.195312 C 16.339844 21.144531 16.335938 21.058594 16.386719 21.003906 L 16.714844 20.648438 C 16.761719 20.59375 16.847656 20.589844 16.902344 20.636719 C 16.957031 20.6875 16.960938 20.773438 16.910156 20.828125 L 16.585938 21.1875 C 16.535156 21.242188 16.449219 21.246094 16.394531 21.195312 Z M 16.394531 21.195312 "/>
<path style=" stroke:none;fill-rule:nonzero;fill:rgb(100%,78.431373%,33.333333%);fill-opacity:1;" d="M 16.703125 20.457031 L 16.613281 20.496094 C 16.535156 20.535156 16.328125 20.652344 16.292969 20.820312 C 16.277344 20.898438 16.300781 20.976562 16.363281 21.046875 C 16.367188 21.03125 16.375 21.019531 16.386719 21.003906 L 16.429688 20.960938 C 16.402344 20.917969 16.386719 20.878906 16.394531 20.839844 C 16.417969 20.734375 16.554688 20.644531 16.644531 20.597656 L 17.035156 20.953125 L 17.132812 20.847656 Z M 16.703125 20.457031 "/>
<path style=" stroke:none;fill-rule:nonzero;fill:rgb(72.54902%,72.54902%,72.54902%);fill-opacity:1;" d="M 19.34375 20.738281 L 19.191406 20.875 C 18.632812 20.265625 17.660156 19.199219 16.121094 17.816406 C 16.121094 17.816406 17.398438 18.605469 19.34375 20.738281 Z M 19.34375 20.738281 "/>
<path style=" stroke:none;fill-rule:nonzero;fill:rgb(100%,88.235294%,35.294118%);fill-opacity:1;" d="M 19.773438 21.363281 C 19.828125 21.3125 19.832031 21.226562 19.78125 21.171875 L 19.457031 20.816406 C 19.40625 20.761719 19.320312 20.757812 19.265625 20.808594 C 19.210938 20.855469 19.207031 20.941406 19.257812 20.996094 L 19.585938 21.355469 C 19.632812 21.410156 19.71875 21.414062 19.773438 21.363281 Z M 19.773438 21.363281 "/>
<path style=" stroke:none;fill-rule:nonzero;fill:rgb(100%,78.431373%,33.333333%);fill-opacity:1;" d="M 19.464844 20.625 L 19.554688 20.664062 C 19.632812 20.703125 19.839844 20.820312 19.875 20.988281 C 19.894531 21.066406 19.867188 21.144531 19.808594 21.214844 C 19.800781 21.199219 19.792969 21.1875 19.78125 21.175781 L 19.742188 21.128906 C 19.769531 21.089844 19.785156 21.046875 19.773438 21.007812 C 19.753906 20.90625 19.613281 20.8125 19.527344 20.765625 L 19.136719 21.121094 L 19.039062 21.015625 Z M 19.464844 20.625 "/>
<path style=" stroke:none;fill-rule:nonzero;fill:rgb(41.176471%,70.588235%,41.176471%);fill-opacity:1;" d="M 18.152344 15.09375 C 18.164062 15.066406 18.171875 15.03125 18.171875 15 C 18.171875 14.859375 18.054688 14.742188 17.914062 14.742188 C 17.773438 14.742188 17.660156 14.859375 17.660156 15 C 17.660156 15.082031 17.699219 15.15625 17.761719 15.203125 C 17.667969 15.949219 18.402344 16.003906 18.683594 16.109375 C 19.109375 16.265625 19.640625 16.585938 19.605469 17.480469 C 19.574219 18.347656 19.023438 19.183594 19.023438 19.183594 L 19.480469 18.566406 C 19.3125 19.269531 18.925781 20.167969 18 21.234375 C 18 21.234375 18.632812 20.617188 19.160156 19.816406 C 18.773438 20.730469 18.339844 21.578125 18.339844 21.578125 C 18.339844 21.578125 19.101562 20.585938 19.71875 18.875 C 20.464844 16.800781 18.894531 15.550781 18.152344 15.09375 Z M 18.152344 15.09375 "/>
<path style=" stroke:none;fill-rule:nonzero;fill:rgb(95.686275%,87.843137%,56.078431%);fill-opacity:1;" d="M 16.804688 18.160156 L 17.488281 18.160156 L 17.488281 18.5 L 16.804688 18.5 Z M 16.804688 18.160156 "/>
<path style=" stroke:none;fill-rule:nonzero;fill:rgb(92.54902%,81.568627%,46.666667%);fill-opacity:1;" d="M 17.144531 18.5 C 17.144531 18.691406 16.992188 18.84375 16.804688 18.84375 C 16.617188 18.84375 16.464844 18.691406 16.464844 18.5 C 16.464844 18.3125 16.617188 18.160156 16.804688 18.160156 C 16.992188 18.160156 17.144531 18.3125 17.144531 18.5 Z M 17.144531 18.5 "/>
<path style=" stroke:none;fill-rule:nonzero;fill:rgb(92.54902%,81.568627%,46.666667%);fill-opacity:1;" d="M 17.144531 16.28125 C 17.144531 16.46875 16.992188 16.621094 16.804688 16.621094 C 16.617188 16.621094 16.464844 16.46875 16.464844 16.28125 C 16.464844 16.09375 16.617188 15.9375 16.804688 15.9375 C 16.992188 15.9375 17.144531 16.09375 17.144531 16.28125 Z M 17.144531 16.28125 "/>
<path style=" stroke:none;fill-rule:nonzero;fill:rgb(98.823529%,94.117647%,65.882353%);fill-opacity:1;" d="M 18.855469 16.621094 C 19.042969 16.621094 19.195312 16.46875 19.195312 16.28125 C 19.195312 16.089844 19.042969 15.9375 18.855469 15.9375 L 16.804688 15.9375 C 16.992188 15.9375 17.144531 16.089844 17.144531 16.28125 C 17.144531 16.46875 16.992188 16.621094 16.804688 16.621094 C 16.617188 16.621094 16.460938 16.46875 16.460938 16.28125 C 16.460938 16.855469 16.941406 17.546875 17.097656 18.160156 C 17.097656 18.160156 17.144531 18.3125 17.144531 18.5 C 17.144531 18.691406 16.992188 18.84375 16.804688 18.84375 L 18.855469 18.84375 C 19.042969 18.84375 19.195312 18.691406 19.195312 18.5 C 19.195312 17.929688 18.714844 17.234375 18.5625 16.621094 Z M 18.855469 16.621094 "/>
<path style=" stroke:none;fill-rule:nonzero;fill:rgb(95.686275%,87.843137%,56.078431%);fill-opacity:1;" d="M 17.144531 16.28125 C 17.144531 16.46875 16.992188 16.621094 16.804688 16.621094 L 18.855469 16.621094 C 19.042969 16.621094 19.195312 16.46875 19.195312 16.28125 Z M 17.144531 16.28125 "/>
<path style=" stroke:none;fill-rule:nonzero;fill:rgb(95.686275%,87.843137%,56.078431%);fill-opacity:1;" d="M 17.144531 18.5 C 17.144531 18.691406 16.992188 18.84375 16.804688 18.84375 L 18.855469 18.84375 C 19.042969 18.84375 19.195312 18.691406 19.195312 18.5 Z M 17.144531 18.5 "/>
</g>
</svg>
