<?xml version="1.0" encoding="UTF-8"?>
<svg xmlns="http://www.w3.org/2000/svg" xmlns:xlink="http://www.w3.org/1999/xlink" width="37pt" height="10pt" viewBox="0 0 37 10" version="1.1">
<g id="surface1">
<path style=" stroke:none;fill-rule:nonzero;fill:rgb(0%,0%,0%);fill-opacity:1;" d="M 18.789062 9.976562 L 3.054688 9.976562 L 3.054688 9.820312 L 2.828125 9.851562 L 2.824219 9.726562 L 2.824219 9.601562 L 2.75 9.625 L 2.679688 9.648438 L 2.324219 9.648438 L 1.96875 9.652344 L 1.863281 9.554688 L 1.757812 9.460938 L 1.757812 9.316406 L 1.957031 9.085938 L 2.160156 8.855469 L 2.140625 8.800781 L 2.121094 8.75 L 1.582031 8.671875 L 1.421875 8.644531 L 1.257812 8.617188 L 1.257812 8.472656 L 1.027344 8.363281 L 0.800781 8.253906 L 0.660156 8.0625 L 0.523438 7.871094 L 0.367188 7.382812 L 0.214844 6.894531 L 0.140625 6.515625 L 0.0703125 6.140625 L 0 5.515625 L 0.570312 5.515625 L 0.59375 5.417969 L 0.621094 5.324219 L 1.140625 5.289062 L 1.65625 5.253906 L 1.65625 5.117188 L 1.714844 4.992188 L 1.773438 4.863281 L 2.492188 4.863281 L 2.714844 4.832031 L 2.941406 4.800781 L 3.007812 4.648438 L 3.078125 4.496094 L 3.300781 4.421875 L 3.527344 4.351562 L 4.285156 4.324219 L 5.046875 4.300781 L 5.046875 4.183594 L 5.367188 3.902344 L 5.890625 3.847656 L 5.921875 3.75 L 5.953125 3.65625 L 5.890625 3.578125 L 5.828125 3.503906 L 5.945312 3.386719 L 6.625 3.347656 L 6.742188 3.019531 L 6.921875 2.984375 L 7.097656 2.953125 L 7.167969 2.78125 L 7.242188 2.605469 L 7.378906 2.605469 L 7.410156 2.527344 L 7.4375 2.449219 L 7.4375 2.070312 L 7.539062 1.980469 L 7.636719 1.890625 L 7.761719 1.976562 L 7.886719 2.058594 L 7.894531 2.144531 L 7.898438 2.230469 L 7.886719 2.355469 L 7.878906 2.480469 L 7.960938 2.398438 L 8.117188 1.578125 L 8.25 1.515625 L 8.386719 1.449219 L 8.414062 1.328125 L 8.445312 1.210938 L 8.585938 1.15625 L 8.585938 0.601562 L 8.683594 0.601562 L 8.683594 1.328125 L 8.71875 1.886719 L 8.75 2.445312 L 9.152344 2.46875 L 9.550781 2.492188 L 9.570312 2.550781 L 9.589844 2.605469 L 9.921875 2.605469 L 10 2.636719 L 10.082031 2.667969 L 10.082031 2.859375 L 12.070312 2.859375 L 12.082031 2.59375 L 12.097656 2.332031 L 12.570312 2.296875 L 13.046875 2.261719 L 13.761719 2.164062 L 14.476562 2.070312 L 14.511719 2.011719 L 14.546875 1.957031 L 14.773438 0.699219 L 14.921875 0.550781 L 15.242188 0.550781 L 15.300781 0.328125 L 15.363281 0.101562 L 16.015625 0.121094 L 16.664062 0.140625 L 16.699219 0.171875 L 16.730469 0.203125 L 16.757812 1.21875 L 16.785156 2.230469 L 17.105469 2.257812 L 17.429688 2.28125 L 17.445312 2.382812 L 17.460938 2.480469 L 17.488281 2.558594 L 17.511719 2.632812 L 17.5625 2.542969 L 17.609375 2.457031 L 19.089844 2.457031 L 19.117188 2.53125 L 19.148438 2.605469 L 19.761719 2.605469 L 19.828125 2.519531 L 19.894531 2.429688 L 19.898438 2.34375 L 19.898438 2.257812 L 21.136719 2.257812 L 21.167969 2.355469 L 21.199219 2.457031 L 23.6875 2.457031 L 23.6875 2.257812 L 24.933594 2.257812 L 24.933594 1.972656 L 25.023438 1.886719 L 25.113281 1.804688 L 25.265625 1.804688 L 25.355469 1.902344 L 25.441406 2 L 25.394531 2.28125 L 25.355469 2.367188 L 25.320312 2.457031 L 27.101562 2.457031 L 27.476562 2.394531 L 27.441406 2.21875 L 27.410156 2.042969 L 27.476562 2.003906 L 27.542969 1.960938 L 27.582031 1.988281 L 27.625 2.011719 L 27.625 2.40625 L 28.109375 2.40625 L 28.164062 2.339844 L 28.214844 2.277344 L 28.242188 1.753906 L 28.269531 1.226562 L 28.300781 0.828125 L 28.332031 0.425781 L 28.503906 0.214844 L 28.675781 0 L 28.769531 0 L 28.769531 0.753906 L 29.167969 0.753906 L 29.167969 0.851562 L 29.074219 0.851562 L 29.042969 1.125 L 28.917969 1.160156 L 28.792969 1.191406 L 29.027344 1.199219 L 29.261719 1.203125 L 29.292969 1.257812 L 29.328125 1.308594 L 29.222656 1.335938 L 29.117188 1.367188 L 29.117188 1.648438 L 28.957031 1.664062 L 28.792969 1.679688 L 28.792969 2.128906 L 28.957031 2.144531 L 29.117188 2.160156 L 29.117188 1.910156 L 29.015625 1.855469 L 28.917969 1.800781 L 28.945312 1.753906 L 28.976562 1.703125 L 29.363281 1.703125 L 29.417969 1.796875 L 29.332031 1.851562 L 29.242188 1.90625 L 29.367188 1.894531 L 29.492188 1.878906 L 29.503906 1.554688 L 29.519531 1.226562 L 29.574219 0.984375 L 29.621094 1.054688 L 29.664062 1.128906 L 29.664062 1.558594 L 29.667969 1.984375 L 29.726562 2.046875 L 29.785156 2.105469 L 29.964844 2.105469 L 29.964844 2.347656 L 30.066406 2.382812 L 30.164062 2.414062 L 30.265625 2.351562 L 30.265625 2.148438 L 30.3125 2.179688 L 30.363281 2.210938 L 30.363281 2.40625 L 30.527344 2.472656 L 30.6875 2.542969 L 30.757812 2.625 L 30.824219 2.707031 L 30.753906 3.183594 L 30.710938 3.265625 L 30.664062 3.347656 L 30.914062 3.410156 L 30.914062 3.585938 L 31.195312 4.1875 L 31.425781 4.550781 L 31.660156 4.914062 L 31.722656 4.921875 L 31.785156 4.925781 L 31.96875 4.917969 L 32.152344 4.90625 L 32.207031 5.007812 L 32.261719 5.113281 L 32.5 5.113281 L 32.535156 5.054688 L 32.570312 5 L 32.632812 4.195312 L 32.695312 4.171875 L 32.757812 4.152344 L 32.757812 4.988281 L 33.324219 4.992188 L 33.894531 4.992188 L 34.050781 5.125 L 34.050781 5.1875 L 33.597656 5.171875 L 33.144531 5.152344 L 33.089844 5.207031 L 33.035156 5.265625 L 33.878906 5.28125 L 33.925781 5.289062 L 33.976562 5.300781 L 34.339844 5.308594 L 34.699219 5.3125 L 34.699219 5.476562 L 36.269531 5.40625 L 36.554688 5.355469 L 36.839844 5.300781 L 36.917969 5.332031 L 36.992188 5.359375 L 36.992188 5.542969 L 36.539062 6.019531 L 36.085938 6.492188 L 35.738281 6.917969 L 35.394531 7.34375 L 35.144531 7.839844 L 34.898438 8.332031 L 34.898438 8.574219 L 35.0625 8.578125 L 35.222656 8.585938 L 35.421875 8.574219 L 35.621094 8.566406 L 35.796875 8.6875 L 35.972656 8.804688 L 35.957031 8.972656 L 35.945312 9.136719 L 35.773438 9.433594 L 35.515625 9.601562 L 35.261719 9.773438 L 34.527344 9.976562 Z M 25.007812 2.457031 L 25.03125 2.457031 L 25.03125 2.40625 L 24.980469 2.40625 L 24.980469 2.457031 Z M 28.875 0.972656 L 28.917969 0.945312 L 28.917969 0.851562 L 28.769531 0.851562 L 28.769531 0.9375 L 28.832031 1 Z M 28.875 0.972656 "/>
</g>
</svg>
