<?xml version="1.0" encoding="UTF-8"?>
<svg xmlns="http://www.w3.org/2000/svg" xmlns:xlink="http://www.w3.org/1999/xlink" width="36pt" height="36pt" viewBox="0 0 36 36" version="1.1">
<g id="surface1">
<path style=" stroke:none;fill-rule:nonzero;fill:rgb(96.078431%,96.078431%,96.078431%);fill-opacity:1;" d="M 35.378906 29.792969 L 0.621094 29.792969 C 0.277344 29.792969 0 29.515625 0 29.171875 L 0 6.828125 C 0 6.484375 0.277344 6.207031 0.621094 6.207031 L 35.378906 6.207031 C 35.722656 6.207031 36 6.484375 36 6.828125 L 36 29.171875 C 36 29.515625 35.722656 29.792969 35.378906 29.792969 Z M 35.378906 29.792969 "/>
<path style=" stroke:none;fill-rule:nonzero;fill:rgb(100%,29.411765%,33.333333%);fill-opacity:1;" d="M 21.445312 12.835938 C 18.59375 10.933594 14.742188 11.710938 12.839844 14.558594 C 11.886719 15.976562 12.277344 17.910156 13.703125 18.859375 C 15.125 19.8125 17.050781 19.425781 18.003906 18 C 18.953125 16.574219 20.878906 16.191406 22.304688 17.136719 C 23.730469 18.085938 24.113281 20.019531 23.164062 21.441406 C 25.0625 18.589844 24.296875 14.734375 21.445312 12.835938 "/>
<path style=" stroke:none;fill-rule:nonzero;fill:rgb(25.490196%,27.843137%,60.784314%);fill-opacity:1;" d="M 12.839844 14.558594 C 11.886719 15.980469 12.277344 17.910156 13.703125 18.859375 C 15.125 19.8125 17.050781 19.425781 18.003906 18 C 18.953125 16.574219 20.878906 16.191406 22.304688 17.136719 C 23.730469 18.085938 24.113281 20.019531 23.164062 21.441406 C 21.265625 24.296875 17.414062 25.066406 14.5625 23.164062 C 11.710938 21.261719 10.941406 17.410156 12.839844 14.558594 "/>
<path style=" stroke:none;fill-rule:nonzero;fill:rgb(27.45098%,27.45098%,33.333333%);fill-opacity:1;" d="M 24.605469 10.488281 L 25.730469 12.183594 C 25.824219 12.328125 25.789062 12.519531 25.644531 12.613281 L 25.359375 12.804688 C 25.21875 12.902344 25.023438 12.863281 24.929688 12.71875 L 23.800781 11.027344 C 23.703125 10.882812 23.742188 10.691406 23.886719 10.59375 L 24.171875 10.402344 C 24.316406 10.308594 24.507812 10.347656 24.605469 10.488281 Z M 24.605469 10.488281 "/>
<path style=" stroke:none;fill-rule:nonzero;fill:rgb(27.45098%,27.45098%,33.333333%);fill-opacity:1;" d="M 26.34375 13.101562 L 27.472656 14.796875 C 27.570312 14.941406 27.53125 15.132812 27.386719 15.226562 L 27.101562 15.417969 C 26.957031 15.511719 26.765625 15.472656 26.671875 15.332031 L 25.539062 13.640625 C 25.445312 13.496094 25.484375 13.304688 25.625 13.207031 L 25.914062 13.015625 C 26.054688 12.921875 26.246094 12.960938 26.34375 13.101562 Z M 26.34375 13.101562 "/>
<path style=" stroke:none;fill-rule:nonzero;fill:rgb(27.45098%,27.45098%,33.333333%);fill-opacity:1;" d="M 25.8125 9.683594 L 28.683594 13.992188 C 28.777344 14.136719 28.738281 14.328125 28.59375 14.421875 L 28.308594 14.613281 C 28.164062 14.710938 27.972656 14.671875 27.875 14.527344 L 25.003906 10.222656 C 24.910156 10.078125 24.949219 9.886719 25.089844 9.789062 L 25.378906 9.597656 C 25.523438 9.503906 25.714844 9.542969 25.8125 9.683594 Z M 25.8125 9.683594 "/>
<path style=" stroke:none;fill-rule:nonzero;fill:rgb(27.45098%,27.45098%,33.333333%);fill-opacity:1;" d="M 27.015625 8.878906 L 28.144531 10.578125 C 28.238281 10.722656 28.199219 10.914062 28.058594 11.007812 L 27.769531 11.199219 C 27.628906 11.292969 27.4375 11.253906 27.339844 11.113281 L 26.210938 9.417969 C 26.113281 9.273438 26.152344 9.082031 26.296875 8.984375 L 26.585938 8.792969 C 26.726562 8.699219 26.917969 8.738281 27.015625 8.878906 Z M 27.015625 8.878906 "/>
<path style=" stroke:none;fill-rule:nonzero;fill:rgb(27.45098%,27.45098%,33.333333%);fill-opacity:1;" d="M 28.753906 11.5 L 29.882812 13.191406 C 29.980469 13.335938 29.941406 13.527344 29.796875 13.621094 L 29.511719 13.8125 C 29.367188 13.910156 29.175781 13.871094 29.082031 13.726562 L 27.953125 12.035156 C 27.859375 11.890625 27.894531 11.699219 28.039062 11.605469 L 28.324219 11.414062 C 28.46875 11.316406 28.660156 11.355469 28.753906 11.5 Z M 28.753906 11.5 "/>
<path style=" stroke:none;fill-rule:nonzero;fill:rgb(27.45098%,27.45098%,33.333333%);fill-opacity:1;" d="M 9.332031 20.671875 L 12.203125 24.972656 C 12.296875 25.117188 12.257812 25.308594 12.117188 25.40625 L 11.828125 25.597656 C 11.6875 25.691406 11.492188 25.652344 11.398438 25.511719 L 8.527344 21.207031 C 8.433594 21.066406 8.472656 20.871094 8.613281 20.777344 L 8.902344 20.585938 C 9.042969 20.488281 9.238281 20.527344 9.332031 20.671875 Z M 9.332031 20.671875 "/>
<path style=" stroke:none;fill-rule:nonzero;fill:rgb(27.45098%,27.45098%,33.333333%);fill-opacity:1;" d="M 8.125 21.476562 L 9.253906 23.167969 C 9.347656 23.308594 9.308594 23.5 9.167969 23.597656 L 8.882812 23.789062 C 8.738281 23.882812 8.546875 23.84375 8.453125 23.703125 L 7.324219 22.011719 C 7.226562 21.871094 7.265625 21.675781 7.410156 21.582031 L 7.695312 21.390625 C 7.839844 21.292969 8.03125 21.332031 8.125 21.476562 Z M 8.125 21.476562 "/>
<path style=" stroke:none;fill-rule:nonzero;fill:rgb(27.45098%,27.45098%,33.333333%);fill-opacity:1;" d="M 9.867188 24.089844 L 10.996094 25.785156 C 11.089844 25.925781 11.054688 26.117188 10.910156 26.214844 L 10.625 26.40625 C 10.480469 26.5 10.289062 26.460938 10.191406 26.320312 L 9.0625 24.625 C 8.96875 24.484375 9.007812 24.289062 9.148438 24.195312 L 9.4375 24.003906 C 9.582031 23.90625 9.773438 23.945312 9.867188 24.089844 Z M 9.867188 24.089844 "/>
<path style=" stroke:none;fill-rule:nonzero;fill:rgb(27.45098%,27.45098%,33.333333%);fill-opacity:1;" d="M 6.921875 22.28125 L 9.789062 26.585938 C 9.886719 26.726562 9.847656 26.917969 9.703125 27.015625 L 9.417969 27.207031 C 9.273438 27.300781 9.082031 27.261719 8.988281 27.121094 L 6.117188 22.816406 C 6.023438 22.675781 6.058594 22.480469 6.203125 22.386719 L 6.492188 22.195312 C 6.632812 22.097656 6.828125 22.136719 6.921875 22.28125 Z M 6.921875 22.28125 "/>
<path style=" stroke:none;fill-rule:nonzero;fill:rgb(27.45098%,27.45098%,33.333333%);fill-opacity:1;" d="M 8.527344 14.796875 L 11.398438 10.488281 C 11.492188 10.347656 11.6875 10.308594 11.828125 10.402344 L 12.117188 10.59375 C 12.257812 10.691406 12.296875 10.882812 12.203125 11.027344 L 9.332031 15.332031 C 9.234375 15.472656 9.042969 15.511719 8.902344 15.417969 L 8.617188 15.226562 C 8.472656 15.132812 8.433594 14.941406 8.527344 14.796875 Z M 8.527344 14.796875 "/>
<path style=" stroke:none;fill-rule:nonzero;fill:rgb(27.45098%,27.45098%,33.333333%);fill-opacity:1;" d="M 7.324219 13.992188 L 10.191406 9.683594 C 10.289062 9.542969 10.480469 9.503906 10.625 9.597656 L 10.910156 9.789062 C 11.054688 9.886719 11.089844 10.078125 10.996094 10.21875 L 8.125 14.527344 C 8.03125 14.671875 7.839844 14.710938 7.695312 14.613281 L 7.410156 14.421875 C 7.265625 14.328125 7.226562 14.136719 7.324219 13.992188 Z M 7.324219 13.992188 "/>
<path style=" stroke:none;fill-rule:nonzero;fill:rgb(27.45098%,27.45098%,33.333333%);fill-opacity:1;" d="M 6.117188 13.191406 L 8.988281 8.878906 C 9.082031 8.738281 9.277344 8.699219 9.417969 8.792969 L 9.703125 8.984375 C 9.847656 9.082031 9.886719 9.273438 9.789062 9.414062 L 6.921875 13.730469 C 6.828125 13.871094 6.632812 13.910156 6.492188 13.816406 L 6.203125 13.621094 C 6.058594 13.527344 6.023438 13.335938 6.117188 13.191406 Z M 6.117188 13.191406 "/>
<path style=" stroke:none;fill-rule:nonzero;fill:rgb(27.45098%,27.45098%,33.333333%);fill-opacity:1;" d="M 23.800781 24.972656 L 24.929688 23.285156 C 25.023438 23.140625 25.214844 23.101562 25.359375 23.199219 L 25.644531 23.390625 C 25.789062 23.484375 25.824219 23.679688 25.730469 23.820312 L 24.605469 25.511719 C 24.507812 25.652344 24.316406 25.691406 24.171875 25.597656 L 23.886719 25.40625 C 23.742188 25.308594 23.703125 25.117188 23.800781 24.972656 Z M 23.800781 24.972656 "/>
<path style=" stroke:none;fill-rule:nonzero;fill:rgb(27.45098%,27.45098%,33.333333%);fill-opacity:1;" d="M 25.539062 22.371094 L 26.671875 20.671875 C 26.765625 20.527344 26.957031 20.488281 27.101562 20.585938 L 27.390625 20.777344 C 27.53125 20.871094 27.570312 21.066406 27.476562 21.207031 L 26.34375 22.902344 C 26.246094 23.046875 26.054688 23.082031 25.914062 22.988281 L 25.628906 22.800781 C 25.484375 22.703125 25.445312 22.511719 25.539062 22.371094 Z M 25.539062 22.371094 "/>
<path style=" stroke:none;fill-rule:nonzero;fill:rgb(27.45098%,27.45098%,33.333333%);fill-opacity:1;" d="M 25.003906 25.785156 L 26.132812 24.089844 C 26.230469 23.945312 26.421875 23.90625 26.5625 24.003906 L 26.851562 24.195312 C 26.996094 24.289062 27.035156 24.484375 26.9375 24.625 L 25.8125 26.320312 C 25.714844 26.460938 25.523438 26.5 25.378906 26.40625 L 25.089844 26.214844 C 24.949219 26.117188 24.910156 25.925781 25.003906 25.785156 Z M 25.003906 25.785156 "/>
<path style=" stroke:none;fill-rule:nonzero;fill:rgb(27.45098%,27.45098%,33.333333%);fill-opacity:1;" d="M 26.746094 23.164062 L 27.875 21.476562 C 27.972656 21.332031 28.164062 21.292969 28.308594 21.390625 L 28.59375 21.582031 C 28.738281 21.675781 28.777344 21.871094 28.679688 22.011719 L 27.550781 23.703125 C 27.457031 23.84375 27.265625 23.882812 27.121094 23.789062 L 26.832031 23.597656 C 26.691406 23.5 26.652344 23.308594 26.746094 23.164062 Z M 26.746094 23.164062 "/>
<path style=" stroke:none;fill-rule:nonzero;fill:rgb(27.45098%,27.45098%,33.333333%);fill-opacity:1;" d="M 26.210938 26.582031 L 27.339844 24.890625 C 27.4375 24.75 27.628906 24.710938 27.769531 24.804688 L 28.058594 24.996094 C 28.199219 25.089844 28.238281 25.285156 28.144531 25.425781 L 27.015625 27.121094 C 26.917969 27.261719 26.726562 27.300781 26.585938 27.207031 L 26.296875 27.015625 C 26.152344 26.917969 26.113281 26.726562 26.210938 26.582031 Z M 26.210938 26.582031 "/>
<path style=" stroke:none;fill-rule:nonzero;fill:rgb(27.45098%,27.45098%,33.333333%);fill-opacity:1;" d="M 27.953125 23.972656 L 29.082031 22.28125 C 29.175781 22.136719 29.367188 22.097656 29.511719 22.195312 L 29.796875 22.386719 C 29.941406 22.480469 29.976562 22.675781 29.882812 22.816406 L 28.753906 24.507812 C 28.660156 24.648438 28.46875 24.6875 28.324219 24.59375 L 28.039062 24.40625 C 27.898438 24.308594 27.859375 24.117188 27.953125 23.972656 Z M 27.953125 23.972656 "/>
</g>
</svg>
