<?xml version="1.0" encoding="UTF-8"?>
<svg xmlns="http://www.w3.org/2000/svg" xmlns:xlink="http://www.w3.org/1999/xlink" width="36pt" height="36pt" viewBox="0 0 36 36" version="1.1">
<g id="surface1">
<path style=" stroke:none;fill-rule:nonzero;fill:rgb(78.431373%,25.490196%,29.411765%);fill-opacity:1;" d="M 35.378906 29.792969 L 0.621094 29.792969 C 0.277344 29.792969 0 29.515625 0 29.171875 L 0 6.828125 C 0 6.484375 0.277344 6.207031 0.621094 6.207031 L 35.378906 6.207031 C 35.722656 6.207031 36 6.484375 36 6.828125 L 36 29.171875 C 36 29.515625 35.722656 29.792969 35.378906 29.792969 Z M 35.378906 29.792969 "/>
<path style=" stroke:none;fill-rule:nonzero;fill:rgb(96.078431%,96.078431%,96.078431%);fill-opacity:1;" d="M 0 15.828125 L 36 15.828125 L 36 20.171875 L 0 20.171875 Z M 0 15.828125 "/>
</g>
</svg>
