<?xml version="1.0" encoding="UTF-8"?>
<svg xmlns="http://www.w3.org/2000/svg" xmlns:xlink="http://www.w3.org/1999/xlink" width="36pt" height="36pt" viewBox="0 0 36 36" version="1.1">
<g id="surface1">
<path style=" stroke:none;fill-rule:nonzero;fill:rgb(45.098039%,68.627451%,0%);fill-opacity:1;" d="M 0 21.929688 L 36 21.929688 L 36 29.171875 C 36 29.515625 35.722656 29.792969 35.378906 29.792969 L 0.621094 29.792969 C 0.277344 29.792969 0 29.515625 0 29.171875 Z M 0 21.929688 "/>
<path style=" stroke:none;fill-rule:nonzero;fill:rgb(25.490196%,27.843137%,60.784314%);fill-opacity:1;" d="M 0.621094 6.207031 L 35.378906 6.207031 C 35.722656 6.207031 36 6.484375 36 6.828125 L 36 14.070312 L 0 14.070312 L 0 6.828125 C 0 6.484375 0.277344 6.207031 0.621094 6.207031 Z M 0.621094 6.207031 "/>
<path style=" stroke:none;fill-rule:nonzero;fill:rgb(96.078431%,96.078431%,96.078431%);fill-opacity:1;" d="M 0 14.070312 L 36 14.070312 L 36 21.929688 L 0 21.929688 Z M 0 14.070312 "/>
<path style=" stroke:none;fill-rule:nonzero;fill:rgb(27.45098%,27.45098%,33.333333%);fill-opacity:1;" d="M 20.144531 19.398438 L 20 19.472656 C 19.980469 19.484375 19.957031 19.492188 19.9375 19.5 L 18.664062 17.890625 C 18.925781 17.324219 19.082031 16.546875 19.082031 16.191406 C 19.082031 15.609375 18.699219 15.128906 18.199219 15.023438 C 18.164062 14.949219 18.089844 14.898438 18 14.898438 C 17.914062 14.898438 17.835938 14.949219 17.804688 15.023438 C 17.300781 15.128906 16.921875 15.613281 16.921875 16.191406 C 16.921875 16.546875 17.078125 17.324219 17.339844 17.890625 L 16.0625 19.5 C 16.042969 19.492188 16.023438 19.484375 16.003906 19.472656 L 15.859375 19.398438 L 15.320312 20.457031 L 15.464844 20.53125 C 16.199219 20.90625 17.078125 21.101562 18 21.101562 C 18.925781 21.101562 19.800781 20.90625 20.539062 20.53125 L 20.679688 20.457031 Z M 18.863281 16.191406 C 18.863281 16.453125 18.765625 17.007812 18.585938 17.511719 C 18.5625 17.578125 18.539062 17.640625 18.511719 17.703125 L 18.324219 17.464844 L 18.324219 16.625 L 18.648438 16.625 L 18.21875 16.191406 L 18.21875 15.253906 C 18.589844 15.359375 18.863281 15.738281 18.863281 16.191406 Z M 17.414062 17.511719 C 17.234375 17.007812 17.136719 16.453125 17.136719 16.191406 C 17.136719 15.738281 17.414062 15.359375 17.785156 15.253906 L 17.785156 16.191406 L 17.351562 16.625 L 17.675781 16.625 L 17.675781 17.464844 L 17.488281 17.703125 C 17.464844 17.640625 17.441406 17.578125 17.414062 17.511719 Z M 15.964844 19.910156 L 16.007812 20.089844 L 15.851562 20.132812 Z M 15.777344 20.320312 L 16.046875 20.246094 L 16.097656 20.453125 C 15.988281 20.410156 15.878906 20.371094 15.777344 20.320312 Z M 16.1875 19.910156 C 16.308594 19.957031 16.4375 20 16.570312 20.039062 L 16.609375 20.160156 L 16.265625 20.242188 Z M 16.339844 20.535156 L 16.304688 20.398438 L 16.660156 20.3125 L 16.769531 20.648438 C 16.621094 20.617188 16.476562 20.578125 16.339844 20.535156 Z M 16.816406 20.105469 C 16.953125 20.136719 17.089844 20.164062 17.230469 20.183594 L 17.289062 20.289062 L 16.914062 20.40625 Z M 17.011719 20.695312 L 16.964844 20.558594 L 17.371094 20.433594 L 17.554688 20.761719 C 17.371094 20.746094 17.1875 20.726562 17.011719 20.695312 Z M 17.496094 20.214844 C 17.664062 20.230469 17.832031 20.238281 18 20.238281 C 18.035156 20.238281 18.074219 20.238281 18.109375 20.238281 L 18.152344 20.304688 L 17.65625 20.5 Z M 18 20.78125 C 17.9375 20.78125 17.875 20.777344 17.808594 20.773438 L 17.734375 20.640625 L 18.246094 20.445312 L 18.449219 20.761719 C 18.300781 20.773438 18.152344 20.78125 18 20.78125 Z M 18.359375 20.226562 C 18.53125 20.214844 18.699219 20.195312 18.867188 20.167969 L 18.914062 20.230469 L 18.519531 20.472656 Z M 18.691406 20.738281 L 18.609375 20.609375 L 19.015625 20.359375 L 19.242188 20.648438 C 19.0625 20.6875 18.878906 20.714844 18.691406 20.738281 Z M 19.105469 20.121094 C 19.246094 20.09375 19.382812 20.054688 19.519531 20.015625 L 19.566406 20.078125 L 19.28125 20.347656 Z M 19.472656 20.59375 L 19.382812 20.476562 L 19.667969 20.207031 L 19.867188 20.464844 C 19.738281 20.511719 19.605469 20.554688 19.472656 20.59375 Z M 19.734375 19.941406 C 19.824219 19.90625 19.914062 19.871094 20 19.832031 L 20.042969 19.914062 L 19.902344 20.160156 Z M 20.078125 20.386719 L 20.011719 20.300781 L 20.128906 20.089844 L 20.246094 20.3125 C 20.191406 20.339844 20.132812 20.363281 20.078125 20.386719 Z M 20.078125 20.386719 "/>
</g>
</svg>
