<?xml version="1.0" encoding="UTF-8"?>
<svg xmlns="http://www.w3.org/2000/svg" xmlns:xlink="http://www.w3.org/1999/xlink" width="36pt" height="36pt" viewBox="0 0 36 36" version="1.1">
<g id="surface1">
<path style=" stroke:none;fill-rule:nonzero;fill:rgb(100%,29.411765%,33.333333%);fill-opacity:1;" d="M 24 6.207031 L 35.378906 6.207031 C 35.722656 6.207031 36 6.484375 36 6.828125 L 36 29.171875 C 36 29.515625 35.722656 29.792969 35.378906 29.792969 L 24 29.792969 Z M 24 6.207031 "/>
<path style=" stroke:none;fill-rule:nonzero;fill:rgb(100%,88.235294%,35.294118%);fill-opacity:1;" d="M 12 6.207031 L 24 6.207031 L 24 29.792969 L 12 29.792969 Z M 12 6.207031 "/>
<path style=" stroke:none;fill-rule:nonzero;fill:rgb(25.490196%,27.843137%,60.784314%);fill-opacity:1;" d="M 0.621094 6.207031 L 12 6.207031 L 12 29.792969 L 0.621094 29.792969 C 0.277344 29.792969 0 29.515625 0 29.171875 L 0 6.828125 C 0 6.484375 0.277344 6.207031 0.621094 6.207031 Z M 0.621094 6.207031 "/>
<path style=" stroke:none;fill-rule:nonzero;fill:rgb(100%,80.392157%,35.294118%);fill-opacity:1;" d="M 20.507812 22 L 20.199219 22.253906 L 18.792969 20.527344 L 19.101562 20.277344 Z M 20.507812 22 "/>
<path style=" stroke:none;fill-rule:nonzero;fill:rgb(100%,74.509804%,35.294118%);fill-opacity:1;" d="M 19.875 20.910156 L 19.257812 21.414062 L 18.636719 20.652344 L 19.253906 20.152344 Z M 19.875 20.910156 "/>
<path style=" stroke:none;fill-rule:nonzero;fill:rgb(100%,80.392157%,35.294118%);fill-opacity:1;" d="M 17.070312 20.277344 L 17.378906 20.527344 L 15.972656 22.253906 L 15.664062 22.003906 Z M 17.070312 20.277344 "/>
<path style=" stroke:none;fill-rule:nonzero;fill:rgb(100%,74.509804%,35.294118%);fill-opacity:1;" d="M 16.917969 20.152344 L 17.535156 20.652344 L 16.914062 21.414062 L 16.296875 20.910156 Z M 16.917969 20.152344 "/>
<path style=" stroke:none;fill-rule:nonzero;fill:rgb(100%,88.235294%,35.294118%);fill-opacity:1;" d="M 17.589844 20.921875 L 16.59375 22.914062 L 17.984375 23.910156 L 17.984375 21.121094 Z M 17.589844 20.921875 "/>
<path style=" stroke:none;fill-rule:nonzero;fill:rgb(100%,80.392157%,35.294118%);fill-opacity:1;" d="M 18.382812 20.921875 L 19.378906 22.914062 L 17.984375 23.910156 L 17.984375 21.121094 Z M 18.382812 20.921875 "/>
<path style=" stroke:none;fill-rule:nonzero;fill:rgb(100%,74.509804%,35.294118%);fill-opacity:1;" d="M 15.199219 20.921875 L 15.199219 15.746094 L 15.796875 15.746094 C 15.796875 15.746094 15.796875 19.132812 15.796875 19.730469 C 15.796875 20.328125 15.199219 20.921875 15.199219 20.921875 Z M 15.199219 20.921875 "/>
<path style=" stroke:none;fill-rule:nonzero;fill:rgb(100%,80.392157%,35.294118%);fill-opacity:1;" d="M 14.800781 21.917969 L 14.800781 15.746094 L 15.398438 15.746094 C 15.398438 15.746094 15.398438 20.128906 15.398438 20.726562 C 15.398438 21.320312 14.800781 21.917969 14.800781 21.917969 Z M 14.800781 21.917969 "/>
<path style=" stroke:none;fill-rule:nonzero;fill:rgb(100%,88.235294%,35.294118%);fill-opacity:1;" d="M 14.402344 22.714844 L 14.402344 15.746094 L 15 15.746094 C 15 15.746094 15 20.925781 15 21.519531 C 15 22.117188 14.402344 22.714844 14.402344 22.714844 Z M 14.402344 22.714844 "/>
<path style=" stroke:none;fill-rule:nonzero;fill:rgb(100%,29.411765%,33.333333%);fill-opacity:1;" d="M 15.796875 15.945312 C 15.796875 15.945312 15.796875 18.78125 15.796875 19.730469 C 15.796875 20.726562 17.238281 20.59375 17.984375 21.320312 C 18.734375 20.589844 20.175781 20.726562 20.175781 19.730469 C 20.175781 18.78125 20.175781 15.945312 20.175781 15.945312 Z M 15.796875 15.945312 "/>
<path style=" stroke:none;fill-rule:nonzero;fill:rgb(25.490196%,27.843137%,60.784314%);fill-opacity:1;" d="M 15.796875 18.136719 C 15.796875 18.765625 15.796875 19.378906 15.796875 19.730469 C 15.796875 20.726562 17.238281 20.59375 17.984375 21.320312 C 18.734375 20.59375 20.175781 20.726562 20.175781 19.730469 C 20.175781 19.378906 20.175781 18.765625 20.175781 18.136719 Z M 15.796875 18.136719 "/>
<path style=" stroke:none;fill-rule:nonzero;fill:rgb(100%,88.235294%,35.294118%);fill-opacity:1;" d="M 17.984375 20.726562 L 17.390625 20.328125 L 17.390625 20.128906 L 17.589844 19.929688 L 17.589844 18.734375 L 16.992188 18.335938 L 17.589844 17.539062 L 17.785156 17.539062 L 17.984375 17.738281 L 18.183594 17.539062 L 18.382812 17.539062 L 18.980469 18.335938 L 18.382812 18.734375 L 18.382812 19.929688 L 18.582031 20.128906 L 18.582031 20.328125 Z M 17.984375 20.726562 "/>
<path style=" stroke:none;fill-rule:nonzero;fill:rgb(100%,88.235294%,35.294118%);fill-opacity:1;" d="M 17.191406 16.144531 C 17.191406 16.144531 16.394531 16.34375 16.394531 17.140625 C 16.394531 17.9375 17.191406 18.335938 17.191406 18.335938 L 17.589844 17.738281 C 16.394531 17.339844 17.191406 16.144531 17.191406 16.144531 Z M 17.191406 16.144531 "/>
<path style=" stroke:none;fill-rule:nonzero;fill:rgb(100%,88.235294%,35.294118%);fill-opacity:1;" d="M 18.78125 16.144531 C 18.78125 16.144531 19.578125 16.34375 19.578125 17.140625 C 19.578125 17.9375 18.78125 18.335938 18.78125 18.335938 L 18.382812 17.738281 C 19.578125 17.339844 18.78125 16.144531 18.78125 16.144531 Z M 18.78125 16.144531 "/>
<path style=" stroke:none;fill-rule:nonzero;fill:rgb(100%,88.235294%,35.294118%);fill-opacity:1;" d="M 15.996094 18.136719 L 16.394531 18.335938 L 16.792969 18.136719 L 16.394531 17.9375 Z M 15.996094 18.136719 "/>
<path style=" stroke:none;fill-rule:nonzero;fill:rgb(100%,88.235294%,35.294118%);fill-opacity:1;" d="M 19.179688 18.136719 L 19.578125 18.335938 L 19.976562 18.136719 L 19.578125 17.9375 Z M 19.179688 18.136719 "/>
<path style=" stroke:none;fill-rule:nonzero;fill:rgb(100%,88.235294%,35.294118%);fill-opacity:1;" d="M 17.984375 16.242188 L 18.132812 16.390625 L 18.339844 16.390625 L 18.335938 16.597656 L 18.484375 16.742188 L 18.335938 16.886719 L 18.339844 17.09375 L 18.132812 17.089844 L 17.984375 17.238281 L 17.839844 17.089844 L 17.632812 17.09375 L 17.636719 16.886719 L 17.488281 16.742188 L 17.636719 16.597656 L 17.632812 16.390625 L 17.839844 16.390625 Z M 17.984375 16.242188 "/>
<path style=" stroke:none;fill-rule:nonzero;fill:rgb(100%,88.235294%,35.294118%);fill-opacity:1;" d="M 16.632812 19.003906 L 16.777344 19.164062 L 16.976562 19.085938 C 17.082031 19.042969 17.175781 19.15625 17.121094 19.253906 L 17.015625 19.441406 L 17.152344 19.605469 C 17.222656 19.691406 17.144531 19.816406 17.035156 19.792969 L 16.828125 19.75 L 16.710938 19.929688 C 16.652344 20.023438 16.507812 19.992188 16.496094 19.878906 L 16.472656 19.667969 L 16.265625 19.613281 C 16.15625 19.585938 16.144531 19.4375 16.246094 19.394531 L 16.441406 19.304688 L 16.429688 19.089844 C 16.421875 18.980469 16.558594 18.921875 16.632812 19.003906 Z M 16.632812 19.003906 "/>
<path style=" stroke:none;fill-rule:nonzero;fill:rgb(100%,88.235294%,35.294118%);fill-opacity:1;" d="M 19.285156 19.460938 C 19.332031 19.234375 19.515625 19.074219 19.734375 19.046875 C 19.691406 19.023438 19.644531 19.003906 19.589844 18.996094 C 19.3125 18.941406 19.042969 19.121094 18.988281 19.402344 C 18.933594 19.679688 19.117188 19.949219 19.394531 20.003906 C 19.445312 20.015625 19.5 20.015625 19.550781 20.007812 C 19.355469 19.90625 19.242188 19.6875 19.285156 19.460938 Z M 19.285156 19.460938 "/>
<path style=" stroke:none;fill-rule:nonzero;fill:rgb(100%,88.235294%,35.294118%);fill-opacity:1;" d="M 17.191406 15.945312 L 17.589844 13.953125 L 16.792969 13.355469 L 16.992188 13.15625 L 17.390625 13.15625 C 17.390625 13.15625 17.589844 12.957031 17.984375 12.957031 C 18.382812 12.957031 18.78125 13.15625 18.78125 13.753906 C 18.78125 14.351562 18.980469 15.945312 18.980469 15.945312 Z M 17.191406 15.945312 "/>
<path style=" stroke:none;fill-rule:nonzero;fill:rgb(100%,66.666667%,35.294118%);fill-opacity:1;" d="M 15.796875 15.148438 C 15.355469 15.148438 15 15.503906 15 15.945312 L 16.59375 15.945312 C 16.59375 15.503906 16.234375 15.148438 15.796875 15.148438 Z M 15.796875 15.148438 "/>
<path style=" stroke:none;fill-rule:nonzero;fill:rgb(100%,74.509804%,35.294118%);fill-opacity:1;" d="M 15.597656 15.945312 L 14.402344 15.945312 L 14.402344 14.617188 C 14.402344 14.359375 14.609375 14.152344 14.867188 14.152344 L 15.128906 14.152344 C 15.386719 14.152344 15.597656 14.359375 15.597656 14.617188 Z M 15.597656 15.945312 "/>
<path style=" stroke:none;fill-rule:nonzero;fill:rgb(100%,74.509804%,35.294118%);fill-opacity:1;" d="M 20.773438 20.921875 L 20.773438 15.746094 L 20.175781 15.746094 C 20.175781 15.746094 20.175781 19.132812 20.175781 19.730469 C 20.175781 20.328125 20.773438 20.921875 20.773438 20.921875 Z M 20.773438 20.921875 "/>
<path style=" stroke:none;fill-rule:nonzero;fill:rgb(100%,80.392157%,35.294118%);fill-opacity:1;" d="M 21.171875 21.917969 L 21.171875 15.746094 L 20.574219 15.746094 C 20.574219 15.746094 20.574219 20.128906 20.574219 20.726562 C 20.574219 21.320312 21.171875 21.917969 21.171875 21.917969 Z M 21.171875 21.917969 "/>
<path style=" stroke:none;fill-rule:nonzero;fill:rgb(100%,88.235294%,35.294118%);fill-opacity:1;" d="M 21.570312 22.714844 L 21.570312 15.746094 L 20.972656 15.746094 C 20.972656 15.746094 20.972656 20.925781 20.972656 21.519531 C 20.972656 22.117188 21.570312 22.714844 21.570312 22.714844 Z M 21.570312 22.714844 "/>
<path style=" stroke:none;fill-rule:nonzero;fill:rgb(100%,66.666667%,35.294118%);fill-opacity:1;" d="M 20.175781 15.148438 C 20.617188 15.148438 20.972656 15.503906 20.972656 15.945312 L 19.378906 15.945312 C 19.378906 15.503906 19.738281 15.148438 20.175781 15.148438 Z M 20.175781 15.148438 "/>
<path style=" stroke:none;fill-rule:nonzero;fill:rgb(100%,74.509804%,35.294118%);fill-opacity:1;" d="M 20.375 15.945312 L 21.570312 15.945312 L 21.570312 14.617188 C 21.570312 14.359375 21.363281 14.152344 21.105469 14.152344 L 20.84375 14.152344 C 20.585938 14.152344 20.375 14.359375 20.375 14.617188 Z M 20.375 15.945312 "/>
<path style=" stroke:none;fill-rule:nonzero;fill:rgb(100%,66.666667%,35.294118%);fill-opacity:1;" d="M 22.425781 18.058594 L 22.683594 18.214844 L 19.894531 22.792969 L 19.636719 22.636719 Z M 22.425781 18.058594 "/>
<path style=" stroke:none;fill-rule:nonzero;fill:rgb(100%,88.235294%,35.294118%);fill-opacity:1;" d="M 20.746094 21.90625 L 20.25 22.53125 L 19.761719 22.140625 L 20.261719 21.519531 Z M 20.746094 21.90625 "/>
<path style=" stroke:none;fill-rule:nonzero;fill:rgb(100%,80.392157%,35.294118%);fill-opacity:1;" d="M 22.339844 18.007812 L 22.765625 18.265625 L 22.167969 19.246094 L 21.742188 18.988281 Z M 22.339844 18.007812 "/>
<path style=" stroke:none;fill-rule:nonzero;fill:rgb(45.098039%,68.627451%,0%);fill-opacity:1;" d="M 13.660156 18.285156 L 16.46875 22.632812 L 16.300781 22.742188 L 13.492188 18.394531 Z M 13.660156 18.285156 "/>
<path style=" stroke:none;fill-rule:nonzero;fill:rgb(45.098039%,68.627451%,0%);fill-opacity:1;" d="M 15.425781 20.347656 C 15.355469 20.429688 15.308594 20.550781 15.296875 20.691406 C 15.199219 20.59375 15.085938 20.53125 14.980469 20.511719 C 14.953125 20.617188 14.964844 20.746094 15.015625 20.875 C 14.878906 20.828125 14.75 20.820312 14.644531 20.851562 C 14.675781 21 14.792969 21.160156 14.976562 21.269531 C 15.160156 21.378906 15.359375 21.40625 15.5 21.363281 L 15.542969 21.335938 C 15.640625 21.222656 15.695312 21.03125 15.671875 20.820312 C 15.644531 20.609375 15.550781 20.433594 15.425781 20.347656 Z M 15.425781 20.347656 "/>
<path style=" stroke:none;fill-rule:nonzero;fill:rgb(100%,29.411765%,33.333333%);fill-opacity:1;" d="M 15.71875 21.351562 C 15.71875 21.460938 15.632812 21.550781 15.523438 21.550781 C 15.410156 21.550781 15.324219 21.460938 15.324219 21.351562 C 15.324219 21.238281 15.410156 21.152344 15.523438 21.152344 C 15.632812 21.152344 15.71875 21.238281 15.71875 21.351562 Z M 15.71875 21.351562 "/>
<path style=" stroke:none;fill-rule:nonzero;fill:rgb(45.098039%,68.627451%,0%);fill-opacity:1;" d="M 14.671875 19.175781 C 14.597656 19.257812 14.550781 19.378906 14.539062 19.523438 C 14.441406 19.421875 14.328125 19.359375 14.222656 19.34375 C 14.195312 19.445312 14.207031 19.574219 14.257812 19.703125 C 14.125 19.65625 13.992188 19.648438 13.890625 19.683594 C 13.917969 19.828125 14.039062 19.988281 14.222656 20.097656 C 14.402344 20.207031 14.601562 20.234375 14.742188 20.191406 L 14.785156 20.164062 C 14.882812 20.054688 14.9375 19.863281 14.914062 19.648438 C 14.890625 19.4375 14.792969 19.261719 14.671875 19.175781 Z M 14.671875 19.175781 "/>
<path style=" stroke:none;fill-rule:nonzero;fill:rgb(100%,29.411765%,33.333333%);fill-opacity:1;" d="M 14.964844 20.179688 C 14.964844 20.289062 14.875 20.378906 14.765625 20.378906 C 14.65625 20.378906 14.566406 20.289062 14.566406 20.179688 C 14.566406 20.070312 14.65625 19.980469 14.765625 19.980469 C 14.875 19.980469 14.964844 20.070312 14.964844 20.179688 Z M 14.964844 20.179688 "/>
<path style=" stroke:none;fill-rule:nonzero;fill:rgb(45.098039%,68.627451%,0%);fill-opacity:1;" d="M 13.914062 18.003906 C 13.84375 18.085938 13.792969 18.210938 13.78125 18.351562 C 13.683594 18.25 13.570312 18.1875 13.46875 18.171875 C 13.4375 18.273438 13.449219 18.402344 13.5 18.535156 C 13.367188 18.484375 13.234375 18.480469 13.132812 18.511719 C 13.160156 18.65625 13.28125 18.816406 13.464844 18.925781 C 13.648438 19.035156 13.84375 19.066406 13.988281 19.019531 L 14.027344 18.996094 C 14.128906 18.882812 14.179688 18.691406 14.15625 18.480469 C 14.132812 18.265625 14.035156 18.09375 13.914062 18.003906 Z M 13.914062 18.003906 "/>
<path style=" stroke:none;fill-rule:nonzero;fill:rgb(100%,29.411765%,33.333333%);fill-opacity:1;" d="M 14.207031 19.007812 C 14.207031 19.117188 14.117188 19.207031 14.007812 19.207031 C 13.898438 19.207031 13.808594 19.117188 13.808594 19.007812 C 13.808594 18.898438 13.898438 18.808594 14.007812 18.808594 C 14.117188 18.808594 14.207031 18.898438 14.207031 19.007812 Z M 14.207031 19.007812 "/>
<path style=" stroke:none;fill-rule:nonzero;fill:rgb(100%,88.235294%,35.294118%);fill-opacity:1;" d="M 15.910156 21.519531 L 16.410156 22.140625 L 15.921875 22.53125 L 15.425781 21.910156 Z M 15.910156 21.519531 "/>
<path style=" stroke:none;fill-rule:nonzero;fill:rgb(100%,88.235294%,35.294118%);fill-opacity:1;" d="M 16.792969 12.558594 L 16.992188 12.558594 L 16.992188 13.953125 L 16.792969 13.953125 Z M 16.792969 12.558594 "/>
<path style=" stroke:none;fill-rule:nonzero;fill:rgb(100%,88.235294%,35.294118%);fill-opacity:1;" d="M 16.589844 12.757812 L 17.1875 12.757812 L 17.1875 12.957031 L 16.589844 12.957031 Z M 16.589844 12.757812 "/>
<path style=" stroke:none;fill-rule:nonzero;fill:rgb(100%,52.941176%,35.294118%);fill-opacity:1;" d="M 16.792969 13.355469 L 17.390625 13.804688 L 17.390625 13.15625 L 16.992188 13.15625 Z M 16.792969 13.355469 "/>
<path style=" stroke:none;fill-rule:nonzero;fill:rgb(100%,66.666667%,35.294118%);fill-opacity:1;" d="M 16.992188 12.558594 L 16.992188 12.757812 L 17.191406 12.757812 L 17.191406 12.957031 L 16.992188 12.957031 L 16.992188 13.15625 L 17.390625 13.15625 C 17.390625 13.15625 17.589844 12.957031 17.984375 12.957031 C 18.382812 12.957031 18.78125 13.15625 18.78125 13.753906 C 18.78125 14.351562 18.980469 15.945312 18.980469 15.945312 L 19.378906 15.945312 C 19.378906 15.503906 19.738281 15.148438 20.175781 15.148438 C 20.246094 15.148438 20.3125 15.160156 20.375 15.175781 L 20.375 14.75 C 20.375 14.417969 20.644531 14.152344 20.972656 14.152344 C 21.304688 14.152344 21.570312 14.417969 21.570312 14.75 L 21.570312 19.460938 L 21.828125 19.039062 L 21.742188 18.988281 L 22.339844 18.007812 L 22.425781 18.058594 L 22.554688 18.136719 L 22.765625 18.265625 L 22.167969 19.246094 L 22.082031 19.195312 L 21.570312 20.035156 L 21.570312 22.714844 C 21.570312 22.714844 21.097656 22.238281 20.992188 21.710938 C 20.921875 21.617188 20.835938 21.5 20.761719 21.363281 L 20.535156 21.738281 L 20.746094 21.90625 L 20.25 22.53125 L 20.117188 22.425781 L 19.894531 22.792969 L 19.636719 22.640625 L 19.882812 22.238281 L 19.765625 22.140625 L 19.933594 21.929688 L 19.410156 21.289062 L 19.257812 21.414062 L 18.792969 20.84375 C 18.667969 20.894531 18.546875 20.949219 18.425781 21.011719 L 19.378906 22.914062 L 17.984375 23.910156 L 16.589844 22.914062 L 17.542969 21.011719 C 17.472656 20.972656 17.402344 20.9375 17.328125 20.90625 L 16.914062 21.414062 L 16.761719 21.289062 L 16.238281 21.929688 L 16.40625 22.140625 L 16.238281 22.277344 L 16.46875 22.632812 L 16.300781 22.742188 L 16.082031 22.402344 L 15.921875 22.53125 L 15.421875 21.90625 L 15.648438 21.730469 L 15.527344 21.546875 C 15.527344 21.546875 15.523438 21.546875 15.519531 21.546875 C 15.457031 21.546875 15.390625 21.515625 15.355469 21.457031 C 15.335938 21.433594 15.328125 21.40625 15.324219 21.378906 C 15.289062 21.375 15.25 21.371094 15.210938 21.363281 C 15.136719 21.496094 15.050781 21.617188 14.976562 21.710938 C 14.875 22.238281 14.402344 22.714844 14.402344 22.714844 L 14.402344 20.175781 C 14.339844 20.15625 14.28125 20.132812 14.21875 20.097656 C 14.039062 19.988281 13.917969 19.828125 13.886719 19.683594 C 13.929688 19.667969 13.976562 19.664062 14.027344 19.664062 C 14.097656 19.664062 14.175781 19.675781 14.257812 19.703125 C 14.230469 19.636719 14.214844 19.570312 14.210938 19.507812 L 14.015625 19.203125 C 14.011719 19.203125 14.007812 19.203125 14.007812 19.203125 C 13.941406 19.203125 13.878906 19.175781 13.839844 19.117188 C 13.824219 19.089844 13.816406 19.0625 13.8125 19.035156 C 13.699219 19.03125 13.582031 18.996094 13.464844 18.925781 C 13.28125 18.816406 13.160156 18.65625 13.132812 18.511719 C 13.171875 18.5 13.21875 18.492188 13.269531 18.492188 C 13.34375 18.492188 13.421875 18.503906 13.5 18.535156 C 13.449219 18.402344 13.4375 18.273438 13.464844 18.171875 C 13.570312 18.1875 13.683594 18.253906 13.78125 18.351562 C 13.792969 18.210938 13.84375 18.085938 13.914062 18.003906 C 14.035156 18.09375 14.132812 18.265625 14.15625 18.480469 C 14.171875 18.613281 14.152344 18.738281 14.113281 18.839844 C 14.136719 18.855469 14.160156 18.875 14.175781 18.898438 C 14.214844 18.960938 14.210938 19.035156 14.183594 19.097656 L 14.378906 19.398438 C 14.386719 19.402344 14.394531 19.40625 14.402344 19.414062 L 14.402344 14.75 C 14.402344 14.417969 14.667969 14.152344 15 14.152344 C 15.328125 14.152344 15.597656 14.417969 15.597656 14.75 L 15.597656 15.175781 C 15.660156 15.160156 15.726562 15.148438 15.796875 15.148438 C 16.234375 15.148438 16.589844 15.503906 16.589844 15.945312 L 17.1875 15.945312 L 17.585938 13.953125 L 17.386719 13.804688 L 16.988281 13.503906 L 16.988281 13.953125 L 16.789062 13.953125 L 16.789062 12.957031 L 16.589844 12.957031 L 16.589844 12.757812 L 16.789062 12.757812 L 16.789062 12.558594 L 16.992188 12.558594 M 20.1875 21.609375 L 20.261719 21.519531 L 20.300781 21.550781 L 20.621094 21.023438 C 20.59375 20.925781 20.574219 20.824219 20.574219 20.726562 C 20.574219 20.714844 20.574219 20.703125 20.574219 20.691406 C 20.402344 20.460938 20.175781 20.09375 20.175781 19.730469 C 20.175781 20.148438 19.917969 20.367188 19.566406 20.535156 L 19.875 20.910156 L 19.71875 21.035156 L 20.1875 21.609375 M 15.804688 21.605469 L 15.910156 21.519531 L 15.984375 21.609375 L 16.453125 21.035156 L 16.296875 20.910156 L 16.550781 20.601562 C 16.125 20.421875 15.796875 20.203125 15.796875 19.730469 C 15.796875 19.996094 15.675781 20.261719 15.542969 20.476562 C 15.605469 20.566406 15.65625 20.683594 15.671875 20.820312 C 15.6875 20.957031 15.667969 21.078125 15.628906 21.183594 C 15.652344 21.199219 15.671875 21.214844 15.6875 21.242188 C 15.726562 21.304688 15.726562 21.375 15.695312 21.4375 L 15.804688 21.605469 M 16.992188 12.410156 L 16.792969 12.410156 C 16.707031 12.410156 16.640625 12.476562 16.640625 12.558594 L 16.640625 12.609375 L 16.59375 12.609375 C 16.507812 12.609375 16.441406 12.675781 16.441406 12.757812 L 16.441406 12.957031 C 16.441406 13.039062 16.507812 13.105469 16.59375 13.105469 L 16.640625 13.105469 L 16.640625 13.953125 C 16.640625 14.035156 16.707031 14.101562 16.792969 14.101562 L 16.992188 14.101562 C 17.074219 14.101562 17.140625 14.035156 17.140625 13.953125 L 17.140625 13.804688 L 17.300781 13.921875 L 17.421875 14.015625 L 17.066406 15.796875 L 16.730469 15.796875 C 16.65625 15.34375 16.265625 15 15.796875 15 C 15.777344 15 15.761719 15 15.746094 15 L 15.746094 14.75 C 15.746094 14.335938 15.410156 14.003906 15 14.003906 C 14.585938 14.003906 14.25 14.335938 14.25 14.75 L 14.25 18.234375 C 14.199219 18.085938 14.109375 17.960938 14 17.882812 C 13.972656 17.863281 13.945312 17.855469 13.914062 17.855469 C 13.871094 17.855469 13.832031 17.875 13.800781 17.90625 C 13.753906 17.957031 13.71875 18.023438 13.691406 18.09375 C 13.625 18.058594 13.558594 18.035156 13.492188 18.023438 C 13.484375 18.023438 13.472656 18.023438 13.464844 18.023438 C 13.398438 18.023438 13.339844 18.066406 13.324219 18.132812 C 13.304688 18.199219 13.300781 18.269531 13.304688 18.34375 C 13.292969 18.34375 13.28125 18.34375 13.269531 18.34375 C 13.203125 18.34375 13.144531 18.351562 13.085938 18.367188 C 13.015625 18.390625 12.96875 18.464844 12.984375 18.539062 C 13.023438 18.734375 13.175781 18.925781 13.386719 19.054688 C 13.484375 19.113281 13.59375 19.152344 13.699219 19.171875 C 13.703125 19.179688 13.710938 19.1875 13.714844 19.195312 C 13.765625 19.273438 13.839844 19.324219 13.929688 19.34375 L 14.039062 19.511719 C 14.035156 19.511719 14.03125 19.511719 14.027344 19.511719 C 13.960938 19.511719 13.902344 19.523438 13.84375 19.539062 C 13.773438 19.5625 13.726562 19.636719 13.742188 19.710938 C 13.78125 19.90625 13.929688 20.097656 14.144531 20.226562 C 14.179688 20.246094 14.214844 20.261719 14.25 20.28125 L 14.25 22.714844 C 14.25 22.777344 14.289062 22.832031 14.34375 22.855469 C 14.363281 22.863281 14.382812 22.867188 14.402344 22.867188 C 14.441406 22.867188 14.476562 22.851562 14.507812 22.820312 C 14.527344 22.800781 14.996094 22.328125 15.117188 21.773438 C 15.167969 21.710938 15.214844 21.644531 15.257812 21.574219 C 15.304688 21.632812 15.371094 21.667969 15.441406 21.6875 L 15.449219 21.695312 L 15.332031 21.789062 C 15.300781 21.816406 15.28125 21.851562 15.277344 21.890625 C 15.269531 21.929688 15.28125 21.96875 15.308594 22 L 15.804688 22.621094 C 15.828125 22.652344 15.867188 22.671875 15.90625 22.679688 C 15.910156 22.679688 15.917969 22.679688 15.921875 22.679688 C 15.957031 22.679688 15.988281 22.667969 16.015625 22.644531 L 16.046875 22.621094 L 16.175781 22.824219 C 16.199219 22.855469 16.234375 22.878906 16.269531 22.886719 C 16.28125 22.890625 16.292969 22.890625 16.300781 22.890625 C 16.332031 22.890625 16.359375 22.882812 16.382812 22.867188 L 16.480469 22.804688 L 16.457031 22.847656 C 16.425781 22.914062 16.445312 22.992188 16.503906 23.035156 L 17.898438 24.03125 C 17.925781 24.050781 17.957031 24.058594 17.988281 24.058594 C 18.015625 24.058594 18.046875 24.050781 18.074219 24.03125 L 19.46875 23.035156 C 19.527344 22.992188 19.546875 22.914062 19.515625 22.847656 L 18.628906 21.078125 C 18.664062 21.058594 18.707031 21.042969 18.746094 21.023438 L 19.140625 21.507812 C 19.171875 21.542969 19.214844 21.5625 19.257812 21.5625 C 19.289062 21.5625 19.324219 21.550781 19.351562 21.527344 L 19.390625 21.496094 L 19.742188 21.929688 L 19.648438 22.046875 C 19.621094 22.078125 19.609375 22.117188 19.617188 22.15625 C 19.621094 22.195312 19.640625 22.234375 19.671875 22.257812 L 19.6875 22.269531 L 19.511719 22.558594 C 19.46875 22.632812 19.488281 22.722656 19.558594 22.765625 L 19.816406 22.921875 C 19.839844 22.933594 19.867188 22.941406 19.894531 22.941406 C 19.90625 22.941406 19.917969 22.941406 19.929688 22.9375 C 19.96875 22.929688 20 22.90625 20.019531 22.871094 L 20.15625 22.644531 C 20.183594 22.667969 20.21875 22.679688 20.25 22.679688 C 20.292969 22.679688 20.335938 22.660156 20.367188 22.621094 L 20.863281 22 C 20.882812 21.976562 20.894531 21.949219 20.894531 21.921875 C 21.058594 22.410156 21.449219 22.804688 21.464844 22.820312 C 21.496094 22.851562 21.53125 22.863281 21.570312 22.863281 C 21.589844 22.863281 21.609375 22.863281 21.628906 22.855469 C 21.683594 22.832031 21.722656 22.777344 21.722656 22.714844 L 21.722656 20.078125 L 22.136719 19.390625 C 22.148438 19.394531 22.160156 19.394531 22.167969 19.394531 C 22.21875 19.394531 22.269531 19.371094 22.296875 19.324219 L 22.894531 18.34375 C 22.914062 18.308594 22.921875 18.265625 22.910156 18.230469 C 22.902344 18.191406 22.878906 18.15625 22.84375 18.136719 L 22.632812 18.007812 L 22.503906 17.929688 L 22.417969 17.878906 C 22.394531 17.863281 22.367188 17.855469 22.339844 17.855469 C 22.292969 17.855469 22.242188 17.882812 22.214844 17.925781 L 21.722656 18.738281 L 21.722656 14.75 C 21.722656 14.335938 21.386719 14.003906 20.972656 14.003906 C 20.5625 14.003906 20.226562 14.335938 20.226562 14.75 L 20.226562 15 C 20.210938 15 20.195312 15 20.175781 15 C 19.707031 15 19.316406 15.34375 19.242188 15.792969 L 19.113281 15.792969 C 19.066406 15.402344 18.933594 14.234375 18.933594 13.753906 C 18.933594 13.054688 18.445312 12.808594 17.988281 12.808594 C 17.648438 12.808594 17.429688 12.9375 17.335938 13.007812 L 17.332031 13.007812 C 17.335938 12.992188 17.339844 12.972656 17.339844 12.957031 L 17.339844 12.757812 C 17.339844 12.675781 17.273438 12.609375 17.191406 12.609375 L 17.140625 12.609375 L 17.140625 12.558594 C 17.140625 12.476562 17.074219 12.410156 16.992188 12.410156 Z M 15.71875 20.476562 C 15.757812 20.40625 15.789062 20.339844 15.820312 20.277344 C 15.941406 20.441406 16.121094 20.5625 16.3125 20.65625 L 16.183594 20.816406 C 16.15625 20.847656 16.144531 20.886719 16.148438 20.925781 C 16.152344 20.964844 16.171875 21 16.203125 21.027344 L 16.242188 21.058594 L 15.976562 21.382812 C 15.960938 21.375 15.945312 21.371094 15.925781 21.371094 C 15.921875 21.371094 15.914062 21.371094 15.910156 21.371094 C 15.894531 21.371094 15.882812 21.371094 15.867188 21.375 C 15.875 21.300781 15.855469 21.226562 15.8125 21.160156 C 15.808594 21.152344 15.804688 21.144531 15.796875 21.136719 C 15.824219 21.03125 15.832031 20.917969 15.820312 20.804688 C 15.804688 20.6875 15.769531 20.574219 15.71875 20.476562 Z M 19.796875 20.582031 C 19.929688 20.503906 20.058594 20.40625 20.15625 20.277344 C 20.230469 20.453125 20.332031 20.609375 20.425781 20.738281 C 20.425781 20.824219 20.4375 20.910156 20.460938 21 L 20.234375 21.371094 C 20.222656 21.375 20.207031 21.378906 20.195312 21.382812 L 19.929688 21.058594 L 19.96875 21.027344 C 20 21 20.019531 20.964844 20.023438 20.925781 C 20.027344 20.886719 20.015625 20.847656 19.988281 20.816406 Z M 16.914062 21.5625 C 16.957031 21.5625 17 21.542969 17.03125 21.507812 L 17.285156 21.199219 L 16.601562 22.5625 C 16.601562 22.558594 16.597656 22.554688 16.59375 22.550781 L 16.4375 22.308594 L 16.5 22.257812 C 16.53125 22.234375 16.550781 22.195312 16.554688 22.15625 C 16.5625 22.117188 16.550781 22.078125 16.523438 22.046875 L 16.429688 21.929688 L 16.78125 21.5 L 16.820312 21.53125 C 16.847656 21.550781 16.882812 21.5625 16.914062 21.5625 Z M 20.730469 21.703125 L 20.765625 21.648438 C 20.792969 21.691406 20.824219 21.734375 20.855469 21.777344 C 20.859375 21.789062 20.859375 21.800781 20.863281 21.8125 C 20.855469 21.804688 20.847656 21.796875 20.839844 21.789062 Z M 20.730469 21.703125 "/>
</g>
</svg>
