<?xml version="1.0" encoding="UTF-8"?>
<svg xmlns="http://www.w3.org/2000/svg" xmlns:xlink="http://www.w3.org/1999/xlink" width="36pt" height="36pt" viewBox="0 0 36 36" version="1.1">
<g id="surface1">
<path style=" stroke:none;fill-rule:nonzero;fill:rgb(78.431373%,25.490196%,29.411765%);fill-opacity:1;" d="M 1.242188 7.449219 L 34.757812 7.449219 L 34.757812 28.550781 L 1.242188 28.550781 Z M 1.242188 7.449219 "/>
<path style=" stroke:none;fill-rule:nonzero;fill:rgb(90.196078%,70.588235%,19.607843%);fill-opacity:1;" d="M 35.378906 6.207031 L 0.621094 6.207031 C 0.277344 6.207031 0 6.484375 0 6.828125 L 0 29.171875 C 0 29.515625 0.277344 29.792969 0.621094 29.792969 L 35.378906 29.792969 C 35.722656 29.792969 36 29.515625 36 29.171875 L 36 6.828125 C 36 6.484375 35.722656 6.207031 35.378906 6.207031 Z M 34.757812 28.550781 L 1.242188 28.550781 L 1.242188 7.449219 L 34.757812 7.449219 Z M 34.757812 28.550781 "/>
<path style=" stroke:none;fill-rule:nonzero;fill:rgb(25.490196%,27.843137%,60.784314%);fill-opacity:1;" d="M 24.039062 21.894531 C 24.039062 22.414062 23.613281 22.835938 23.09375 22.835938 C 22.570312 22.835938 22.148438 22.414062 22.148438 21.894531 C 22.148438 21.371094 22.570312 20.949219 23.09375 20.949219 C 23.613281 20.949219 24.039062 21.371094 24.039062 21.894531 Z M 24.039062 21.894531 "/>
<path style=" stroke:none;fill-rule:nonzero;fill:rgb(90.196078%,70.588235%,19.607843%);fill-opacity:1;" d="M 24.75 16.46875 C 24.054688 17.054688 23.585938 17.078125 23.585938 17.078125 C 24.824219 16.574219 24.695312 15.613281 24.695312 15.613281 C 24.109375 16.382812 23.515625 16.597656 23.515625 16.597656 C 24.757812 15.757812 24.558594 14.625 24.558594 14.625 C 24.152344 15.523438 23.640625 15.875 23.640625 15.875 C 24.671875 14.5 24.164062 13.613281 24.164062 13.613281 C 23.761719 14.886719 23.417969 15.253906 23.417969 15.253906 C 24.210938 13.132812 23.53125 12.519531 23.53125 12.519531 C 23.53125 13.660156 23.109375 14.3125 23.109375 14.3125 C 23.550781 12.808594 22.855469 11.949219 22.855469 11.949219 C 22.855469 11.949219 22.847656 13.171875 22.613281 13.8125 C 22.558594 13.726562 22.523438 13.738281 22.523438 13.738281 C 22.402344 14.523438 21.980469 15.078125 21.796875 15.285156 C 21.757812 15.089844 21.636719 15.03125 21.636719 15.03125 C 21.636719 15.03125 21.613281 15.222656 21.441406 15.507812 C 21.328125 15.691406 20.792969 16.125 20.707031 16.507812 C 20.640625 16.8125 20.941406 17.066406 21.039062 17.128906 C 21.140625 17.191406 21.242188 17.300781 21.199219 17.480469 C 21.15625 17.65625 20.835938 17.640625 20.609375 17.632812 C 20.382812 17.625 20.351562 18 20.097656 17.988281 L 20.058594 18.269531 L 19.957031 18.289062 C 19.957031 18.289062 18.925781 20.351562 18.835938 21.050781 L 18.074219 21.152344 L 17.316406 21.050781 C 17.226562 20.351562 16.191406 18.289062 16.191406 18.289062 L 16.09375 18.269531 L 16.050781 17.988281 C 15.800781 18 15.769531 17.625 15.539062 17.632812 C 15.3125 17.640625 14.992188 17.65625 14.949219 17.480469 C 14.90625 17.300781 15.011719 17.191406 15.109375 17.128906 C 15.207031 17.066406 15.511719 16.8125 15.441406 16.507812 C 15.355469 16.125 14.824219 15.691406 14.710938 15.507812 C 14.535156 15.222656 14.515625 15.03125 14.515625 15.03125 C 14.515625 15.03125 14.394531 15.089844 14.351562 15.285156 C 14.171875 15.078125 13.746094 14.523438 13.628906 13.738281 C 13.628906 13.738281 13.59375 13.726562 13.539062 13.8125 C 13.300781 13.171875 13.296875 11.949219 13.296875 11.949219 C 13.296875 11.949219 12.601562 12.808594 13.042969 14.3125 C 13.042969 14.3125 12.617188 13.660156 12.617188 12.519531 C 12.617188 12.519531 11.9375 13.132812 12.734375 15.253906 C 12.734375 15.253906 12.390625 14.886719 11.984375 13.613281 C 11.984375 13.613281 11.476562 14.5 12.511719 15.875 C 12.511719 15.875 11.996094 15.523438 11.589844 14.625 C 11.589844 14.625 11.394531 15.757812 12.636719 16.597656 C 12.636719 16.597656 12.039062 16.382812 11.457031 15.613281 C 11.457031 15.613281 11.328125 16.574219 12.5625 17.078125 C 12.5625 17.078125 12.097656 17.054688 11.402344 16.46875 C 11.402344 16.46875 11.277344 17.320312 12.890625 17.753906 C 12.890625 17.753906 12.230469 17.742188 11.5625 17.292969 C 11.5625 17.292969 11.542969 18.132812 12.921875 18.296875 C 12.921875 18.296875 12.464844 18.363281 11.953125 18.179688 C 11.953125 18.179688 11.972656 18.855469 13.171875 18.941406 C 13.171875 18.941406 12.699219 18.980469 12.390625 18.90625 C 12.390625 18.90625 12.421875 19.601562 13.371094 19.484375 C 13.371094 19.484375 13.050781 19.589844 12.945312 19.621094 C 12.945312 19.621094 12.964844 20.1875 13.949219 19.984375 C 13.949219 19.984375 13.773438 20.09375 13.535156 20.128906 C 13.535156 20.128906 13.738281 20.605469 14.5625 20.394531 L 14.394531 20.578125 C 14.394531 20.578125 15.03125 20.949219 15.519531 20.441406 L 15.34375 20.753906 C 15.34375 20.753906 15.757812 20.910156 16.015625 20.503906 C 16.015625 20.503906 15.945312 21.113281 15.085938 21.226562 C 15.085938 21.226562 15.117188 21.355469 15.152344 21.402344 C 15.152344 21.402344 15.097656 21.507812 14.597656 21.59375 C 14.597656 21.59375 14.703125 21.753906 14.816406 21.804688 C 14.816406 21.804688 14.597656 21.988281 14.484375 22.023438 C 14.484375 22.023438 14.667969 22.117188 14.785156 22.136719 C 14.785156 22.136719 14.527344 22.386719 14.207031 22.394531 C 13.886719 22.398438 13.3125 22.363281 13.3125 22.363281 C 13.3125 22.363281 13.308594 22.054688 13.160156 21.792969 C 13.011719 21.527344 12.964844 21.507812 12.964844 21.507812 C 12.964844 21.507812 12.996094 21.292969 12.902344 21.207031 C 12.8125 21.117188 12.761719 21.078125 12.761719 21.078125 C 12.761719 21.078125 12.808594 20.652344 12.675781 20.386719 C 12.539062 20.125 12.058594 19.546875 12.035156 19.113281 C 12.011719 18.683594 12.027344 18.523438 12.027344 18.523438 L 11.878906 18.5625 L 11.78125 18.359375 L 11.949219 18.339844 L 11.878906 18.03125 L 11.652344 18.117188 L 11.621094 17.855469 L 11.351562 17.964844 L 11.488281 18.203125 L 11.246094 18.273438 L 11.386719 18.554688 L 11.574219 18.4375 L 11.621094 18.683594 C 11.621094 18.683594 11.511719 18.710938 11.449219 18.808594 C 11.449219 18.808594 11.753906 19.007812 11.84375 19.25 C 11.984375 19.632812 11.941406 20.492188 12.144531 20.75 C 12.347656 21.011719 12.507812 21.1875 12.507812 21.1875 C 12.507812 21.1875 12.453125 21.363281 12.515625 21.460938 C 12.582031 21.558594 12.671875 21.585938 12.671875 21.585938 C 12.671875 21.585938 12.617188 21.976562 12.761719 22.234375 C 12.902344 22.492188 12.988281 22.558594 12.988281 22.558594 C 12.988281 22.558594 12.464844 22.875 12.835938 23.246094 C 12.835938 23.246094 12.785156 23.582031 13.136719 23.660156 C 13.136719 23.660156 13.152344 23.925781 13.457031 23.894531 C 13.457031 23.894531 13.601562 23.851562 13.640625 23.925781 C 13.675781 24 13.640625 24.425781 13.640625 24.425781 C 13.640625 24.425781 13.773438 24.410156 13.863281 24.351562 L 14.132812 24.484375 L 14.136719 24.183594 L 14.476562 24.050781 C 14.476562 24.050781 14.328125 24.074219 14.027344 23.789062 C 14.027344 23.789062 14.078125 23.757812 14.113281 23.519531 C 14.113281 23.519531 14.355469 23.328125 14.402344 23.175781 C 14.453125 23.023438 14.789062 22.683594 15.183594 22.574219 L 15.238281 22.8125 C 15.238281 22.8125 15.800781 22.3125 16.035156 22.285156 L 16.230469 22.542969 C 16.230469 22.542969 16.957031 21.464844 17.277344 21.273438 C 17.25 21.359375 17.429688 21.371094 17.03125 21.816406 C 16.636719 22.257812 16.882812 22.609375 16.882812 22.609375 C 16.636719 22.8125 16.683594 22.996094 16.652344 23.207031 C 16.625 23.414062 15.804688 23.957031 15.804688 23.957031 C 16.0625 24.28125 16.351562 24.207031 16.351562 24.207031 C 16.191406 24.3125 16.242188 24.664062 16.242188 24.664062 C 16.476562 24.726562 16.710938 24.621094 16.710938 24.621094 C 16.628906 24.84375 16.753906 24.996094 16.753906 24.996094 C 16.898438 24.902344 17.238281 24.847656 17.238281 24.847656 C 17.195312 25.230469 17.441406 25.433594 17.441406 25.433594 L 17.65625 25.199219 C 17.695312 25.628906 18.074219 25.875 18.074219 25.875 C 18.074219 25.875 18.457031 25.628906 18.492188 25.199219 L 18.707031 25.433594 C 18.707031 25.433594 18.953125 25.230469 18.910156 24.847656 C 18.910156 24.847656 19.25 24.902344 19.398438 24.996094 C 19.398438 24.996094 19.519531 24.84375 19.441406 24.621094 C 19.441406 24.621094 19.675781 24.726562 19.910156 24.664062 C 19.910156 24.664062 19.957031 24.3125 19.796875 24.207031 C 19.796875 24.207031 20.085938 24.28125 20.34375 23.957031 C 20.34375 23.957031 19.527344 23.414062 19.496094 23.207031 C 19.464844 22.996094 19.515625 22.8125 19.269531 22.609375 C 19.269531 22.609375 19.515625 22.257812 19.117188 21.816406 C 18.722656 21.371094 18.898438 21.359375 18.875 21.273438 C 19.195312 21.464844 19.921875 22.542969 19.921875 22.542969 L 20.113281 22.285156 C 20.351562 22.3125 20.914062 22.8125 20.914062 22.8125 L 20.964844 22.574219 L 20.976562 22.5625 C 21.269531 22.71875 21.753906 22.933594 21.949219 23.082031 C 22.160156 23.242188 22.332031 23.253906 22.835938 23.082031 C 23.339844 22.910156 24.28125 22.644531 24.140625 22.332031 C 24.132812 22.316406 24.125 22.304688 24.117188 22.289062 C 24.136719 22.210938 24.148438 22.070312 24 21.945312 C 24 21.945312 24 21.980469 24 22.023438 L 23.519531 21.84375 C 23.503906 21.800781 23.480469 21.761719 23.433594 21.722656 C 23.433594 21.722656 23.433594 21.761719 23.425781 21.808594 L 23.304688 21.765625 L 23.550781 21.070312 C 23.53125 21.0625 23.511719 21.054688 23.492188 21.046875 C 23.496094 20.984375 23.507812 20.898438 23.527344 20.804688 C 23.585938 20.828125 23.640625 20.851562 23.679688 20.886719 L 23.75 20.632812 C 23.75 20.632812 23.675781 20.628906 23.578125 20.609375 C 23.601562 20.53125 23.632812 20.464844 23.667969 20.417969 L 23.339844 20.320312 C 23.339844 20.320312 23.347656 20.417969 23.34375 20.542969 C 23.28125 20.519531 23.222656 20.484375 23.175781 20.445312 L 23.097656 20.726562 C 23.125 20.726562 23.210938 20.734375 23.316406 20.753906 C 23.296875 20.835938 23.265625 20.910156 23.21875 20.964844 C 23.207031 20.964844 23.195312 20.957031 23.183594 20.957031 L 22.945312 21.628906 L 22.296875 21.386719 C 22.269531 21.433594 22.246094 21.480469 22.226562 21.527344 C 22.230469 21.519531 22.234375 21.511719 22.238281 21.503906 C 22.238281 21.503906 21.984375 21.636719 21.988281 21.828125 C 21.941406 21.847656 21.902344 21.882812 21.878906 21.941406 C 21.804688 22.136719 22.257812 22.570312 22.148438 22.625 C 22.039062 22.679688 21.472656 22.210938 21.378906 22.132812 C 21.496094 22.109375 21.667969 22.023438 21.667969 22.023438 C 21.550781 21.988281 21.335938 21.804688 21.335938 21.804688 C 21.445312 21.753906 21.550781 21.59375 21.550781 21.59375 C 21.050781 21.507812 20.996094 21.402344 20.996094 21.402344 C 21.035156 21.355469 21.066406 21.226562 21.066406 21.226562 C 20.203125 21.113281 20.132812 20.503906 20.132812 20.503906 C 20.390625 20.910156 20.804688 20.753906 20.804688 20.753906 L 20.632812 20.441406 C 21.121094 20.949219 21.757812 20.578125 21.757812 20.578125 L 21.585938 20.394531 C 22.410156 20.605469 22.613281 20.128906 22.613281 20.128906 C 22.375 20.09375 22.199219 19.984375 22.199219 19.984375 C 23.1875 20.1875 23.207031 19.621094 23.207031 19.621094 C 23.101562 19.589844 22.78125 19.484375 22.78125 19.484375 C 23.726562 19.601562 23.757812 18.90625 23.757812 18.90625 C 23.453125 18.980469 22.976562 18.941406 22.976562 18.941406 C 24.175781 18.855469 24.195312 18.179688 24.195312 18.179688 C 23.683594 18.363281 23.230469 18.296875 23.230469 18.296875 C 24.609375 18.132812 24.589844 17.292969 24.589844 17.292969 C 23.917969 17.742188 23.261719 17.753906 23.261719 17.753906 C 24.875 17.320312 24.75 16.46875 24.75 16.46875 Z M 23.351562 22.554688 C 23.285156 22.449219 23.441406 22.351562 23.511719 22.25 L 23.785156 22.351562 C 23.695312 22.464844 23.421875 22.664062 23.351562 22.554688 Z M 23.171875 22.125 C 23.082031 22.261719 23.019531 22.414062 22.746094 22.421875 C 22.40625 22.429688 22.351562 22.125 22.277344 21.960938 C 22.253906 21.910156 22.21875 21.875 22.175781 21.851562 C 22.175781 21.820312 22.175781 21.789062 22.179688 21.753906 Z M 23.171875 22.125 "/>
<path style=" stroke:none;fill-rule:nonzero;fill:rgb(90.196078%,70.588235%,19.607843%);fill-opacity:1;" d="M 17.972656 15.625 C 17.972656 15.625 17.535156 15.25 17.40625 15.046875 C 17.40625 15.046875 17.554688 14.988281 17.628906 14.894531 C 17.628906 14.894531 17.230469 14.683594 17.019531 14.464844 C 17.019531 14.464844 17.15625 14.441406 17.265625 14.355469 C 17.265625 14.355469 16.90625 14.292969 16.726562 14 C 17.140625 13.859375 17 13.472656 17 13.472656 C 16.917969 13.585938 16.578125 13.722656 16.207031 13.566406 C 15.839844 13.410156 15.433594 13.519531 15.433594 13.722656 C 15.433594 13.722656 14.601562 13.484375 14.808594 14.285156 C 14.808594 14.285156 14.941406 13.988281 15.238281 14.097656 C 15.535156 14.207031 15.832031 14.585938 15.832031 14.585938 C 15.832031 14.585938 15.648438 14.6875 15.308594 14.578125 C 15.308594 14.578125 15.445312 15.109375 16.070312 14.839844 C 16.070312 14.839844 16.316406 14.972656 16.328125 15.359375 C 16.328125 15.359375 16.433594 15.304688 16.5 15.179688 C 16.5 15.179688 16.597656 15.554688 16.46875 15.863281 C 16.46875 15.863281 16.640625 15.832031 16.695312 15.777344 C 16.695312 15.777344 16.746094 16.105469 16.53125 16.367188 C 16.53125 16.367188 17.476562 16.820312 18.074219 16.324219 C 18.074219 16.324219 17.851562 16.066406 17.777344 15.828125 C 17.777344 15.828125 17.902344 15.777344 17.972656 15.625 Z M 17.972656 15.625 "/>
<path style=" stroke:none;fill-rule:nonzero;fill:rgb(90.196078%,70.588235%,19.607843%);fill-opacity:1;" d="M 20.71875 13.722656 C 20.71875 13.519531 20.3125 13.410156 19.945312 13.566406 C 19.574219 13.722656 19.234375 13.585938 19.152344 13.472656 C 19.152344 13.472656 19.011719 13.859375 19.425781 14 C 19.246094 14.292969 18.886719 14.355469 18.886719 14.355469 C 18.992188 14.441406 19.132812 14.464844 19.132812 14.464844 C 18.921875 14.683594 18.523438 14.894531 18.523438 14.894531 C 18.597656 14.988281 18.746094 15.046875 18.746094 15.046875 C 18.617188 15.25 18.175781 15.625 18.175781 15.625 C 18.25 15.777344 18.375 15.828125 18.375 15.828125 C 18.300781 16.066406 18.074219 16.324219 18.074219 16.324219 C 18.675781 16.820312 19.621094 16.367188 19.621094 16.367188 C 19.40625 16.105469 19.457031 15.777344 19.457031 15.777344 C 19.511719 15.832031 19.683594 15.863281 19.683594 15.863281 C 19.554688 15.554688 19.652344 15.179688 19.652344 15.179688 C 19.71875 15.304688 19.824219 15.359375 19.824219 15.359375 C 19.835938 14.972656 20.082031 14.839844 20.082031 14.839844 C 20.707031 15.109375 20.84375 14.578125 20.84375 14.578125 C 20.503906 14.6875 20.316406 14.585938 20.316406 14.585938 C 20.316406 14.585938 20.617188 14.207031 20.914062 14.097656 C 21.207031 13.984375 21.34375 14.285156 21.34375 14.285156 C 21.550781 13.484375 20.71875 13.722656 20.71875 13.722656 Z M 20.71875 13.722656 "/>
<path style=" stroke:none;fill-rule:nonzero;fill:rgb(90.196078%,70.588235%,19.607843%);fill-opacity:1;" d="M 20.34375 18.625 C 20.261719 18.152344 20.191406 17.746094 20.394531 17.277344 L 20.433594 17.191406 L 19.628906 16.265625 L 19.53125 16.296875 C 19.523438 16.300781 18.683594 16.578125 18.144531 16.308594 L 18.074219 16.273438 L 18.007812 16.308594 C 17.472656 16.574219 16.628906 16.300781 16.617188 16.296875 L 16.523438 16.265625 L 15.71875 17.191406 L 15.753906 17.277344 C 15.960938 17.746094 15.890625 18.152344 15.808594 18.625 C 15.730469 19.070312 15.644531 19.574219 15.796875 20.191406 C 15.964844 20.859375 16.519531 21.09375 17.011719 21.304688 C 17.390625 21.46875 17.746094 21.621094 17.949219 21.941406 L 18.074219 22.140625 L 18.203125 21.941406 C 18.40625 21.621094 18.761719 21.46875 19.140625 21.304688 C 19.632812 21.09375 20.1875 20.859375 20.355469 20.191406 C 20.507812 19.574219 20.417969 19.070312 20.34375 18.625 Z M 16.066406 17.25 L 16.621094 16.613281 C 16.871094 16.683594 17.546875 16.832031 18.074219 16.605469 C 18.601562 16.832031 19.28125 16.683594 19.53125 16.613281 L 20.082031 17.25 C 19.890625 17.757812 19.964844 18.207031 20.046875 18.675781 C 20.105469 19.027344 20.167969 19.390625 20.117188 19.808594 L 16.035156 19.808594 C 15.984375 19.390625 16.042969 19.027344 16.105469 18.675781 C 16.1875 18.207031 16.261719 17.757812 16.066406 17.25 Z M 19.023438 21.027344 C 18.679688 21.175781 18.328125 21.324219 18.074219 21.609375 C 17.824219 21.324219 17.472656 21.175781 17.128906 21.027344 C 16.648438 20.824219 16.234375 20.644531 16.097656 20.140625 L 20.054688 20.140625 C 19.917969 20.644531 19.503906 20.824219 19.023438 21.027344 Z M 19.023438 21.027344 "/>
<path style=" stroke:none;fill-rule:nonzero;fill:rgb(25.490196%,27.843137%,60.784314%);fill-opacity:1;" d="M 16.066406 17.25 L 16.621094 16.613281 C 16.871094 16.683594 17.546875 16.832031 18.074219 16.605469 C 18.601562 16.832031 19.28125 16.683594 19.53125 16.613281 L 20.082031 17.25 C 19.890625 17.757812 19.964844 18.207031 20.046875 18.675781 C 20.105469 19.027344 20.167969 19.390625 20.117188 19.808594 L 16.035156 19.808594 C 15.984375 19.390625 16.042969 19.027344 16.105469 18.675781 C 16.1875 18.207031 16.261719 17.757812 16.066406 17.25 Z M 16.066406 17.25 "/>
<path style=" stroke:none;fill-rule:nonzero;fill:rgb(45.098039%,68.627451%,0%);fill-opacity:1;" d="M 16.078125 20.054688 C 16.082031 20.074219 16.085938 20.097656 16.089844 20.117188 C 16.21875 20.640625 16.640625 20.820312 17.128906 21.027344 C 17.472656 21.175781 17.824219 21.324219 18.074219 21.609375 C 18.328125 21.324219 18.679688 21.175781 19.023438 21.027344 C 19.511719 20.820312 19.933594 20.640625 20.0625 20.117188 C 20.066406 20.097656 20.070312 20.074219 20.074219 20.054688 Z M 16.078125 20.054688 "/>
<path style=" stroke:none;fill-rule:nonzero;fill:rgb(90.196078%,70.588235%,19.607843%);fill-opacity:1;" d="M 19.882812 18.308594 C 19.882812 18.035156 19.625 17.992188 19.386719 18 C 19.152344 18.003906 18.808594 17.960938 18.800781 17.777344 C 18.792969 17.664062 18.984375 17.652344 19.109375 17.691406 C 19.183594 17.714844 19.632812 17.796875 19.773438 17.496094 C 19.773438 17.496094 19.609375 17.5 19.433594 17.460938 C 19.300781 17.429688 18.753906 17.5 18.652344 17.710938 C 18.554688 17.921875 18.875 18.132812 19.242188 18.132812 C 19.609375 18.132812 19.65625 18.207031 19.65625 18.296875 C 19.652344 18.414062 19.359375 18.449219 19.191406 18.445312 C 18.929688 18.351562 18.316406 18.425781 18.3125 18.414062 C 18.308594 18.398438 18.171875 18.164062 18.171875 18.164062 C 18.171875 18.164062 18.421875 18.144531 18.453125 18.097656 C 18.488281 18.054688 18.265625 17.875 18.265625 17.875 C 18.265625 17.875 18.449219 17.800781 18.457031 17.75 C 18.464844 17.691406 18.304688 17.550781 18.304688 17.550781 C 18.304688 17.550781 18.367188 17.492188 18.414062 17.386719 C 18.449219 17.3125 18.183594 17.292969 18.183594 17.292969 C 18.199219 17.238281 18.191406 17.183594 18.121094 17.15625 C 18.070312 17.136719 17.867188 17.210938 17.730469 17.210938 C 17.597656 17.210938 17.542969 17.3125 17.542969 17.3125 C 17.542969 17.3125 17.304688 17.339844 17.269531 17.367188 C 17.238281 17.394531 17.28125 17.578125 17.28125 17.578125 C 17.160156 17.5625 17.101562 17.453125 17.101562 17.453125 C 17.039062 17.730469 17.328125 17.757812 17.328125 17.757812 L 17.375 17.910156 C 17.375 17.910156 17.375 17.910156 17.492188 17.921875 C 17.609375 17.9375 17.554688 18.050781 17.371094 18.050781 C 17.1875 18.050781 17.109375 18.269531 17.109375 18.269531 C 16.980469 18.273438 16.910156 18.167969 16.882812 18.039062 C 16.851562 17.894531 16.871094 17.671875 16.894531 17.53125 C 16.921875 17.363281 16.835938 17.3125 16.835938 17.3125 L 16.78125 17.453125 C 16.777344 17.308594 16.648438 17.296875 16.648438 17.296875 L 16.628906 17.472656 C 16.5625 17.355469 16.453125 17.410156 16.453125 17.410156 C 16.453125 17.410156 16.558594 17.789062 16.554688 17.8125 C 16.554688 17.832031 16.519531 17.851562 16.46875 17.796875 C 16.417969 17.746094 16.382812 17.78125 16.382812 17.78125 C 16.4375 18.164062 16.640625 18.105469 16.640625 18.105469 C 16.640625 18.105469 16.652344 18.226562 16.710938 18.46875 C 16.777344 18.730469 17.050781 18.679688 17.050781 18.679688 C 17.050781 18.765625 17.117188 18.886719 17.136719 19.167969 C 17.152344 19.453125 16.894531 19.648438 16.894531 19.648438 C 16.660156 19.644531 16.683594 19.875 16.683594 19.875 L 17.332031 19.875 C 17.332031 19.273438 17.589844 19.171875 17.589844 19.171875 C 17.972656 19.191406 18.339844 19.03125 18.339844 19.03125 C 18.285156 19.261719 18.382812 19.355469 18.382812 19.355469 C 18.539062 19.335938 18.460938 19.644531 18.414062 19.644531 C 18.371094 19.644531 18.273438 19.644531 18.21875 19.644531 C 18.160156 19.644531 17.996094 19.820312 17.996094 19.820312 L 18.671875 19.820312 C 18.671875 19.820312 18.773438 19.671875 18.808594 19.597656 C 18.84375 19.523438 18.730469 19.417969 18.722656 19.34375 C 18.71875 19.265625 18.839844 19.214844 18.839844 19.214844 C 18.972656 19.398438 19.273438 19.410156 19.273438 19.410156 L 19.265625 19.269531 C 19.265625 19.269531 19.421875 19.324219 19.457031 19.371094 C 19.492188 19.417969 19.484375 19.628906 19.296875 19.652344 C 19.109375 19.679688 19.097656 19.8125 19.097656 19.8125 C 19.097656 19.8125 19.523438 19.8125 19.609375 19.8125 C 19.695312 19.8125 19.761719 19.652344 19.761719 19.59375 C 19.761719 19.53125 19.761719 19.140625 19.761719 19.054688 C 19.761719 18.96875 19.691406 18.980469 19.523438 18.960938 C 19.371094 18.945312 19.386719 18.78125 19.324219 18.589844 C 19.542969 18.582031 19.882812 18.535156 19.882812 18.308594 Z M 19.882812 18.308594 "/>
<path style=" stroke:none;fill-rule:nonzero;fill:rgb(90.196078%,70.588235%,19.607843%);fill-opacity:1;" d="M 19.84375 11.875 C 19.800781 11.503906 19.503906 11.03125 18.375 10.808594 C 18.371094 10.6875 18.300781 10.585938 18.195312 10.542969 L 18.195312 10.335938 L 18.378906 10.335938 L 18.378906 10.117188 L 18.195312 10.117188 L 18.195312 9.929688 L 17.972656 9.929688 L 17.972656 10.117188 L 17.789062 10.117188 L 17.789062 10.335938 L 17.972656 10.335938 L 17.972656 10.542969 C 17.867188 10.585938 17.792969 10.6875 17.789062 10.808594 C 16.660156 11.03125 16.367188 11.503906 16.324219 11.875 C 16.269531 12.335938 16.601562 12.777344 16.902344 12.945312 L 16.902344 13.179688 L 19.265625 13.179688 L 19.265625 12.945312 C 19.5625 12.777344 19.894531 12.335938 19.84375 11.875 Z M 18.605469 12.589844 L 18.273438 12.589844 L 18.273438 11.226562 C 18.546875 11.351562 18.714844 11.539062 18.765625 11.796875 C 18.824219 12.121094 18.695312 12.449219 18.605469 12.589844 Z M 17.402344 11.796875 C 17.449219 11.539062 17.617188 11.351562 17.890625 11.226562 L 17.890625 12.589844 L 17.558594 12.589844 C 17.46875 12.449219 17.339844 12.121094 17.402344 11.796875 Z M 17.128906 11.421875 C 17.074219 11.53125 17.039062 11.640625 17.019531 11.742188 C 16.96875 12.042969 17.027344 12.351562 17.128906 12.589844 L 17.050781 12.589844 C 16.886719 12.472656 16.671875 12.195312 16.707031 11.917969 C 16.726562 11.722656 16.875 11.558594 17.128906 11.421875 Z M 19.113281 12.589844 L 19.035156 12.589844 C 19.136719 12.351562 19.199219 12.042969 19.144531 11.742188 C 19.128906 11.640625 19.09375 11.53125 19.039062 11.421875 C 19.292969 11.558594 19.4375 11.722656 19.460938 11.917969 C 19.492188 12.195312 19.277344 12.472656 19.113281 12.589844 Z M 19.113281 12.589844 "/>
</g>
</svg>
