<?xml version="1.0" encoding="UTF-8"?>
<svg xmlns="http://www.w3.org/2000/svg" xmlns:xlink="http://www.w3.org/1999/xlink" width="36pt" height="36pt" viewBox="0 0 36 36" version="1.1">
<g id="surface1">
<path style=" stroke:none;fill-rule:nonzero;fill:rgb(100%,29.411765%,33.333333%);fill-opacity:1;" d="M 35.378906 29.792969 L 0.621094 29.792969 C 0.277344 29.792969 0 29.515625 0 29.171875 L 0 6.828125 C 0 6.484375 0.277344 6.207031 0.621094 6.207031 L 35.378906 6.207031 C 35.722656 6.207031 36 6.484375 36 6.828125 L 36 29.171875 C 36 29.515625 35.722656 29.792969 35.378906 29.792969 Z M 35.378906 29.792969 "/>
<path style=" stroke:none;fill-rule:nonzero;fill:rgb(25.490196%,27.843137%,60.784314%);fill-opacity:1;" d="M 0.621094 6.207031 L 17.378906 6.207031 C 17.722656 6.207031 18 6.484375 18 6.828125 L 18 17.378906 C 18 17.722656 17.722656 18 17.378906 18 L 0.621094 18 C 0.277344 18 0 17.722656 0 17.378906 L 0 6.828125 C 0 6.484375 0.277344 6.207031 0.621094 6.207031 Z M 0.621094 6.207031 "/>
<path style=" stroke:none;fill-rule:nonzero;fill:rgb(96.078431%,96.078431%,96.078431%);fill-opacity:1;" d="M 8.84375 13.894531 L 8.558594 14.746094 L 7.65625 14.753906 C 7.539062 14.753906 7.492188 14.90625 7.585938 14.972656 L 8.3125 15.507812 L 8.039062 16.367188 C 8.003906 16.480469 8.128906 16.570312 8.226562 16.503906 L 8.957031 15.980469 L 9.691406 16.503906 C 9.785156 16.570312 9.914062 16.480469 9.878906 16.367188 L 9.605469 15.507812 L 10.328125 14.972656 C 10.421875 14.90625 10.375 14.753906 10.257812 14.753906 L 9.359375 14.746094 L 9.074219 13.894531 C 9.035156 13.78125 8.878906 13.78125 8.84375 13.894531 Z M 8.84375 13.894531 "/>
<path style=" stroke:none;fill-rule:nonzero;fill:rgb(96.078431%,96.078431%,96.078431%);fill-opacity:1;" d="M 8.863281 7.230469 L 8.632812 7.921875 L 7.90625 7.929688 C 7.8125 7.929688 7.773438 8.050781 7.847656 8.105469 L 8.433594 8.539062 L 8.214844 9.234375 C 8.1875 9.324219 8.289062 9.398438 8.367188 9.34375 L 8.957031 8.917969 L 9.550781 9.34375 C 9.628906 9.398438 9.730469 9.324219 9.703125 9.234375 L 9.480469 8.539062 L 10.066406 8.105469 C 10.144531 8.050781 10.105469 7.929688 10.011719 7.929688 L 9.28125 7.921875 L 9.050781 7.230469 C 9.019531 7.140625 8.894531 7.140625 8.863281 7.230469 Z M 8.863281 7.230469 "/>
<path style=" stroke:none;fill-rule:nonzero;fill:rgb(96.078431%,96.078431%,96.078431%);fill-opacity:1;" d="M 12.550781 9.289062 L 12.320312 9.980469 L 11.589844 9.984375 C 11.496094 9.984375 11.457031 10.105469 11.535156 10.160156 L 12.121094 10.59375 L 11.898438 11.289062 C 11.871094 11.378906 11.972656 11.453125 12.050781 11.398438 L 12.644531 10.976562 L 13.234375 11.398438 C 13.3125 11.453125 13.414062 11.378906 13.386719 11.289062 L 13.167969 10.59375 L 13.753906 10.160156 C 13.828125 10.105469 13.789062 9.984375 13.695312 9.984375 L 12.96875 9.980469 L 12.738281 9.289062 C 12.707031 9.199219 12.582031 9.199219 12.550781 9.289062 Z M 12.550781 9.289062 "/>
<path style=" stroke:none;fill-rule:nonzero;fill:rgb(96.078431%,96.078431%,96.078431%);fill-opacity:1;" d="M 5.257812 10.101562 L 5.027344 10.792969 L 4.296875 10.800781 C 4.203125 10.800781 4.164062 10.921875 4.242188 10.976562 L 4.828125 11.410156 L 4.605469 12.105469 C 4.578125 12.195312 4.679688 12.269531 4.757812 12.214844 L 5.351562 11.789062 L 5.941406 12.214844 C 6.019531 12.269531 6.121094 12.195312 6.09375 12.105469 L 5.875 11.410156 L 6.460938 10.976562 C 6.535156 10.921875 6.496094 10.800781 6.402344 10.800781 L 5.675781 10.792969 L 5.445312 10.101562 C 5.414062 10.011719 5.285156 10.011719 5.257812 10.101562 Z M 5.257812 10.101562 "/>
<path style=" stroke:none;fill-rule:nonzero;fill:rgb(96.078431%,96.078431%,96.078431%);fill-opacity:1;" d="M 10.960938 12.359375 L 10.832031 12.746094 L 10.421875 12.75 C 10.371094 12.75 10.347656 12.816406 10.390625 12.847656 L 10.71875 13.09375 L 10.597656 13.480469 C 10.582031 13.53125 10.636719 13.574219 10.679688 13.542969 L 11.015625 13.304688 L 11.347656 13.542969 C 11.390625 13.574219 11.449219 13.53125 11.429688 13.480469 L 11.308594 13.09375 L 11.636719 12.847656 C 11.679688 12.816406 11.65625 12.75 11.605469 12.75 L 11.195312 12.746094 L 11.066406 12.359375 C 11.050781 12.308594 10.976562 12.308594 10.960938 12.359375 Z M 10.960938 12.359375 "/>
</g>
</svg>
