<?xml version="1.0" encoding="UTF-8"?>
<svg xmlns="http://www.w3.org/2000/svg" xmlns:xlink="http://www.w3.org/1999/xlink" width="36pt" height="36pt" viewBox="0 0 36 36" version="1.1">
<g id="surface1">
<path style=" stroke:none;fill-rule:nonzero;fill:rgb(96.078431%,96.078431%,96.078431%);fill-opacity:1;" d="M 35.378906 29.792969 L 0.621094 29.792969 C 0.277344 29.792969 0 29.515625 0 29.171875 L 0 6.828125 C 0 6.484375 0.277344 6.207031 0.621094 6.207031 L 35.378906 6.207031 C 35.722656 6.207031 36 6.484375 36 6.828125 L 36 29.171875 C 36 29.515625 35.722656 29.792969 35.378906 29.792969 Z M 35.378906 29.792969 "/>
<path style=" stroke:none;fill-rule:nonzero;fill:rgb(100%,29.411765%,33.333333%);fill-opacity:1;" d="M 36 16.757812 L 19.242188 16.757812 L 19.242188 6.207031 L 16.757812 6.207031 L 16.757812 16.757812 L 0 16.757812 L 0 19.242188 L 16.757812 19.242188 L 16.757812 29.792969 L 19.242188 29.792969 L 19.242188 19.242188 L 36 19.242188 Z M 36 16.757812 "/>
<path style=" stroke:none;fill-rule:nonzero;fill:rgb(27.45098%,27.45098%,33.333333%);fill-opacity:1;" d="M 11.609375 11.765625 C 11.714844 11.558594 11.140625 10.882812 11.167969 10.730469 C 11.199219 10.578125 11.269531 10.34375 11.023438 9.457031 C 10.777344 8.566406 10.042969 8.355469 9.15625 8.261719 C 8.269531 8.171875 7.097656 8.808594 6.832031 9.5 C 6.671875 9.921875 6.777344 10.390625 6.945312 10.835938 C 6.871094 10.84375 6.726562 10.847656 6.621094 10.769531 C 6.535156 10.707031 6.488281 10.597656 6.480469 10.449219 C 6.453125 9.886719 6.757812 8.964844 6.761719 8.957031 L 6.785156 8.886719 L 5.820312 8.546875 L 5.878906 9 L 5.132812 8.839844 L 5.179688 8.964844 C 5.246094 9.144531 5.820312 10.726562 5.898438 10.867188 C 6.027344 11.09375 6.199219 11.238281 6.414062 11.300781 C 6.488281 11.320312 6.5625 11.328125 6.636719 11.328125 C 6.644531 11.328125 6.652344 11.328125 6.660156 11.328125 C 6.617188 11.40625 6.53125 11.507812 6.304688 11.613281 C 6.042969 11.734375 5.773438 11.863281 5.746094 12.359375 L 5.738281 12.363281 C 5.738281 12.367188 5.742188 12.367188 5.746094 12.375 C 5.738281 12.503906 5.746094 12.652344 5.773438 12.839844 C 5.851562 13.300781 6.011719 13.753906 6.015625 13.773438 L 6.03125 13.816406 L 6.078125 13.820312 C 6.082031 13.820312 6.382812 13.859375 6.476562 14.175781 C 6.53125 14.359375 6.699219 14.5 6.863281 14.5 C 6.871094 14.5 6.875 14.5 6.878906 14.5 C 6.949219 14.496094 7.121094 14.457031 7.179688 14.175781 L 7.1875 14.136719 L 6.730469 13.71875 L 6.882812 13.214844 L 6.8125 13.195312 C 6.808594 13.191406 6.503906 13.101562 6.191406 12.761719 C 6.164062 12.621094 6.167969 12.519531 6.203125 12.460938 C 6.246094 12.398438 6.339844 12.378906 6.441406 12.359375 C 6.539062 12.339844 6.640625 12.320312 6.722656 12.253906 C 6.984375 12.050781 7.132812 11.695312 7.207031 11.453125 C 7.246094 11.546875 7.285156 11.636719 7.320312 11.71875 C 7.582031 12.363281 6.863281 13.097656 6.863281 13.097656 C 7.320312 13.28125 7.367188 13.386719 8.007812 14.183594 C 8.652344 14.976562 9.234375 14.640625 9.234375 14.640625 C 9.234375 14.640625 9.148438 14.132812 9.574219 13.917969 C 9.996094 13.703125 10.003906 13.425781 10.003906 13.425781 C 11.058594 13.671875 11.121094 13.242188 11.074219 13.089844 C 11.03125 12.941406 11.085938 12.707031 11.085938 12.707031 C 11.085938 12.707031 11.191406 12.710938 11.269531 12.660156 C 11.394531 12.578125 11.3125 12.378906 11.3125 12.378906 C 11.433594 12.320312 11.480469 12.191406 11.386719 12.09375 C 11.292969 11.996094 11.300781 11.886719 11.300781 11.886719 C 11.300781 11.886719 11.542969 11.90625 11.609375 11.765625 Z M 6.453125 11.15625 C 6.277344 11.109375 6.136719 10.988281 6.027344 10.792969 C 5.976562 10.703125 5.617188 9.738281 5.363281 9.039062 L 5.898438 9.15625 L 6 9.957031 L 6.144531 9.9375 L 5.996094 8.765625 L 6.601562 8.980469 C 6.527344 9.207031 6.308594 9.953125 6.335938 10.457031 C 6.34375 10.652344 6.414062 10.796875 6.53125 10.886719 C 6.640625 10.96875 6.773438 10.988281 6.875 10.988281 C 6.933594 10.988281 6.972656 10.980469 7 10.976562 C 7.015625 11.011719 7.03125 11.050781 7.046875 11.085938 C 6.960938 11.128906 6.714844 11.230469 6.453125 11.15625 Z M 7.027344 14.1875 C 7.003906 14.261719 6.960938 14.347656 6.871094 14.351562 C 6.871094 14.351562 6.867188 14.351562 6.863281 14.351562 C 6.765625 14.351562 6.652344 14.253906 6.617188 14.132812 C 6.617188 14.128906 6.613281 14.125 6.609375 14.121094 L 6.683594 13.875 Z M 6.703125 13.3125 L 6.515625 13.925781 C 6.394531 13.761719 6.222656 13.703125 6.140625 13.683594 C 6.101562 13.5625 5.980469 13.1875 5.921875 12.816406 C 5.90625 12.738281 5.902344 12.667969 5.894531 12.605469 C 6.203125 13.054688 6.554688 13.25 6.703125 13.3125 Z M 6.632812 12.140625 C 6.578125 12.179688 6.5 12.195312 6.414062 12.214844 C 6.292969 12.238281 6.160156 12.265625 6.082031 12.382812 C 6.054688 12.425781 6.039062 12.476562 6.035156 12.535156 C 5.984375 12.46875 5.933594 12.410156 5.890625 12.324219 C 5.921875 11.953125 6.125 11.855469 6.367188 11.746094 C 6.714844 11.582031 6.796875 11.410156 6.832031 11.308594 C 6.957031 11.285156 7.046875 11.246094 7.105469 11.21875 C 7.105469 11.226562 7.109375 11.230469 7.113281 11.238281 C 7.074219 11.410156 6.941406 11.898438 6.632812 12.140625 Z M 7.453125 11.480469 L 7.152344 10.835938 L 10.679688 9.199219 C 10.910156 9.636719 10.933594 10.15625 10.933594 10.15625 Z M 7.453125 11.480469 "/>
<path style=" stroke:none;fill-rule:nonzero;fill:rgb(27.45098%,27.45098%,33.333333%);fill-opacity:1;" d="M 30.851562 11.765625 C 30.957031 11.558594 30.378906 10.882812 30.410156 10.730469 C 30.441406 10.578125 30.511719 10.34375 30.265625 9.457031 C 30.019531 8.566406 29.285156 8.355469 28.398438 8.261719 C 27.511719 8.171875 26.335938 8.808594 26.070312 9.5 C 25.914062 9.921875 26.019531 10.390625 26.1875 10.835938 C 26.113281 10.84375 25.96875 10.847656 25.863281 10.769531 C 25.777344 10.707031 25.730469 10.597656 25.722656 10.449219 C 25.695312 9.886719 26 8.964844 26.003906 8.957031 L 26.027344 8.886719 L 25.0625 8.546875 L 25.121094 9 L 24.375 8.839844 L 24.421875 8.964844 C 24.488281 9.144531 25.0625 10.726562 25.140625 10.867188 C 25.269531 11.09375 25.441406 11.238281 25.652344 11.300781 C 25.730469 11.320312 25.804688 11.328125 25.878906 11.328125 C 25.886719 11.328125 25.894531 11.328125 25.902344 11.328125 C 25.859375 11.40625 25.769531 11.507812 25.546875 11.613281 C 25.28125 11.734375 25.015625 11.863281 24.988281 12.359375 L 24.976562 12.363281 C 24.980469 12.367188 24.984375 12.367188 24.984375 12.375 C 24.980469 12.503906 24.984375 12.652344 25.015625 12.839844 C 25.09375 13.300781 25.25 13.753906 25.257812 13.773438 L 25.273438 13.816406 L 25.320312 13.820312 C 25.324219 13.820312 25.625 13.859375 25.71875 14.175781 C 25.773438 14.359375 25.941406 14.5 26.105469 14.5 C 26.109375 14.5 26.113281 14.5 26.121094 14.5 C 26.191406 14.496094 26.363281 14.457031 26.421875 14.175781 L 26.429688 14.136719 L 25.972656 13.71875 L 26.125 13.214844 L 26.054688 13.195312 C 26.050781 13.191406 25.746094 13.101562 25.433594 12.761719 C 25.40625 12.621094 25.410156 12.519531 25.445312 12.460938 C 25.488281 12.398438 25.578125 12.378906 25.683594 12.359375 C 25.78125 12.339844 25.882812 12.320312 25.964844 12.253906 C 26.226562 12.050781 26.375 11.695312 26.449219 11.453125 C 26.488281 11.546875 26.527344 11.636719 26.5625 11.71875 C 26.820312 12.363281 26.101562 13.097656 26.101562 13.097656 C 26.5625 13.28125 26.609375 13.386719 27.25 14.183594 C 27.894531 14.976562 28.472656 14.640625 28.472656 14.640625 C 28.472656 14.640625 28.390625 14.132812 28.8125 13.917969 C 29.234375 13.703125 29.246094 13.425781 29.246094 13.425781 C 30.300781 13.671875 30.363281 13.242188 30.316406 13.089844 C 30.269531 12.941406 30.328125 12.707031 30.328125 12.707031 C 30.328125 12.707031 30.433594 12.710938 30.511719 12.660156 C 30.636719 12.578125 30.554688 12.378906 30.554688 12.378906 C 30.675781 12.320312 30.71875 12.191406 30.628906 12.09375 C 30.535156 11.996094 30.542969 11.886719 30.542969 11.886719 C 30.542969 11.886719 30.785156 11.90625 30.851562 11.765625 Z M 25.691406 11.15625 C 25.519531 11.109375 25.375 10.988281 25.269531 10.792969 C 25.21875 10.703125 24.859375 9.738281 24.605469 9.039062 L 25.140625 9.15625 L 25.238281 9.957031 L 25.386719 9.9375 L 25.238281 8.765625 L 25.84375 8.980469 C 25.769531 9.207031 25.550781 9.953125 25.578125 10.457031 C 25.585938 10.652344 25.652344 10.796875 25.773438 10.886719 C 25.882812 10.96875 26.015625 10.988281 26.117188 10.988281 C 26.175781 10.988281 26.214844 10.980469 26.242188 10.976562 C 26.257812 11.011719 26.273438 11.050781 26.289062 11.085938 C 26.203125 11.128906 25.953125 11.230469 25.691406 11.15625 Z M 26.265625 14.1875 C 26.246094 14.261719 26.203125 14.347656 26.113281 14.351562 C 26.109375 14.351562 26.109375 14.351562 26.105469 14.351562 C 26.007812 14.351562 25.894531 14.253906 25.859375 14.132812 C 25.855469 14.128906 25.851562 14.125 25.851562 14.121094 L 25.925781 13.875 Z M 25.941406 13.3125 L 25.757812 13.925781 C 25.636719 13.761719 25.464844 13.703125 25.382812 13.683594 C 25.34375 13.5625 25.222656 13.1875 25.160156 12.816406 C 25.148438 12.738281 25.140625 12.667969 25.136719 12.605469 C 25.445312 13.054688 25.792969 13.25 25.941406 13.3125 Z M 25.875 12.140625 C 25.820312 12.179688 25.738281 12.195312 25.65625 12.214844 C 25.535156 12.238281 25.398438 12.265625 25.324219 12.382812 C 25.296875 12.425781 25.28125 12.476562 25.273438 12.535156 C 25.226562 12.46875 25.175781 12.410156 25.128906 12.324219 C 25.164062 11.953125 25.367188 11.855469 25.609375 11.746094 C 25.957031 11.582031 26.039062 11.410156 26.074219 11.308594 C 26.195312 11.285156 26.289062 11.246094 26.34375 11.21875 C 26.347656 11.226562 26.351562 11.230469 26.351562 11.238281 C 26.316406 11.410156 26.183594 11.898438 25.875 12.140625 Z M 26.695312 11.480469 L 26.394531 10.835938 L 29.917969 9.199219 C 30.148438 9.636719 30.171875 10.15625 30.171875 10.15625 Z M 26.695312 11.480469 "/>
<path style=" stroke:none;fill-rule:nonzero;fill:rgb(27.45098%,27.45098%,33.333333%);fill-opacity:1;" d="M 11.609375 24.800781 C 11.714844 24.59375 11.140625 23.917969 11.167969 23.765625 C 11.199219 23.613281 11.269531 23.378906 11.023438 22.488281 C 10.777344 21.601562 10.042969 21.386719 9.15625 21.296875 C 8.269531 21.203125 7.097656 21.839844 6.832031 22.535156 C 6.671875 22.953125 6.777344 23.421875 6.945312 23.867188 C 6.871094 23.878906 6.726562 23.882812 6.621094 23.804688 C 6.535156 23.738281 6.488281 23.632812 6.480469 23.484375 C 6.453125 22.921875 6.757812 22 6.761719 21.992188 L 6.785156 21.921875 L 5.820312 21.582031 L 5.878906 22.035156 L 5.132812 21.875 L 5.179688 22 C 5.246094 22.179688 5.820312 23.761719 5.898438 23.902344 C 6.027344 24.128906 6.199219 24.273438 6.414062 24.332031 C 6.488281 24.355469 6.5625 24.363281 6.636719 24.363281 C 6.644531 24.363281 6.652344 24.359375 6.660156 24.359375 C 6.617188 24.441406 6.53125 24.542969 6.304688 24.648438 C 6.042969 24.769531 5.773438 24.898438 5.746094 25.390625 L 5.738281 25.394531 C 5.738281 25.402344 5.742188 25.402344 5.746094 25.40625 C 5.738281 25.539062 5.746094 25.6875 5.773438 25.875 C 5.851562 26.335938 6.011719 26.789062 6.015625 26.808594 L 6.03125 26.851562 L 6.078125 26.855469 C 6.082031 26.855469 6.382812 26.890625 6.476562 27.210938 C 6.53125 27.394531 6.699219 27.535156 6.863281 27.535156 C 6.871094 27.535156 6.875 27.535156 6.878906 27.535156 C 6.949219 27.53125 7.121094 27.492188 7.179688 27.210938 L 7.1875 27.171875 L 6.730469 26.75 L 6.882812 26.246094 L 6.8125 26.226562 C 6.808594 26.226562 6.503906 26.136719 6.191406 25.796875 C 6.164062 25.65625 6.167969 25.554688 6.203125 25.496094 C 6.246094 25.433594 6.339844 25.414062 6.441406 25.394531 C 6.539062 25.375 6.640625 25.351562 6.722656 25.289062 C 6.984375 25.085938 7.132812 24.730469 7.207031 24.488281 C 7.246094 24.582031 7.285156 24.667969 7.320312 24.753906 C 7.582031 25.398438 6.863281 26.128906 6.863281 26.128906 C 7.320312 26.3125 7.367188 26.421875 8.007812 27.21875 C 8.652344 28.011719 9.234375 27.675781 9.234375 27.675781 C 9.234375 27.675781 9.148438 27.167969 9.574219 26.953125 C 9.996094 26.738281 10.003906 26.460938 10.003906 26.460938 C 11.058594 26.707031 11.121094 26.277344 11.074219 26.125 C 11.03125 25.976562 11.085938 25.742188 11.085938 25.742188 C 11.085938 25.742188 11.191406 25.746094 11.269531 25.695312 C 11.394531 25.609375 11.3125 25.410156 11.3125 25.410156 C 11.433594 25.355469 11.480469 25.226562 11.386719 25.128906 C 11.292969 25.03125 11.300781 24.921875 11.300781 24.921875 C 11.300781 24.921875 11.542969 24.941406 11.609375 24.800781 Z M 6.453125 24.191406 C 6.277344 24.144531 6.136719 24.023438 6.027344 23.828125 C 5.976562 23.738281 5.617188 22.773438 5.363281 22.074219 L 5.898438 22.1875 L 6 22.992188 L 6.144531 22.972656 L 5.996094 21.800781 L 6.601562 22.011719 C 6.527344 22.242188 6.308594 22.988281 6.335938 23.492188 C 6.34375 23.6875 6.414062 23.828125 6.53125 23.921875 C 6.640625 24.003906 6.773438 24.019531 6.875 24.019531 C 6.933594 24.019531 6.972656 24.015625 7 24.011719 C 7.015625 24.046875 7.03125 24.082031 7.046875 24.121094 C 6.960938 24.160156 6.714844 24.265625 6.453125 24.191406 Z M 7.027344 27.222656 C 7.003906 27.292969 6.960938 27.382812 6.871094 27.386719 C 6.871094 27.386719 6.867188 27.386719 6.863281 27.386719 C 6.765625 27.386719 6.652344 27.289062 6.617188 27.167969 C 6.617188 27.164062 6.613281 27.160156 6.609375 27.152344 L 6.683594 26.90625 Z M 6.703125 26.34375 L 6.515625 26.960938 C 6.394531 26.796875 6.222656 26.738281 6.140625 26.71875 C 6.101562 26.597656 5.980469 26.222656 5.921875 25.847656 C 5.90625 25.769531 5.902344 25.703125 5.894531 25.636719 C 6.203125 26.089844 6.554688 26.285156 6.703125 26.34375 Z M 6.632812 25.175781 C 6.578125 25.214844 6.5 25.230469 6.414062 25.25 C 6.292969 25.273438 6.160156 25.300781 6.082031 25.417969 C 6.054688 25.457031 6.039062 25.511719 6.035156 25.570312 C 5.984375 25.503906 5.933594 25.445312 5.890625 25.359375 C 5.921875 24.984375 6.125 24.890625 6.367188 24.78125 C 6.714844 24.617188 6.796875 24.445312 6.832031 24.34375 C 6.957031 24.320312 7.046875 24.28125 7.105469 24.253906 C 7.105469 24.261719 7.109375 24.265625 7.113281 24.273438 C 7.074219 24.441406 6.941406 24.933594 6.632812 25.175781 Z M 7.453125 24.511719 L 7.152344 23.867188 L 10.679688 22.234375 C 10.910156 22.671875 10.933594 23.1875 10.933594 23.1875 Z M 7.453125 24.511719 "/>
<path style=" stroke:none;fill-rule:nonzero;fill:rgb(27.45098%,27.45098%,33.333333%);fill-opacity:1;" d="M 30.851562 24.800781 C 30.957031 24.59375 30.378906 23.917969 30.410156 23.765625 C 30.441406 23.613281 30.511719 23.378906 30.265625 22.488281 C 30.019531 21.601562 29.285156 21.386719 28.398438 21.296875 C 27.511719 21.203125 26.335938 21.839844 26.070312 22.535156 C 25.914062 22.953125 26.019531 23.421875 26.1875 23.867188 C 26.113281 23.878906 25.96875 23.882812 25.863281 23.804688 C 25.777344 23.738281 25.730469 23.632812 25.722656 23.484375 C 25.695312 22.921875 26 22 26.003906 21.992188 L 26.027344 21.921875 L 25.0625 21.582031 L 25.121094 22.035156 L 24.375 21.875 L 24.421875 22 C 24.488281 22.179688 25.0625 23.761719 25.140625 23.902344 C 25.269531 24.128906 25.441406 24.273438 25.652344 24.332031 C 25.730469 24.355469 25.804688 24.363281 25.878906 24.363281 C 25.886719 24.363281 25.894531 24.359375 25.902344 24.359375 C 25.859375 24.441406 25.769531 24.542969 25.546875 24.648438 C 25.28125 24.769531 25.015625 24.898438 24.988281 25.390625 L 24.976562 25.394531 C 24.980469 25.402344 24.984375 25.402344 24.984375 25.40625 C 24.980469 25.539062 24.984375 25.6875 25.015625 25.875 C 25.09375 26.335938 25.25 26.789062 25.257812 26.808594 L 25.273438 26.851562 L 25.320312 26.855469 C 25.324219 26.855469 25.625 26.890625 25.71875 27.210938 C 25.773438 27.394531 25.941406 27.535156 26.105469 27.535156 C 26.109375 27.535156 26.113281 27.535156 26.121094 27.535156 C 26.191406 27.53125 26.363281 27.492188 26.421875 27.210938 L 26.429688 27.171875 L 25.972656 26.75 L 26.125 26.246094 L 26.054688 26.226562 C 26.050781 26.226562 25.746094 26.136719 25.433594 25.796875 C 25.40625 25.65625 25.410156 25.554688 25.445312 25.496094 C 25.488281 25.433594 25.578125 25.414062 25.683594 25.394531 C 25.78125 25.375 25.882812 25.351562 25.964844 25.289062 C 26.226562 25.085938 26.375 24.730469 26.449219 24.488281 C 26.488281 24.582031 26.527344 24.667969 26.5625 24.753906 C 26.820312 25.398438 26.101562 26.128906 26.101562 26.128906 C 26.5625 26.3125 26.609375 26.421875 27.25 27.21875 C 27.894531 28.011719 28.472656 27.675781 28.472656 27.675781 C 28.472656 27.675781 28.390625 27.167969 28.8125 26.953125 C 29.234375 26.738281 29.246094 26.460938 29.246094 26.460938 C 30.300781 26.707031 30.363281 26.277344 30.316406 26.125 C 30.269531 25.976562 30.328125 25.742188 30.328125 25.742188 C 30.328125 25.742188 30.433594 25.746094 30.511719 25.695312 C 30.636719 25.609375 30.554688 25.410156 30.554688 25.410156 C 30.675781 25.355469 30.71875 25.226562 30.628906 25.128906 C 30.535156 25.03125 30.542969 24.921875 30.542969 24.921875 C 30.542969 24.921875 30.785156 24.941406 30.851562 24.800781 Z M 25.691406 24.191406 C 25.519531 24.144531 25.375 24.023438 25.269531 23.828125 C 25.21875 23.738281 24.859375 22.773438 24.605469 22.074219 L 25.140625 22.1875 L 25.238281 22.992188 L 25.386719 22.972656 L 25.238281 21.800781 L 25.84375 22.011719 C 25.769531 22.242188 25.550781 22.988281 25.578125 23.492188 C 25.585938 23.6875 25.652344 23.828125 25.773438 23.921875 C 25.882812 24.003906 26.015625 24.019531 26.117188 24.019531 C 26.175781 24.019531 26.214844 24.015625 26.242188 24.011719 C 26.257812 24.046875 26.273438 24.082031 26.289062 24.121094 C 26.203125 24.160156 25.953125 24.265625 25.691406 24.191406 Z M 26.265625 27.222656 C 26.246094 27.292969 26.203125 27.382812 26.113281 27.386719 C 26.109375 27.386719 26.109375 27.386719 26.105469 27.386719 C 26.007812 27.386719 25.894531 27.289062 25.859375 27.167969 C 25.855469 27.164062 25.851562 27.160156 25.851562 27.152344 L 25.925781 26.90625 Z M 25.941406 26.34375 L 25.757812 26.960938 C 25.636719 26.796875 25.464844 26.738281 25.382812 26.71875 C 25.34375 26.597656 25.222656 26.222656 25.160156 25.847656 C 25.148438 25.769531 25.140625 25.703125 25.136719 25.636719 C 25.445312 26.089844 25.792969 26.285156 25.941406 26.34375 Z M 25.875 25.175781 C 25.820312 25.214844 25.738281 25.230469 25.65625 25.25 C 25.535156 25.273438 25.398438 25.300781 25.324219 25.417969 C 25.296875 25.457031 25.28125 25.511719 25.273438 25.570312 C 25.226562 25.503906 25.175781 25.445312 25.128906 25.359375 C 25.164062 24.984375 25.367188 24.890625 25.609375 24.78125 C 25.957031 24.617188 26.039062 24.445312 26.074219 24.34375 C 26.195312 24.320312 26.289062 24.28125 26.34375 24.253906 C 26.347656 24.261719 26.351562 24.265625 26.351562 24.273438 C 26.316406 24.441406 26.183594 24.933594 25.875 25.175781 Z M 26.695312 24.511719 L 26.394531 23.867188 L 29.917969 22.234375 C 30.148438 22.671875 30.171875 23.1875 30.171875 23.1875 Z M 26.695312 24.511719 "/>
</g>
</svg>
