<?xml version="1.0" encoding="UTF-8"?>
<svg xmlns="http://www.w3.org/2000/svg" xmlns:xlink="http://www.w3.org/1999/xlink" width="36pt" height="36pt" viewBox="0 0 36 36" version="1.1">
<g id="surface1">
<path style=" stroke:none;fill-rule:nonzero;fill:rgb(25.490196%,45.098039%,80.392157%);fill-opacity:1;" d="M 35.378906 6.207031 L 0.621094 6.207031 C 0.277344 6.207031 0 6.484375 0 6.828125 L 0 29.171875 C 0 29.515625 0.277344 29.792969 0.621094 29.792969 L 35.378906 29.792969 C 35.722656 29.792969 36 29.515625 36 29.171875 L 36 6.828125 C 36 6.484375 35.722656 6.207031 35.378906 6.207031 Z M 35.378906 6.207031 "/>
<path style=" stroke:none;fill-rule:nonzero;fill:rgb(96.078431%,96.078431%,96.078431%);fill-opacity:1;" d="M 36 6.828125 C 36 6.484375 35.722656 6.207031 35.378906 6.207031 L 32.601562 6.207031 L 18 15.773438 L 3.398438 6.207031 L 0.621094 6.207031 C 0.277344 6.207031 0 6.484375 0 6.828125 L 0 8.433594 L 14.601562 18 L 0 27.566406 L 0 29.171875 C 0 29.515625 0.277344 29.792969 0.621094 29.792969 L 3.398438 29.792969 L 18 20.226562 L 32.601562 29.792969 L 35.378906 29.792969 C 35.722656 29.792969 36 29.515625 36 29.171875 L 36 27.566406 L 21.398438 18 L 36 8.433594 Z M 36 6.828125 "/>
</g>
</svg>
