<?xml version="1.0" encoding="UTF-8"?>
<svg xmlns="http://www.w3.org/2000/svg" xmlns:xlink="http://www.w3.org/1999/xlink" width="36pt" height="36pt" viewBox="0 0 36 36" version="1.1">
<g id="surface1">
<path style=" stroke:none;fill-rule:nonzero;fill:rgb(45.098039%,68.627451%,0%);fill-opacity:1;" d="M 0.621094 29.792969 L 35.378906 29.792969 C 35.722656 29.792969 36 29.515625 36 29.171875 L 36 21.929688 L 0.339844 29.71875 C 0.425781 29.761719 0.519531 29.792969 0.621094 29.792969 Z M 0.621094 29.792969 "/>
<path style=" stroke:none;fill-rule:nonzero;fill:rgb(25.490196%,27.843137%,60.784314%);fill-opacity:1;" d="M 12 6.207031 L 0.621094 6.207031 C 0.277344 6.207031 0 6.484375 0 6.828125 L 0 29.171875 C 0 29.3125 0.0546875 29.433594 0.132812 29.535156 Z M 12 6.207031 "/>
<path style=" stroke:none;fill-rule:nonzero;fill:rgb(100%,88.235294%,35.294118%);fill-opacity:1;" d="M 0.183594 29.613281 L 24 6.207031 L 12 6.207031 L 0.132812 29.535156 C 0.148438 29.5625 0.160156 29.589844 0.183594 29.613281 Z M 0.183594 29.613281 "/>
<path style=" stroke:none;fill-rule:nonzero;fill:rgb(100%,29.411765%,33.333333%);fill-opacity:1;" d="M 35.378906 6.207031 L 24 6.207031 L 0.183594 29.613281 C 0.210938 29.636719 0.242188 29.652344 0.273438 29.671875 L 36 14.070312 L 36 6.828125 C 36 6.484375 35.722656 6.207031 35.378906 6.207031 Z M 35.378906 6.207031 "/>
<path style=" stroke:none;fill-rule:nonzero;fill:rgb(96.078431%,96.078431%,96.078431%);fill-opacity:1;" d="M 0.339844 29.71875 L 36 21.929688 L 36 14.070312 L 0.273438 29.671875 C 0.296875 29.6875 0.316406 29.707031 0.339844 29.71875 Z M 0.339844 29.71875 "/>
</g>
</svg>
