<?xml version="1.0" encoding="UTF-8"?>
<svg xmlns="http://www.w3.org/2000/svg" xmlns:xlink="http://www.w3.org/1999/xlink" width="36pt" height="36pt" viewBox="0 0 36 36" version="1.1">
<g id="surface1">
<path style=" stroke:none;fill-rule:nonzero;fill:rgb(96.078431%,96.078431%,96.078431%);fill-opacity:1;" d="M 36 14.070312 L 0 14.070312 L 0 6.828125 C 0 6.484375 0.277344 6.207031 0.621094 6.207031 L 35.378906 6.207031 C 35.722656 6.207031 36 6.484375 36 6.828125 Z M 36 14.070312 "/>
<path style=" stroke:none;fill-rule:nonzero;fill:rgb(100%,29.411765%,33.333333%);fill-opacity:1;" d="M 35.378906 29.792969 L 0.621094 29.792969 C 0.277344 29.792969 0 29.515625 0 29.171875 L 0 21.929688 L 36 21.929688 L 36 29.171875 C 36 29.515625 35.722656 29.792969 35.378906 29.792969 Z M 35.378906 29.792969 "/>
<path style=" stroke:none;fill-rule:nonzero;fill:rgb(25.490196%,27.843137%,60.784314%);fill-opacity:1;" d="M 0 14.070312 L 36 14.070312 L 36 21.929688 L 0 21.929688 Z M 0 14.070312 "/>
<path style=" stroke:none;fill-rule:nonzero;fill:rgb(25.490196%,27.843137%,60.784314%);fill-opacity:1;" d="M 12.09375 11.066406 C 12.09375 11.066406 11.96875 15.046875 11.410156 16.164062 C 10.71875 17.539062 10.023438 17.941406 8.988281 18.308594 C 7.957031 17.941406 7.261719 17.539062 6.566406 16.164062 C 6.007812 15.046875 5.882812 11.066406 5.882812 11.066406 C 7.859375 10.171875 10.121094 10.171875 12.09375 11.066406 Z M 12.09375 11.066406 "/>
<path style=" stroke:none;fill-rule:nonzero;fill:rgb(96.078431%,96.078431%,96.078431%);fill-opacity:1;" d="M 9.890625 16.585938 C 9.8125 16.539062 9.757812 16.503906 9.632812 16.503906 C 9.511719 16.503906 9.457031 16.539062 9.378906 16.585938 C 9.292969 16.640625 9.1875 16.710938 8.988281 16.710938 C 8.789062 16.710938 8.679688 16.640625 8.59375 16.585938 C 8.519531 16.539062 8.464844 16.503906 8.339844 16.503906 C 8.21875 16.503906 8.164062 16.539062 8.085938 16.585938 C 8.003906 16.636719 7.902344 16.699219 7.722656 16.707031 C 8.101562 17.167969 8.496094 17.386719 8.988281 17.574219 C 9.480469 17.386719 9.878906 17.167969 10.253906 16.707031 C 10.074219 16.703125 9.96875 16.636719 9.890625 16.585938 Z M 9.890625 16.585938 "/>
<path style=" stroke:none;fill-rule:nonzero;fill:rgb(96.078431%,96.078431%,96.078431%);fill-opacity:1;" d="M 7.441406 15.851562 C 7.515625 15.898438 7.570312 15.933594 7.695312 15.933594 C 7.816406 15.933594 7.871094 15.898438 7.949219 15.851562 C 8.035156 15.796875 8.140625 15.726562 8.339844 15.726562 C 8.539062 15.726562 8.648438 15.796875 8.734375 15.851562 C 8.808594 15.898438 8.863281 15.933594 8.988281 15.933594 C 9.113281 15.933594 9.164062 15.898438 9.242188 15.851562 C 9.328125 15.796875 9.433594 15.726562 9.632812 15.726562 C 9.835938 15.726562 9.941406 15.796875 10.027344 15.851562 C 10.105469 15.898438 10.15625 15.933594 10.28125 15.933594 C 10.40625 15.933594 10.460938 15.898438 10.535156 15.851562 C 10.609375 15.804688 10.699219 15.75 10.84375 15.734375 C 10.878906 15.636719 10.917969 15.527344 10.949219 15.390625 L 10.023438 13.847656 L 9.679688 14.535156 L 8.988281 13.15625 L 8.300781 14.535156 L 7.953125 13.847656 L 7.027344 15.390625 C 7.0625 15.523438 7.097656 15.636719 7.136719 15.734375 C 7.28125 15.75 7.371094 15.804688 7.441406 15.851562 Z M 7.441406 15.851562 "/>
<path style=" stroke:none;fill-rule:nonzero;fill:rgb(96.078431%,96.078431%,96.078431%);fill-opacity:1;" d="M 10.675781 16.070312 C 10.589844 16.125 10.480469 16.191406 10.28125 16.191406 C 10.082031 16.191406 9.976562 16.125 9.890625 16.070312 C 9.8125 16.019531 9.757812 15.984375 9.632812 15.984375 C 9.511719 15.984375 9.457031 16.019531 9.378906 16.070312 C 9.292969 16.125 9.1875 16.191406 8.988281 16.191406 C 8.789062 16.191406 8.679688 16.125 8.59375 16.070312 C 8.519531 16.019531 8.464844 15.984375 8.339844 15.984375 C 8.21875 15.984375 8.164062 16.019531 8.085938 16.070312 C 8 16.125 7.894531 16.191406 7.695312 16.191406 C 7.496094 16.191406 7.386719 16.125 7.300781 16.070312 C 7.300781 16.070312 7.300781 16.066406 7.300781 16.066406 C 7.367188 16.191406 7.4375 16.304688 7.503906 16.40625 C 7.554688 16.433594 7.605469 16.453125 7.695312 16.453125 C 7.816406 16.453125 7.871094 16.417969 7.949219 16.367188 C 8.035156 16.3125 8.140625 16.246094 8.339844 16.246094 C 8.539062 16.246094 8.648438 16.3125 8.734375 16.367188 C 8.808594 16.417969 8.863281 16.453125 8.988281 16.453125 C 9.113281 16.453125 9.164062 16.417969 9.242188 16.367188 C 9.328125 16.3125 9.433594 16.246094 9.632812 16.246094 C 9.835938 16.246094 9.941406 16.3125 10.027344 16.367188 C 10.105469 16.417969 10.15625 16.453125 10.28125 16.453125 C 10.371094 16.453125 10.425781 16.433594 10.476562 16.40625 C 10.542969 16.304688 10.609375 16.191406 10.679688 16.066406 C 10.675781 16.066406 10.675781 16.070312 10.675781 16.070312 Z M 10.675781 16.070312 "/>
<path style=" stroke:none;fill-rule:nonzero;fill:rgb(100%,88.235294%,35.294118%);fill-opacity:1;" d="M 9.003906 11.96875 L 9.0625 12.167969 L 9.265625 12.121094 C 9.277344 12.117188 9.289062 12.132812 9.277344 12.144531 L 9.136719 12.296875 L 9.277344 12.445312 C 9.289062 12.457031 9.277344 12.472656 9.265625 12.46875 L 9.0625 12.421875 L 9.003906 12.621094 C 9 12.636719 8.980469 12.636719 8.976562 12.621094 L 8.914062 12.421875 L 8.714844 12.46875 C 8.699219 12.472656 8.691406 12.457031 8.699219 12.445312 L 8.839844 12.296875 L 8.699219 12.144531 C 8.691406 12.132812 8.699219 12.117188 8.714844 12.121094 L 8.914062 12.167969 L 8.976562 11.96875 C 8.980469 11.957031 9 11.957031 9.003906 11.96875 Z M 9.003906 11.96875 "/>
<path style=" stroke:none;fill-rule:nonzero;fill:rgb(100%,88.235294%,35.294118%);fill-opacity:1;" d="M 8.011719 11.019531 L 8.070312 11.214844 L 8.273438 11.167969 C 8.285156 11.167969 8.296875 11.183594 8.285156 11.191406 L 8.144531 11.34375 L 8.285156 11.496094 C 8.296875 11.507812 8.289062 11.523438 8.273438 11.519531 L 8.070312 11.472656 L 8.011719 11.671875 C 8.007812 11.683594 7.988281 11.683594 7.984375 11.671875 L 7.921875 11.472656 L 7.722656 11.519531 C 7.707031 11.523438 7.699219 11.507812 7.707031 11.496094 L 7.847656 11.34375 L 7.707031 11.191406 C 7.699219 11.183594 7.707031 11.167969 7.722656 11.167969 L 7.921875 11.214844 L 7.984375 11.019531 C 7.988281 11.003906 8.007812 11.003906 8.011719 11.019531 Z M 8.011719 11.019531 "/>
<path style=" stroke:none;fill-rule:nonzero;fill:rgb(100%,88.235294%,35.294118%);fill-opacity:1;" d="M 10.003906 11.019531 L 10.0625 11.214844 L 10.265625 11.167969 C 10.277344 11.167969 10.289062 11.183594 10.277344 11.191406 L 10.136719 11.34375 L 10.277344 11.496094 C 10.289062 11.507812 10.277344 11.523438 10.265625 11.519531 L 10.0625 11.472656 L 10.003906 11.671875 C 10 11.683594 9.980469 11.683594 9.976562 11.671875 L 9.914062 11.472656 L 9.714844 11.519531 C 9.699219 11.523438 9.691406 11.507812 9.699219 11.496094 L 9.839844 11.34375 L 9.699219 11.191406 C 9.691406 11.183594 9.699219 11.167969 9.714844 11.167969 L 9.914062 11.214844 L 9.976562 11.019531 C 9.980469 11.003906 10 11.003906 10.003906 11.019531 Z M 10.003906 11.019531 "/>
<path style=" stroke:none;fill-rule:nonzero;fill:rgb(100%,9.019608%,13.333333%);fill-opacity:1;" d="M 11.738281 10.914062 C 11.738281 11.023438 11.742188 11.136719 11.742188 11.257812 C 11.691406 12.5 11.507812 15.210938 11.101562 16.027344 C 10.507812 17.222656 9.957031 17.617188 8.988281 17.980469 C 8.019531 17.617188 7.472656 17.222656 6.875 16.027344 C 6.472656 15.210938 6.285156 12.453125 6.238281 11.257812 C 6.238281 11.136719 6.238281 11.027344 6.242188 10.914062 C 6.121094 10.960938 6.003906 11.011719 5.886719 11.066406 C 5.894531 11.304688 5.953125 12.890625 6.136719 14.285156 C 6.238281 15.066406 6.378906 15.78125 6.566406 16.164062 C 7.261719 17.539062 7.957031 17.941406 8.988281 18.308594 C 10.023438 17.941406 10.71875 17.539062 11.410156 16.164062 C 11.601562 15.78125 11.742188 15.066406 11.84375 14.285156 C 12.023438 12.890625 12.085938 11.304688 12.09375 11.066406 C 11.976562 11.011719 11.855469 10.960938 11.738281 10.914062 Z M 11.738281 10.914062 "/>
</g>
</svg>
