<?xml version="1.0" encoding="UTF-8"?>
<svg xmlns="http://www.w3.org/2000/svg" xmlns:xlink="http://www.w3.org/1999/xlink" width="36pt" height="36pt" viewBox="0 0 36 36" version="1.1">
<g id="surface1">
<path style=" stroke:none;fill-rule:nonzero;fill:rgb(100%,29.411765%,33.333333%);fill-opacity:1;" d="M 35.378906 29.792969 L 0.621094 29.792969 C 0.277344 29.792969 0 29.515625 0 29.171875 L 0 6.828125 C 0 6.484375 0.277344 6.207031 0.621094 6.207031 L 35.378906 6.207031 C 35.722656 6.207031 36 6.484375 36 6.828125 L 36 29.171875 C 36 29.515625 35.722656 29.792969 35.378906 29.792969 Z M 35.378906 29.792969 "/>
<path style=" stroke:none;fill-rule:nonzero;fill:rgb(96.078431%,96.078431%,96.078431%);fill-opacity:1;" d="M 24.828125 15.515625 L 20.484375 15.515625 L 20.484375 11.171875 C 20.484375 10.828125 20.203125 10.550781 19.863281 10.550781 L 16.136719 10.550781 C 15.796875 10.550781 15.515625 10.828125 15.515625 11.171875 L 15.515625 15.515625 L 11.171875 15.515625 C 10.828125 15.515625 10.550781 15.796875 10.550781 16.136719 L 10.550781 19.863281 C 10.550781 20.203125 10.828125 20.484375 11.171875 20.484375 L 15.515625 20.484375 L 15.515625 24.828125 C 15.515625 25.171875 15.796875 25.449219 16.136719 25.449219 L 19.863281 25.449219 C 20.203125 25.449219 20.484375 25.171875 20.484375 24.828125 L 20.484375 20.484375 L 24.828125 20.484375 C 25.171875 20.484375 25.449219 20.203125 25.449219 19.863281 L 25.449219 16.136719 C 25.449219 15.796875 25.171875 15.515625 24.828125 15.515625 Z M 24.828125 15.515625 "/>
</g>
</svg>
