<?xml version="1.0" encoding="UTF-8"?>
<svg xmlns="http://www.w3.org/2000/svg" xmlns:xlink="http://www.w3.org/1999/xlink" width="36pt" height="36pt" viewBox="0 0 36 36" version="1.1">
<g id="surface1">
<path style=" stroke:none;fill-rule:nonzero;fill:rgb(100%,29.411765%,33.333333%);fill-opacity:1;" d="M 35.378906 29.792969 L 0.621094 29.792969 C 0.277344 29.792969 0 29.515625 0 29.171875 L 0 6.828125 C 0 6.484375 0.277344 6.207031 0.621094 6.207031 L 35.378906 6.207031 C 35.722656 6.207031 36 6.484375 36 6.828125 L 36 29.171875 C 36 29.515625 35.722656 29.792969 35.378906 29.792969 Z M 35.378906 29.792969 "/>
<path style=" stroke:none;fill-rule:nonzero;fill:rgb(96.078431%,96.078431%,96.078431%);fill-opacity:1;" d="M 17.824219 15.875 L 18.796875 17.144531 L 20.3125 16.636719 C 20.398438 16.609375 20.472656 16.707031 20.421875 16.777344 L 19.511719 18.097656 L 20.464844 19.386719 C 20.515625 19.457031 20.449219 19.554688 20.363281 19.53125 L 18.828125 19.070312 L 17.898438 20.375 C 17.84375 20.449219 17.730469 20.414062 17.726562 20.324219 L 17.6875 18.722656 L 16.160156 18.242188 C 16.074219 18.214844 16.074219 18.09375 16.15625 18.066406 L 17.667969 17.53125 L 17.65625 15.929688 C 17.652344 15.839844 17.769531 15.800781 17.824219 15.875 Z M 17.824219 15.875 "/>
<path style=" stroke:none;fill-rule:nonzero;fill:rgb(96.078431%,96.078431%,96.078431%);fill-opacity:1;" d="M 12.441406 22.96875 C 9.699219 22.96875 7.476562 20.746094 7.476562 18 C 7.476562 15.261719 9.699219 13.03125 12.441406 13.03125 C 13.460938 13.03125 14.402344 13.34375 15.1875 13.875 C 15.308594 13.957031 15.445312 13.800781 15.34375 13.695312 C 14.171875 12.476562 12.511719 11.734375 10.675781 11.796875 C 7.515625 11.90625 4.902344 14.4375 4.699219 17.589844 C 4.46875 21.203125 7.328125 24.207031 10.890625 24.207031 C 12.644531 24.207031 14.222656 23.472656 15.347656 22.300781 C 15.449219 22.195312 15.308594 22.042969 15.191406 22.121094 C 14.40625 22.65625 13.464844 22.96875 12.441406 22.96875 Z M 12.441406 22.96875 "/>
</g>
</svg>
